%!PS-Adobe-3.0 EPSF-3.0
%%Title: WMF2EPS 1.32  : WMF->EPS conversion for clip003.emf
%%Creator: PScript5.dll Version 5.2
%%CreationDate: 7/1/2004 21:34:24
%%For: hig
%%BoundingBox: 56 56 124 124
%%Pages: 1
%%Orientation: Portrait
%%PageOrder: Ascend
%%DocumentNeededResources: (atend)
%%DocumentSuppliedResources: (atend)
%%DocumentData: Clean7Bit
%%TargetDevice: (WMF2EPS Color PS) (2010.0) 2
%%LanguageLevel: 2
%%EndComments

%%BeginDefaults
%%PageBoundingBox: 0 0 124 124
%%ViewingOrientation: 1 0 0 1
%%EndDefaults

%%BeginProlog
%%BeginResource: file Pscript_WinNT_VMErrorHandler 5.0 0
/currentpacking where{pop/oldpack currentpacking def/setpacking where{pop false
setpacking}if}if/$brkpage 64 dict def $brkpage begin/prnt{dup type/stringtype
ne{=string cvs}if dup length 6 mul/tx exch def/ty 10 def currentpoint/toy exch
def/tox exch def 1 setgray newpath tox toy 2 sub moveto 0 ty rlineto tx 0
rlineto 0 ty neg rlineto closepath fill tox toy moveto 0 setgray show}bind def
/nl{currentpoint exch pop lmargin exch moveto 0 -10 rmoveto}def/=={/cp 0 def
typeprint nl}def/typeprint{dup type exec}readonly def/lmargin 72 def/rmargin 72
def/tprint{dup length cp add rmargin gt{nl/cp 0 def}if dup length cp add/cp
exch def prnt}readonly def/cvsprint{=string cvs tprint( )tprint}readonly def
/integertype{cvsprint}readonly def/realtype{cvsprint}readonly def/booleantype
{cvsprint}readonly def/operatortype{(--)tprint =string cvs tprint(-- )tprint}
readonly def/marktype{pop(-mark- )tprint}readonly def/dicttype{pop
(-dictionary- )tprint}readonly def/nulltype{pop(-null- )tprint}readonly def
/filetype{pop(-filestream- )tprint}readonly def/savetype{pop(-savelevel- )
tprint}readonly def/fonttype{pop(-fontid- )tprint}readonly def/nametype{dup
xcheck not{(/)tprint}if cvsprint}readonly def/stringtype{dup rcheck{(\()tprint
tprint(\))tprint}{pop(-string- )tprint}ifelse}readonly def/arraytype{dup rcheck
{dup xcheck{({)tprint{typeprint}forall(})tprint}{([)tprint{typeprint}forall(])
tprint}ifelse}{pop(-array- )tprint}ifelse}readonly def/packedarraytype{dup
rcheck{dup xcheck{({)tprint{typeprint}forall(})tprint}{([)tprint{typeprint}
forall(])tprint}ifelse}{pop(-packedarray- )tprint}ifelse}readonly def/courier
/Courier findfont 10 scalefont def end errordict/handleerror{systemdict begin
$error begin $brkpage begin newerror{/newerror false store vmstatus pop pop 0
ne{grestoreall}if initgraphics courier setfont lmargin 720 moveto errorname
(VMerror)eq{version cvi 2016 ge{userdict/ehsave known{clear userdict/ehsave get
restore 2 vmreclaim}if vmstatus exch pop exch pop PrtVMMsg}if}if systemdict
/showpage get exec(%%[ Error: )print errorname =print(; OffendingCommand: )
print/command load =print( ]%%)= flush}if end end end}dup 0 systemdict put dup
4 $brkpage put bind readonly put/currentpacking where{pop/setpacking where{pop
oldpack setpacking}if}if
%%EndResource
userdict /Pscript_WinNT_Incr 230 dict dup begin put
%%BeginResource: file Pscript_FatalError 5.0 0
userdict begin/FatalErrorIf{{initgraphics findfont 1 index 0 eq{exch pop}{dup
length dict begin{1 index/FID ne{def}{pop pop}ifelse}forall/Encoding
{ISOLatin1Encoding}stopped{StandardEncoding}if def currentdict end
/ErrFont-Latin1 exch definefont}ifelse exch scalefont setfont counttomark 3 div
cvi{moveto show}repeat showpage quit}{cleartomark}ifelse}bind def end
%%EndResource
userdict begin/PrtVMMsg{vmstatus exch sub exch pop gt{[
(This job requires more memory than is available in this printer.)100 500
(Try one or more of the following, and then print again:)100 485
(For the output format, choose Optimize For Portability.)115 470
(In the Device Settings page, make sure the Available PostScript Memory is accurate.)
115 455(Reduce the number of fonts in the document.)115 440
(Print the document in parts.)115 425 12/Times-Roman[/GothicBBB-Medium-RKSJ-H
dup{findfont}stopped{cleartomark}{/FontName get eq{pop cleartomark[
<82B182CC83578387837582CD8CBB8DDD82B182CC8376838A8393835E82C59798977082C582AB82
E988C88FE382CC83818382838A82F0954B977682C682B582DC82B7814288C889BA82CC8A6590DD9
2E8>90 500<82CC88EA82C2814182DC82BD82CD82BB82CC916782DD8D8782ED82B982F08E7792
E882B582BD8CE381418376838A8393836782B592BC82B582C482DD82C482AD82BE82B382A28142>
90 485<A5506F73745363726970748376838D8370836583428356815B836782A982E7814183478
389815B82AA8C798CB882B782E982E682A482C98DC5934B89BB2082F0914991F082B782E98142>
90 455<A58366836F83438358834983768356838783938376838D8370836583428356815B83678
2CC209798977082C582AB82E98376838A8393835E83818382838A2082CC926C82AA90B382B582A2
82B182C682F08A6D944682B782E98142>90 440<A58368834C8385838183938367928682C58E6
7977082B382EA82C482A282E9837483488393836782CC909482F08CB882E782B78142>90 425
<A58368834C838583818393836782F095AA8A8482B582C48376838A8393836782B782E98142>90
410 10 0/GothicBBB-Medium-RKSJ-H}{cleartomark}ifelse}ifelse showpage
(%%[ PrinterError: Low Printer VM ]%%)= true FatalErrorIf}if}bind def end
version cvi 2016 ge{/VM?{pop}bind def}{/VM? userdict/PrtVMMsg get def}ifelse
%%BeginResource: file Pscript_Win_Basic 5.0 0
/d/def load def/,/load load d/~/exch , d/?/ifelse , d/!/pop , d/`/begin , d/^
/index , d/@/dup , d/+/translate , d/$/roll , d/U/userdict , d/M/moveto , d/-
/rlineto , d/&/currentdict , d/:/gsave , d/;/grestore , d/F/false , d/T/true ,
d/N/newpath , d/E/end , d/Ac/arc , d/An/arcn , d/A/ashow , d/D/awidthshow , d/C
/closepath , d/V/div , d/O/eofill , d/L/fill , d/I/lineto , d/-c/curveto , d/-M
/rmoveto , d/+S/scale , d/Ji/setfont , d/Lc/setlinecap , d/Lj/setlinejoin , d
/Lw/setlinewidth , d/Lm/setmiterlimit , d/sd/setdash , d/S/show , d/LH/showpage
, d/K/stroke , d/W/widthshow , d/R/rotate , d/L2? false/languagelevel where{pop
languagelevel 2 ge{pop true}if}if d L2?{/xS/xshow , d/yS/yshow , d/zS/xyshow ,
d}if/b{bind d}bind d/bd{bind d}bind d/xd{~ d}bd/ld{, d}bd/bn/bind ld/lw/Lw ld
/lc/Lc ld/lj/Lj ld/sg/setgray ld/ADO_mxRot null d/self & d/OrgMx matrix
currentmatrix d/reinitialize{: OrgMx setmatrix[/TextInit/GraphInit/UtilsInit
counttomark{@ where{self eq}{F}?{cvx exec}{!}?}repeat cleartomark ;}b
/initialize{`{/Pscript_Win_Data where{!}{U/Pscript_Win_Data & put}?/ADO_mxRot ~
d/TextInitialised? F d reinitialize E}{U/Pscript_Win_Data 230 dict @ ` put
/ADO_mxRot ~ d/TextInitialised? F d reinitialize}?}b/terminate{!{& self eq
{exit}{E}?}loop E}b/suspend/terminate , d/resume{` Pscript_Win_Data `}b U `
/lucas 21690 d/featurebegin{countdictstack lucas[}b/featurecleanup{stopped
{cleartomark @ lucas eq{! exit}if}loop countdictstack ~ sub @ 0 gt{{E}repeat}
{!}?}b E/snap{transform 0.25 sub round 0.25 add ~ 0.25 sub round 0.25 add ~
itransform}b/dsnap{dtransform round ~ round ~ idtransform}b/nonzero_round{@ 0.5
ge{round}{@ -0.5 lt{round}{0 ge{1}{-1}?}?}?}b/nonzero_dsnap{dtransform
nonzero_round ~ nonzero_round ~ idtransform}b U<04>cvn{}put/rr{1 ^ 0 - 0 ~ -
neg 0 - C}b/irp{4 -2 $ + +S fx 4 2 $ M 1 ^ 0 - 0 ~ - neg 0 -}b/rp{4 2 $ M 1 ^ 0
- 0 ~ - neg 0 -}b/solid{[]0 sd}b/g{@ not{U/DefIf_save save put}if U/DefIf_bool
2 ^ put}b/DefIf_El{if U/DefIf_bool get not @{U/DefIf_save get restore}if}b/e
{DefIf_El !}b/UDF{L2?{undefinefont}{!}?}b/UDR{L2?{undefineresource}{! !}?}b
/freeVM{/Courier findfont[40 0 0 -40 0 0]makefont Ji 2 vmreclaim}b/hfRedefFont
{findfont @ length dict `{1 ^/FID ne{d}{! !}?}forall & E @ ` ~{/CharStrings 1
dict `/.notdef 0 d & E d}if/Encoding 256 array 0 1 255{1 ^ ~/.notdef put}for d
E definefont !}bind d/hfMkCIDFont{/CIDFont findresource @ length 2 add dict `{1
^ @/FID eq ~ @/XUID eq ~/UIDBase eq or or{! !}{d}?}forall/CDevProc ~ d/Metrics2
16 dict d/CIDFontName 1 ^ d & E 1 ^ ~/CIDFont defineresource ![~]composefont !}
bind d
%%EndResource
%%BeginResource: file Pscript_Win_Utils_L2 5.0 0
/rf/rectfill , d/fx{1 1 dtransform @ 0 ge{1 sub 0.5}{1 add -0.5}? 3 -1 $ @ 0 ge
{1 sub 0.5}{1 add -0.5}? 3 1 $ 4 1 $ idtransform 4 -2 $ idtransform}b/BZ{4 -2 $
snap + +S fx rf}b/rs/rectstroke , d/rc/rectclip , d/UtilsInit{currentglobal{F
setglobal}if}b/scol{! setcolor}b/colspA/DeviceGray d/colspABC/DeviceRGB d
/colspRefresh{colspABC setcolorspace}b/SetColSpace{colspABC setcolorspace}b
/resourcestatus where{!/ColorRendering/ProcSet resourcestatus{! ! T}{F}?}{F}?
not{/ColorRendering<</GetHalftoneName{currenthalftone @/HalftoneName known{
/HalftoneName get}{!/none}?}bn/GetPageDeviceName{currentpagedevice @
/PageDeviceName known{/PageDeviceName get @ null eq{!/none}if}{!/none}?}bn
/GetSubstituteCRD{!/DefaultColorRendering/ColorRendering resourcestatus{! !
/DefaultColorRendering}{(DefaultColorRendering*){cvn exit}127 string
/ColorRendering resourceforall}?}bn>>/defineresource where{!/ProcSet
defineresource !}{! !}?}if/buildcrdname{/ColorRendering/ProcSet findresource `
mark GetHalftoneName @ type @/nametype ne ~/stringtype ne and{!/none}if(.)
GetPageDeviceName @ type @/nametype ne ~/stringtype ne and{!/none}if(.)5 ^ 0 5
-1 1{^ length add}for string 6 1 $ 5 ^ 5{~ 1 ^ cvs length 1 ^ length 1 ^ sub
getinterval}repeat ! cvn 3 1 $ ! ! E}b/definecolorrendering{~ buildcrdname ~
/ColorRendering defineresource !}b/findcolorrendering where{!}{
/findcolorrendering{buildcrdname @/ColorRendering resourcestatus{! ! T}{
/ColorRendering/ProcSet findresource ` GetSubstituteCRD E F}?}b}?
/selectcolorrendering{findcolorrendering !/ColorRendering findresource
setcolorrendering}b/G2UBegin{findresource/FontInfo get/GlyphNames2Unicode get
`}bind d/G2CCBegin{findresource/FontInfo get/GlyphNames2HostCode get `}bind d
/G2UEnd{E}bind d/AddFontInfoBegin{/FontInfo 8 dict @ `}bind d/AddFontInfo{
/GlyphNames2Unicode 16 dict d/GlyphNames2HostCode 16 dict d}bind d
/AddFontInfoEnd{E d}bind d/T0AddCFFMtx2{/CIDFont findresource/Metrics2 get ` d
E}bind d
%%EndResource
end
%%EndProlog

%%BeginSetup
[ 1 0 0 1 0 0 ] false Pscript_WinNT_Incr dup /initialize get exec
1 setlinecap 1 setlinejoin
/mysetup [ 72 600 V 0 0 -72 600 V 0 124.44094 ] def 
%%EndSetup

%%Page: 1 1
%%PageBoundingBox: 0 0 124 124
%%EndPageComments
%%BeginPageSetup
/DeviceRGB dup setcolorspace /colspABC exch def
mysetup concat colspRefresh
%%EndPageSetup

Pscript_WinNT_Incr begin
%%BeginResource: file Pscript_Win_GdiObject 5.0 0
/SavedCTM null d/CTMsave{/SavedCTM SavedCTM currentmatrix d}b/CTMrestore
{SavedCTM setmatrix}b/mp null d/ADO_mxRot null d/GDIHMatrix null d
/GDIHPatternDict 22 dict d GDIHPatternDict `/PatternType 1 d/PaintType 2 d/Reps
L2?{1}{5}? d/XStep 8 Reps mul d/YStep XStep d/BBox[0 0 XStep YStep]d/TilingType
1 d/PaintProc{` 1 Lw[]0 sd PaintData , exec E}b/FGnd null d/BGnd null d
/HS_Horizontal{horiz}b/HS_Vertical{vert}b/HS_FDiagonal{fdiag}b/HS_BDiagonal
{biag}b/HS_Cross{horiz vert}b/HS_DiagCross{fdiag biag}b/MaxXYStep XStep YStep
gt{XStep}{YStep}? d/horiz{Reps{0 4 M XStep 0 - 0 8 +}repeat 0 -8 Reps mul + K}b
/vert{Reps{4 0 M 0 YStep - 8 0 +}repeat 0 -8 Reps mul + K}b/biag{Reps{0 0 M
MaxXYStep @ - 0 YStep neg M MaxXYStep @ - 0 8 +}repeat 0 -8 Reps mul + 0 YStep
M 8 8 - K}b/fdiag{Reps{0 0 M MaxXYStep @ neg - 0 YStep M MaxXYStep @ neg - 0 8
+}repeat 0 -8 Reps mul + MaxXYStep @ M 8 -8 - K}b E/makehatch{4 -2 $/yOrg ~ d
/xOrg ~ d GDIHPatternDict/PaintData 3 -1 $ put CTMsave GDIHMatrix setmatrix
GDIHPatternDict matrix xOrg yOrg + mp CTMrestore ~ U ~ 2 ^ put}b/h0{/h0
/HS_Horizontal makehatch}b/h1{/h1/HS_Vertical makehatch}b/h2{/h2/HS_FDiagonal
makehatch}b/h3{/h3/HS_BDiagonal makehatch}b/h4{/h4/HS_Cross makehatch}b/h5{/h5
/HS_DiagCross makehatch}b/GDIBWPatternMx null d/pfprep{save 8 1 $
/PatternOfTheDay 8 1 $ GDIBWPatternDict `/yOrg ~ d/xOrg ~ d/PaintData ~ d/yExt
~ d/Width ~ d/BGnd ~ d/FGnd ~ d/Height yExt RepsV mul d/mx[Width 0 0 Height 0
0]d E build_pattern ~ !}b/pfbf{/fEOFill ~ d pfprep hbf fEOFill{O}{L}? restore}b
/GraphInit{GDIHMatrix null eq{/SavedCTM matrix d : ADO_mxRot concat 0 0 snap +
: 0.48 @ GDIHPatternDict ` YStep mul ~ XStep mul ~ nonzero_dsnap YStep V ~
XStep V ~ E +S/GDIHMatrix matrix currentmatrix readonly d ; : 0.24 -0.24 +S
GDIBWPatternDict ` Width Height E nonzero_dsnap +S/GDIBWPatternMx matrix
currentmatrix readonly d ; ;}if}b
%%EndResource
%%BeginResource: file Pscript_Win_GdiObject_L2 5.0 0
/GDIBWPatternDict 25 dict @ `/PatternType 1 d/PaintType 1 d/RepsV 1 d/RepsH 1 d
/BBox[0 0 RepsH 1]d/TilingType 1 d/XStep 1 d/YStep 1 d/Height 8 RepsV mul d
/Width 8 d/mx[Width 0 0 Height neg 0 Height]d/FGnd null d/BGnd null d
/SetBGndFGnd{BGnd null ne{BGnd aload ! scol BBox aload ! 2 ^ sub ~ 3 ^ sub ~
rf}if FGnd null ne{FGnd aload ! scol}if}b/PaintProc{` SetBGndFGnd RepsH{Width
Height F mx PaintData imagemask Width 0 +}repeat E}b E d/mp/makepattern , d
/build_pattern{CTMsave GDIBWPatternMx setmatrix/nupangle where{! nupangle -90
eq{nupangle R}if}if GDIBWPatternDict @ ` Width Height ne{Width Height gt{Width
Height V 1}{1 Height Width V}? +S}if xOrg yOrg E matrix + mp CTMrestore}b/hbf
{setpattern}b/hf{:/fEOFill ~ d ~ ! setpattern fEOFill{O}{L}? ;}b/pbf{: !
/fEOFill ~ d GDIBWPatternDict `/yOrg ~ d/xOrg ~ d/PaintData ~ d/OutputBPP ~ d
/Height ~ d/Width ~ d/PaintType 1 d/PatternType 1 d/TilingType 1 d/BBox[0 0
Width Height]d/XStep Width d/YStep Height d/mx xOrg yOrg matrix + d 20 dict @ `
/ImageType 1 d/Width Width d/Height Height d/ImageMatrix[1 0 0 1 0 0]d
/BitsPerComponent 8 d OutputBPP 24 eq{/Decode[0 1 0 1 0 1]d}{OutputBPP 8 eq{
/Decode[0 1]d}{/Decode[0 1 0 1 0 1 0 1]d}?}?/DataSource{PaintData}d E/ImageDict
~ d/PaintProc{` ImageDict image E}b & mx makepattern setpattern E fEOFill{O}{L}
? ;}b/mask_pbf{:/fEOFill ~ d 20 dict `/yOrg ~ d/xOrg ~ d/PaintData ~ d/Height ~
d/Width ~ d/PatternType 1 d/PaintType 2 d/TilingType 1 d/BBox[0 0 Width Height]
d/XStep Width d/YStep Height d/mx xOrg yOrg matrix + d/PaintProc{` Width Height
T 1 1 dtransform abs ~ abs ~ 0 0 3 -1 $ 0 0 6 array astore{PaintData}imagemask
E}b & mx makepattern setpattern E fEOFill{O}{L}? ;}b
%%EndResource
end reinitialize
: N 473 2 561 561 rp C 
1 1 1 1 scol  L ; 1 1 1 1 scol N 1034 563 M 472 563 I 472 1 I 1034 1 I C 
K 
: N 519 48 10 10 rp C 
0 0 0 1 scol  L ; 0 0 0 1 scol N 529 58 M 518 58 I 518 47 I 529 47 I C 
K 
: N 530 48 57 10 rp C 
 L ; N 587 58 M 529 58 I 529 47 I 587 47 I C 
K 
: N 588 48 10 10 rp C 
 L ; N 598 58 M 587 58 I 587 47 I 598 47 I C 
K 
: N 611 48 44 10 rp C 
 L ; N 655 58 M 610 58 I 610 47 I 655 47 I C 
K 
: N 669 48 9 10 rp C 
 L ; N 678 58 M 668 58 I 668 47 I 678 47 I C 
K 
: N 692 48 21 10 rp C 
 L ; N 713 58 M 691 58 I 691 47 I 713 47 I C 
K 
: N 738 48 9 10 rp C 
 L ; N 747 58 M 737 58 I 737 47 I 747 47 I C 
K 
: N 761 48 21 10 rp C 
 L ; N 782 58 M 760 58 I 760 47 I 782 47 I C 
K 
: N 784 48 9 10 rp C 
 L ; N 793 58 M 783 58 I 783 47 I 793 47 I C 
K 
: N 807 48 9 10 rp C 
 L ; N 816 58 M 806 58 I 806 47 I 816 47 I C 
K 
: N 830 48 9 10 rp C 
 L ; N 839 58 M 829 58 I 829 47 I 839 47 I C 
K 
: N 853 48 9 10 rp C 
 L ; N 862 58 M 852 58 I 852 47 I 862 47 I C 
K 
: N 876 48 9 10 rp C 
 L ; N 885 58 M 875 58 I 875 47 I 885 47 I C 
K 
: N 910 48 10 10 rp C 
 L ; N 920 58 M 909 58 I 909 47 I 920 47 I C 
K 
: N 921 48 57 10 rp C 
 L ; N 978 58 M 920 58 I 920 47 I 978 47 I C 
K 
: N 979 48 10 10 rp C 
 L ; N 989 58 M 978 58 I 978 47 I 989 47 I C 
K 
: N 519 60 10 10 rp C 
 L ; N 529 70 M 518 70 I 518 59 I 529 59 I C 
K 
: N 588 60 10 10 rp C 
 L ; N 598 70 M 587 70 I 587 59 I 598 59 I C 
K 
: N 611 60 10 10 rp C 
 L ; N 621 70 M 610 70 I 610 59 I 621 59 I C 
K 
: N 622 60 34 9 rp C 
 L ; N 656 69 M 621 69 I 621 59 I 656 59 I C 
K 
: N 657 60 10 10 rp C 
 L ; N 667 70 M 656 70 I 656 59 I 667 59 I C 
K 
: N 680 60 10 10 rp C 
 L ; N 690 70 M 679 70 I 679 59 I 690 59 I C 
K 
: N 715 60 9 10 rp C 
 L ; N 724 70 M 714 70 I 714 59 I 724 59 I C 
K 
: N 749 60 10 9 rp C 
 L ; N 759 69 M 748 69 I 748 59 I 759 59 I C 
K 
: N 784 60 21 9 rp C 
 L ; N 805 69 M 783 69 I 783 59 I 805 59 I C 
K 
: N 830 60 9 9 rp C 
 L ; N 839 69 M 829 69 I 829 59 I 839 59 I C 
K 
: N 853 60 9 10 rp C 
 L ; N 862 70 M 852 70 I 852 59 I 862 59 I C 
K 
: N 876 60 10 9 rp C 
 L ; N 886 69 M 875 69 I 875 59 I 886 59 I C 
K 
: N 887 60 10 10 rp C 
 L ; N 897 70 M 886 70 I 886 59 I 897 59 I C 
K 
: N 910 60 10 10 rp C 
 L ; N 920 70 M 909 70 I 909 59 I 920 59 I C 
K 
: N 979 60 10 10 rp C 
 L ; N 989 70 M 978 70 I 978 59 I 989 59 I C 
K 
: N 519 71 10 10 rp C 
 L ; N 529 81 M 518 81 I 518 70 I 529 70 I C 
K 
: N 542 71 33 10 rp C 
 L ; N 575 81 M 541 81 I 541 70 I 575 70 I C 
K 
: N 588 71 10 10 rp C 
 L ; N 598 81 M 587 81 I 587 70 I 598 70 I C 
K 
: N 611 71 10 10 rp C 
 L ; N 621 81 M 610 81 I 610 70 I 621 70 I C 
K 
: N 657 71 10 10 rp C 
 L ; N 667 81 M 656 81 I 656 70 I 667 70 I C 
K 
: N 680 71 10 10 rp C 
 L ; N 690 81 M 679 81 I 679 70 I 690 70 I C 
K 
: N 715 71 21 10 rp C 
 L ; N 736 81 M 714 81 I 714 70 I 736 70 I C 
K 
: N 761 71 9 10 rp C 
 L ; N 770 81 M 760 81 I 760 70 I 770 70 I C 
K 
: N 807 71 9 10 rp C 
 L ; N 816 81 M 806 81 I 806 70 I 816 70 I C 
K 
: N 841 71 10 10 rp C 
 L ; N 851 81 M 840 81 I 840 70 I 851 70 I C 
K 
: N 852 71 22 10 rp C 
 L ; N 874 81 M 851 81 I 851 70 I 874 70 I C 
K 
: N 887 71 10 10 rp C 
 L ; N 897 81 M 886 81 I 886 70 I 897 70 I C 
K 
: N 910 71 10 10 rp C 
 L ; N 920 81 M 909 81 I 909 70 I 920 70 I C 
K 
: N 933 71 33 10 rp C 
 L ; N 966 81 M 932 81 I 932 70 I 966 70 I C 
K 
: N 979 71 10 10 rp C 
 L ; N 989 81 M 978 81 I 978 70 I 989 70 I C 
K 
: N 519 83 10 10 rp C 
 L ; N 529 93 M 518 93 I 518 82 I 529 82 I C 
K 
: N 542 83 33 10 rp C 
 L ; N 575 93 M 541 93 I 541 82 I 575 82 I C 
K 
: N 588 83 10 10 rp C 
 L ; N 598 93 M 587 93 I 587 82 I 598 82 I C 
K 
: N 623 83 10 9 rp C 
 L ; N 633 92 M 622 92 I 622 82 I 633 82 I C 
K 
: N 634 83 10 10 rp C 
 L ; N 644 93 M 633 93 I 633 82 I 644 82 I C 
K 
: N 657 83 33 10 rp C 
 L ; N 690 93 M 656 93 I 656 82 I 690 82 I C 
K 
: N 691 83 10 9 rp C 
 L ; N 701 92 M 690 92 I 690 82 I 701 82 I C 
K 
: N 749 83 10 9 rp C 
 L ; N 759 92 M 748 92 I 748 82 I 759 82 I C 
K 
: N 772 83 10 10 rp C 
 L ; N 782 93 M 771 93 I 771 82 I 782 82 I C 
K 
: N 783 83 10 9 rp C 
 L ; N 793 92 M 782 92 I 782 82 I 793 82 I C 
K 
: N 841 83 10 10 rp C 
 L ; N 851 93 M 840 93 I 840 82 I 851 82 I C 
K 
: N 876 83 9 10 rp C 
 L ; N 885 93 M 875 93 I 875 82 I 885 82 I C 
K 
: N 887 83 10 9 rp C 
 L ; N 897 92 M 886 92 I 886 82 I 897 82 I C 
K 
: N 910 83 10 10 rp C 
 L ; N 920 93 M 909 93 I 909 82 I 920 82 I C 
K 
: N 933 83 33 10 rp C 
 L ; N 966 93 M 932 93 I 932 82 I 966 82 I C 
K 
: N 979 83 10 10 rp C 
 L ; N 989 93 M 978 93 I 978 82 I 989 82 I C 
K 
: N 519 94 10 10 rp C 
 L ; N 529 104 M 518 104 I 518 93 I 529 93 I C 
K 
: N 542 94 33 10 rp C 
 L ; N 575 104 M 541 104 I 541 93 I 575 93 I C 
K 
: N 588 94 10 10 rp C 
 L ; N 598 104 M 587 104 I 587 93 I 598 93 I C 
K 
: N 611 94 10 10 rp C 
 L ; N 621 104 M 610 104 I 610 93 I 621 93 I C 
K 
: N 634 94 21 10 rp C 
 L ; N 655 104 M 633 104 I 633 93 I 655 93 I C 
K 
: N 657 94 22 10 rp C 
 L ; N 679 104 M 656 104 I 656 93 I 679 93 I C 
K 
: N 680 94 10 10 rp C 
 L ; N 690 104 M 679 104 I 679 93 I 690 93 I C 
K 
: N 703 94 44 10 rp C 
 L ; N 747 104 M 702 104 I 702 93 I 747 93 I C 
K 
: N 761 94 9 10 rp C 
 L ; N 770 104 M 760 104 I 760 93 I 770 93 I C 
K 
: N 772 94 10 10 rp C 
 L ; N 782 104 M 771 104 I 771 93 I 782 93 I C 
K 
: N 830 94 21 10 rp C 
 L ; N 851 104 M 829 104 I 829 93 I 851 93 I C 
K 
: N 864 94 21 10 rp C 
 L ; N 885 104 M 863 104 I 863 93 I 885 93 I C 
K 
: N 910 94 10 10 rp C 
 L ; N 920 104 M 909 104 I 909 93 I 920 93 I C 
K 
: N 933 94 33 10 rp C 
 L ; N 966 104 M 932 104 I 932 93 I 966 93 I C 
K 
: N 979 94 10 10 rp C 
 L ; N 989 104 M 978 104 I 978 93 I 989 93 I C 
K 
: N 519 106 10 10 rp C 
 L ; N 529 116 M 518 116 I 518 105 I 529 105 I C 
K 
: N 588 106 10 10 rp C 
 L ; N 598 116 M 587 116 I 587 105 I 598 105 I C 
K 
: N 634 106 10 10 rp C 
 L ; N 644 116 M 633 116 I 633 105 I 644 105 I C 
K 
: N 645 106 10 9 rp C 
 L ; N 655 115 M 644 115 I 644 105 I 655 105 I C 
K 
: N 680 106 10 10 rp C 
 L ; N 690 116 M 679 116 I 679 105 I 690 105 I C 
K 
: N 691 106 11 9 rp C 
 L ; N 702 115 M 690 115 I 690 105 I 702 105 I C 
K 
: N 703 106 10 10 rp C 
 L ; N 713 116 M 702 116 I 702 105 I 713 105 I C 
K 
: N 714 106 11 9 rp C 
 L ; N 725 115 M 713 115 I 713 105 I 725 105 I C 
K 
: N 726 106 10 10 rp C 
 L ; N 736 116 M 725 116 I 725 105 I 736 105 I C 
K 
: N 737 106 10 9 rp C 
 L ; N 747 115 M 736 115 I 736 105 I 747 105 I C 
K 
: N 761 106 9 9 rp C 
 L ; N 770 115 M 760 115 I 760 105 I 770 105 I C 
K 
: N 795 106 10 10 rp C 
 L ; N 805 116 M 794 116 I 794 105 I 805 105 I C 
K 
: N 830 106 10 9 rp C 
 L ; N 840 115 M 829 115 I 829 105 I 840 105 I C 
K 
: N 841 106 10 10 rp C 
 L ; N 851 116 M 840 116 I 840 105 I 851 105 I C 
K 
: N 852 106 11 9 rp C 
 L ; N 863 115 M 851 115 I 851 105 I 863 105 I C 
K 
: N 864 106 10 10 rp C 
 L ; N 874 116 M 863 116 I 863 105 I 874 105 I C 
K 
: N 875 106 10 9 rp C 
 L ; N 885 115 M 874 115 I 874 105 I 885 105 I C 
K 
: N 910 106 10 10 rp C 
 L ; N 920 116 M 909 116 I 909 105 I 920 105 I C 
K 
: N 979 106 10 10 rp C 
 L ; N 989 116 M 978 116 I 978 105 I 989 105 I C 
K 
: N 519 117 79 10 rp C 
 L ; N 598 127 M 518 127 I 518 116 I 598 116 I C 
K 
: N 611 117 10 10 rp C 
 L ; N 621 127 M 610 127 I 610 116 I 621 116 I C 
K 
: N 634 117 10 10 rp C 
 L ; N 644 127 M 633 127 I 633 116 I 644 116 I C 
K 
: N 657 117 10 10 rp C 
 L ; N 667 127 M 656 127 I 656 116 I 667 116 I C 
K 
: N 680 117 10 10 rp C 
 L ; N 690 127 M 679 127 I 679 116 I 690 116 I C 
K 
: N 703 117 10 10 rp C 
 L ; N 713 127 M 702 127 I 702 116 I 713 116 I C 
K 
: N 726 117 10 10 rp C 
 L ; N 736 127 M 725 127 I 725 116 I 736 116 I C 
K 
: N 749 117 10 10 rp C 
 L ; N 759 127 M 748 127 I 748 116 I 759 116 I C 
K 
: N 772 117 10 10 rp C 
 L ; N 782 127 M 771 127 I 771 116 I 782 116 I C 
K 
: N 795 117 10 10 rp C 
 L ; N 805 127 M 794 127 I 794 116 I 805 116 I C 
K 
: N 818 117 10 10 rp C 
 L ; N 828 127 M 817 127 I 817 116 I 828 116 I C 
K 
: N 841 117 10 10 rp C 
 L ; N 851 127 M 840 127 I 840 116 I 851 116 I C 
K 
: N 864 117 10 10 rp C 
 L ; N 874 127 M 863 127 I 863 116 I 874 116 I C 
K 
: N 887 117 10 10 rp C 
 L ; N 897 127 M 886 127 I 886 116 I 897 116 I C 
K 
: N 910 117 79 10 rp C 
 L ; N 989 127 M 909 127 I 909 116 I 989 116 I C 
K 
: N 623 129 21 9 rp C 
 L ; N 644 138 M 622 138 I 622 128 I 644 128 I C 
K 
: N 657 129 56 10 rp C 
 L ; N 713 139 M 656 139 I 656 128 I 713 128 I C 
K 
: N 714 129 22 9 rp C 
 L ; N 736 138 M 713 138 I 713 128 I 736 128 I C 
K 
: N 761 129 9 9 rp C 
 L ; N 770 138 M 760 138 I 760 128 I 770 128 I C 
K 
: N 818 129 21 9 rp C 
 L ; N 839 138 M 817 138 I 817 128 I 839 128 I C 
K 
: N 864 129 10 9 rp C 
 L ; N 874 138 M 863 138 I 863 128 I 874 128 I C 
K 
: N 876 129 9 10 rp C 
 L ; N 885 139 M 875 139 I 875 128 I 885 128 I C 
K 
: N 519 140 10 10 rp C 
 L ; N 529 150 M 518 150 I 518 139 I 529 139 I C 
K 
: N 554 140 9 10 rp C 
 L ; N 563 150 M 553 150 I 553 139 I 563 139 I C 
K 
: N 565 140 10 10 rp C 
 L ; N 575 150 M 564 150 I 564 139 I 575 139 I C 
K 
: N 577 140 9 10 rp C 
 L ; N 586 150 M 576 150 I 576 139 I 586 139 I C 
K 
: N 588 140 10 10 rp C 
 L ; N 598 150 M 587 150 I 587 139 I 598 139 I C 
K 
: N 600 140 9 10 rp C 
 L ; N 609 150 M 599 150 I 599 139 I 609 139 I C 
K 
: N 611 140 10 10 rp C 
 L ; N 621 150 M 610 150 I 610 139 I 621 139 I C 
K 
: N 657 140 21 10 rp C 
 L ; N 678 150 M 656 150 I 656 139 I 678 139 I C 
K 
: N 680 140 22 10 rp C 
 L ; N 702 150 M 679 150 I 679 139 I 702 139 I C 
K 
: N 703 140 10 10 rp C 
 L ; N 713 150 M 702 150 I 702 139 I 713 139 I C 
K 
: N 738 140 9 10 rp C 
 L ; N 747 150 M 737 150 I 737 139 I 747 139 I C 
K 
: N 795 140 10 10 rp C 
 L ; N 805 150 M 794 150 I 794 139 I 805 139 I C 
K 
: N 806 140 10 10 rp C 
 L ; N 816 150 M 805 150 I 805 139 I 816 139 I C 
K 
: N 853 140 9 10 rp C 
 L ; N 862 150 M 852 150 I 852 139 I 862 139 I C 
K 
: N 876 140 10 10 rp C 
 L ; N 886 150 M 875 150 I 875 139 I 886 139 I C 
K 
: N 887 140 21 10 rp C 
 L ; N 908 150 M 886 150 I 886 139 I 908 139 I C 
K 
: N 933 140 10 10 rp C 
 L ; N 943 150 M 932 150 I 932 139 I 943 139 I C 
K 
: N 956 140 33 10 rp C 
 L ; N 989 150 M 955 150 I 955 139 I 989 139 I C 
K 
: N 519 152 10 10 rp C 
 L ; N 529 162 M 518 162 I 518 151 I 529 151 I C 
K 
: N 542 152 10 9 rp C 
 L ; N 552 161 M 541 161 I 541 151 I 552 151 I C 
K 
: N 554 152 9 10 rp C 
 L ; N 563 162 M 553 162 I 553 151 I 563 151 I C 
K 
: N 577 152 9 9 rp C 
 L ; N 586 161 M 576 161 I 576 151 I 586 151 I C 
K 
: N 600 152 9 10 rp C 
 L ; N 609 162 M 599 162 I 599 151 I 609 151 I C 
K 
: N 623 152 9 10 rp C 
 L ; N 632 162 M 622 162 I 622 151 I 632 151 I C 
K 
: N 634 152 10 9 rp C 
 L ; N 644 161 M 633 161 I 633 151 I 644 151 I C 
K 
: N 657 152 10 10 rp C 
 L ; N 667 162 M 656 162 I 656 151 I 667 151 I C 
K 
: N 668 152 10 9 rp C 
 L ; N 678 161 M 667 161 I 667 151 I 678 151 I C 
K 
: N 703 152 21 9 rp C 
 L ; N 724 161 M 702 161 I 702 151 I 724 151 I C 
K 
: N 772 152 10 9 rp C 
 L ; N 782 161 M 771 161 I 771 151 I 782 151 I C 
K 
: N 795 152 10 9 rp C 
 L ; N 805 161 M 794 161 I 794 151 I 805 151 I C 
K 
: N 818 152 10 10 rp C 
 L ; N 828 162 M 817 162 I 817 151 I 828 151 I C 
K 
: N 887 152 21 9 rp C 
 L ; N 908 161 M 886 161 I 886 151 I 908 151 I C 
K 
: N 922 152 9 10 rp C 
 L ; N 931 162 M 921 162 I 921 151 I 931 151 I C 
K 
: N 945 152 9 9 rp C 
 L ; N 954 161 M 944 161 I 944 151 I 954 151 I C 
K 
: N 519 163 10 10 rp C 
 L ; N 529 173 M 518 173 I 518 162 I 529 162 I C 
K 
: N 554 163 9 10 rp C 
 L ; N 563 173 M 553 173 I 553 162 I 563 162 I C 
K 
: N 588 163 22 10 rp C 
 L ; N 610 173 M 587 173 I 587 162 I 610 162 I C 
K 
: N 611 163 10 10 rp C 
 L ; N 621 173 M 610 173 I 610 162 I 621 162 I C 
K 
: N 622 163 10 10 rp C 
 L ; N 632 173 M 621 173 I 621 162 I 632 162 I C 
K 
: N 646 163 9 10 rp C 
 L ; N 655 173 M 645 173 I 645 162 I 655 162 I C 
K 
: N 657 163 10 10 rp C 
 L ; N 667 173 M 656 173 I 656 162 I 667 162 I C 
K 
: N 692 163 9 10 rp C 
 L ; N 701 173 M 691 173 I 691 162 I 701 162 I C 
K 
: N 726 163 10 10 rp C 
 L ; N 736 173 M 725 173 I 725 162 I 736 162 I C 
K 
: N 749 163 10 10 rp C 
 L ; N 759 173 M 748 173 I 748 162 I 759 162 I C 
K 
: N 784 163 9 10 rp C 
 L ; N 793 173 M 783 173 I 783 162 I 793 162 I C 
K 
: N 807 163 9 10 rp C 
 L ; N 816 173 M 806 173 I 806 162 I 816 162 I C 
K 
: N 818 163 21 10 rp C 
 L ; N 839 173 M 817 173 I 817 162 I 839 162 I C 
K 
: N 853 163 9 10 rp C 
 L ; N 862 173 M 852 173 I 852 162 I 862 162 I C 
K 
: N 876 163 9 10 rp C 
 L ; N 885 173 M 875 173 I 875 162 I 885 162 I C 
K 
: N 910 163 21 10 rp C 
 L ; N 931 173 M 909 173 I 909 162 I 931 162 I C 
K 
: N 979 163 10 10 rp C 
 L ; N 989 173 M 978 173 I 978 162 I 989 162 I C 
K 
: N 531 175 21 9 rp C 
 L ; N 552 184 M 530 184 I 530 174 I 552 174 I C 
K 
: N 611 175 10 10 rp C 
 L ; N 621 185 M 610 185 I 610 174 I 621 174 I C 
K 
: N 634 175 21 9 rp C 
 L ; N 655 184 M 633 184 I 633 174 I 655 174 I C 
K 
: N 680 175 10 9 rp C 
 L ; N 690 184 M 679 184 I 679 174 I 690 174 I C 
K 
: N 715 175 9 10 rp C 
 L ; N 724 185 M 714 185 I 714 174 I 724 174 I C 
K 
: N 726 175 10 9 rp C 
 L ; N 736 184 M 725 184 I 725 174 I 736 174 I C 
K 
: N 738 175 9 10 rp C 
 L ; N 747 185 M 737 185 I 737 174 I 747 174 I C 
K 
: N 761 175 21 9 rp C 
 L ; N 782 184 M 760 184 I 760 174 I 782 174 I C 
K 
: N 795 175 10 10 rp C 
 L ; N 805 185 M 794 185 I 794 174 I 805 174 I C 
K 
: N 806 175 10 9 rp C 
 L ; N 816 184 M 805 184 I 805 174 I 816 174 I C 
K 
: N 864 175 10 9 rp C 
 L ; N 874 184 M 863 184 I 863 174 I 874 174 I C 
K 
: N 887 175 10 10 rp C 
 L ; N 897 185 M 886 185 I 886 174 I 897 174 I C 
K 
: N 945 175 9 9 rp C 
 L ; N 954 184 M 944 184 I 944 174 I 954 174 I C 
K 
: N 577 186 21 10 rp C 
 L ; N 598 196 M 576 196 I 576 185 I 598 185 I C 
K 
: N 600 186 21 10 rp C 
 L ; N 621 196 M 599 196 I 599 185 I 621 185 I C 
K 
: N 622 186 10 10 rp C 
 L ; N 632 196 M 621 196 I 621 185 I 632 185 I C 
K 
: N 657 186 21 10 rp C 
 L ; N 678 196 M 656 196 I 656 185 I 678 185 I C 
K 
: N 703 186 10 10 rp C 
 L ; N 713 196 M 702 196 I 702 185 I 713 185 I C 
K 
: N 715 186 9 10 rp C 
 L ; N 724 196 M 714 196 I 714 185 I 724 185 I C 
K 
: N 738 186 9 10 rp C 
 L ; N 747 196 M 737 196 I 737 185 I 747 185 I C 
K 
: N 784 186 21 10 rp C 
 L ; N 805 196 M 783 196 I 783 185 I 805 185 I C 
K 
: N 830 186 32 10 rp C 
 L ; N 862 196 M 829 196 I 829 185 I 862 185 I C 
K 
: N 887 186 10 10 rp C 
 L ; N 897 196 M 886 196 I 886 185 I 897 185 I C 
K 
: N 899 186 9 10 rp C 
 L ; N 908 196 M 898 196 I 898 185 I 908 185 I C 
K 
: N 922 186 9 10 rp C 
 L ; N 931 196 M 921 196 I 921 185 I 931 185 I C 
K 
: N 956 186 21 10 rp C 
 L ; N 977 196 M 955 196 I 955 185 I 977 185 I C 
K 
: N 519 198 10 10 rp C 
 L ; N 529 208 M 518 208 I 518 197 I 529 197 I C 
K 
: N 542 198 10 9 rp C 
 L ; N 552 207 M 541 207 I 541 197 I 552 197 I C 
K 
: N 600 198 10 9 rp C 
 L ; N 610 207 M 599 207 I 599 197 I 610 197 I C 
K 
: N 611 198 10 10 rp C 
 L ; N 621 208 M 610 208 I 610 197 I 621 197 I C 
K 
: N 646 198 9 10 rp C 
 L ; N 655 208 M 645 208 I 645 197 I 655 197 I C 
K 
: N 680 198 21 9 rp C 
 L ; N 701 207 M 679 207 I 679 197 I 701 197 I C 
K 
: N 715 198 9 10 rp C 
 L ; N 724 208 M 714 208 I 714 197 I 724 197 I C 
K 
: N 738 198 21 10 rp C 
 L ; N 759 208 M 737 208 I 737 197 I 759 197 I C 
K 
: N 818 198 22 9 rp C 
 L ; N 840 207 M 817 207 I 817 197 I 840 197 I C 
K 
: N 841 198 21 10 rp C 
 L ; N 862 208 M 840 208 I 840 197 I 862 197 I C 
K 
: N 899 198 9 9 rp C 
 L ; N 908 207 M 898 207 I 898 197 I 908 197 I C 
K 
: N 922 198 9 9 rp C 
 L ; N 931 207 M 921 207 I 921 197 I 931 197 I C 
K 
: N 945 198 9 10 rp C 
 L ; N 954 208 M 944 208 I 944 197 I 954 197 I C 
K 
: N 956 198 21 9 rp C 
 L ; N 977 207 M 955 207 I 955 197 I 977 197 I C 
K 
: N 519 209 10 10 rp C 
 L ; N 529 219 M 518 219 I 518 208 I 529 208 I C 
K 
: N 554 209 9 10 rp C 
 L ; N 563 219 M 553 219 I 553 208 I 563 208 I C 
K 
: N 588 209 10 10 rp C 
 L ; N 598 219 M 587 219 I 587 208 I 598 208 I C 
K 
: N 611 209 21 10 rp C 
 L ; N 632 219 M 610 219 I 610 208 I 632 208 I C 
K 
: N 646 209 9 10 rp C 
 L ; N 655 219 M 645 219 I 645 208 I 655 208 I C 
K 
: N 669 209 9 10 rp C 
 L ; N 678 219 M 668 219 I 668 208 I 678 208 I C 
K 
: N 715 209 21 10 rp C 
 L ; N 736 219 M 714 219 I 714 208 I 736 208 I C 
K 
: N 737 209 11 10 rp C 
 L ; N 748 219 M 736 219 I 736 208 I 748 208 I C 
K 
: N 749 209 10 10 rp C 
 L ; N 759 219 M 748 219 I 748 208 I 759 208 I C 
K 
: N 772 209 21 10 rp C 
 L ; N 793 219 M 771 219 I 771 208 I 793 208 I C 
K 
: N 795 209 10 10 rp C 
 L ; N 805 219 M 794 219 I 794 208 I 805 208 I C 
K 
: N 807 209 9 10 rp C 
 L ; N 816 219 M 806 219 I 806 208 I 816 208 I C 
K 
: N 841 209 21 10 rp C 
 L ; N 862 219 M 840 219 I 840 208 I 862 208 I C 
K 
: N 945 209 9 10 rp C 
 L ; N 954 219 M 944 219 I 944 208 I 954 208 I C 
K 
: N 979 209 10 10 rp C 
 L ; N 989 219 M 978 219 I 978 208 I 989 208 I C 
K 
: N 565 221 21 9 rp C 
 L ; N 586 230 M 564 230 I 564 220 I 586 220 I C 
K 
: N 646 221 21 10 rp C 
 L ; N 667 231 M 645 231 I 645 220 I 667 220 I C 
K 
: N 668 221 10 9 rp C 
 L ; N 678 230 M 667 230 I 667 220 I 678 220 I C 
K 
: N 715 221 21 9 rp C 
 L ; N 736 230 M 714 230 I 714 220 I 736 220 I C 
K 
: N 749 221 10 10 rp C 
 L ; N 759 231 M 748 231 I 748 220 I 759 220 I C 
K 
: N 772 221 10 10 rp C 
 L ; N 782 231 M 771 231 I 771 220 I 782 220 I C 
K 
: N 783 221 10 9 rp C 
 L ; N 793 230 M 782 230 I 782 220 I 793 220 I C 
K 
: N 807 221 33 9 rp C 
 L ; N 840 230 M 806 230 I 806 220 I 840 220 I C 
K 
: N 841 221 21 10 rp C 
 L ; N 862 231 M 840 231 I 840 220 I 862 220 I C 
K 
: N 864 221 21 9 rp C 
 L ; N 885 230 M 863 230 I 863 220 I 885 220 I C 
K 
: N 922 221 9 10 rp C 
 L ; N 931 231 M 921 231 I 921 220 I 931 220 I C 
K 
: N 945 221 9 10 rp C 
 L ; N 954 231 M 944 231 I 944 220 I 954 220 I C 
K 
: N 956 221 10 9 rp C 
 L ; N 966 230 M 955 230 I 955 220 I 966 220 I C 
K 
: N 554 232 9 10 rp C 
 L ; N 563 242 M 553 242 I 553 231 I 563 231 I C 
K 
: N 588 232 10 10 rp C 
 L ; N 598 242 M 587 242 I 587 231 I 598 231 I C 
K 
: N 611 232 10 10 rp C 
 L ; N 621 242 M 610 242 I 610 231 I 621 231 I C 
K 
: N 634 232 10 10 rp C 
 L ; N 644 242 M 633 242 I 633 231 I 644 231 I C 
K 
: N 645 232 22 10 rp C 
 L ; N 667 242 M 644 242 I 644 231 I 667 231 I C 
K 
: N 749 232 21 10 rp C 
 L ; N 770 242 M 748 242 I 748 231 I 770 231 I C 
K 
: N 772 232 10 10 rp C 
 L ; N 782 242 M 771 242 I 771 231 I 782 231 I C 
K 
: N 795 232 10 10 rp C 
 L ; N 805 242 M 794 242 I 794 231 I 805 231 I C 
K 
: N 841 232 10 10 rp C 
 L ; N 851 242 M 840 242 I 840 231 I 851 231 I C 
K 
: N 853 232 9 10 rp C 
 L ; N 862 242 M 852 242 I 852 231 I 862 231 I C 
K 
: N 887 232 21 10 rp C 
 L ; N 908 242 M 886 242 I 886 231 I 908 231 I C 
K 
: N 922 232 9 10 rp C 
 L ; N 931 242 M 921 242 I 921 231 I 931 231 I C 
K 
: N 945 232 9 10 rp C 
 L ; N 954 242 M 944 242 I 944 231 I 954 231 I C 
K 
: N 531 244 9 10 rp C 
 L ; N 540 254 M 530 254 I 530 243 I 540 243 I C 
K 
: N 565 244 10 9 rp C 
 L ; N 575 253 M 564 253 I 564 243 I 575 243 I C 
K 
: N 600 244 9 10 rp C 
 L ; N 609 254 M 599 254 I 599 243 I 609 243 I C 
K 
: N 634 244 10 9 rp C 
 L ; N 644 253 M 633 253 I 633 243 I 644 243 I C 
K 
: N 680 244 10 9 rp C 
 L ; N 690 253 M 679 253 I 679 243 I 690 243 I C 
K 
: N 692 244 44 10 rp C 
 L ; N 736 254 M 691 254 I 691 243 I 736 243 I C 
K 
: N 749 244 10 10 rp C 
 L ; N 759 254 M 748 254 I 748 243 I 759 243 I C 
K 
: N 760 244 10 9 rp C 
 L ; N 770 253 M 759 253 I 759 243 I 770 243 I C 
K 
: N 807 244 9 9 rp C 
 L ; N 816 253 M 806 253 I 806 243 I 816 243 I C 
K 
: N 853 244 9 9 rp C 
 L ; N 862 253 M 852 253 I 852 243 I 862 243 I C 
K 
: N 887 244 10 10 rp C 
 L ; N 897 254 M 886 254 I 886 243 I 897 243 I C 
K 
: N 898 244 11 9 rp C 
 L ; N 909 253 M 897 253 I 897 243 I 909 243 I C 
K 
: N 910 244 10 10 rp C 
 L ; N 920 254 M 909 254 I 909 243 I 920 243 I C 
K 
: N 921 244 22 9 rp C 
 L ; N 943 253 M 920 253 I 920 243 I 943 243 I C 
K 
: N 945 244 21 10 rp C 
 L ; N 966 254 M 944 254 I 944 243 I 966 243 I C 
K 
: N 531 255 9 10 rp C 
 L ; N 540 265 M 530 265 I 530 254 I 540 254 I C 
K 
: N 542 255 10 10 rp C 
 L ; N 552 265 M 541 265 I 541 254 I 552 254 I C 
K 
: N 588 255 10 10 rp C 
 L ; N 598 265 M 587 265 I 587 254 I 598 254 I C 
K 
: N 600 255 9 10 rp C 
 L ; N 609 265 M 599 265 I 599 254 I 609 254 I C 
K 
: N 623 255 9 10 rp C 
 L ; N 632 265 M 622 265 I 622 254 I 632 254 I C 
K 
: N 669 255 9 10 rp C 
 L ; N 678 265 M 668 265 I 668 254 I 678 254 I C 
K 
: N 692 255 21 10 rp C 
 L ; N 713 265 M 691 265 I 691 254 I 713 254 I C 
K 
: N 714 255 22 10 rp C 
 L ; N 736 265 M 713 265 I 713 254 I 736 254 I C 
K 
: N 749 255 10 10 rp C 
 L ; N 759 265 M 748 265 I 748 254 I 759 254 I C 
K 
: N 795 255 10 10 rp C 
 L ; N 805 265 M 794 265 I 794 254 I 805 254 I C 
K 
: N 841 255 10 10 rp C 
 L ; N 851 265 M 840 265 I 840 254 I 851 254 I C 
K 
: N 864 255 10 10 rp C 
 L ; N 874 265 M 863 265 I 863 254 I 874 254 I C 
K 
: N 887 255 10 10 rp C 
 L ; N 897 265 M 886 265 I 886 254 I 897 254 I C 
K 
: N 910 255 10 10 rp C 
 L ; N 920 265 M 909 265 I 909 254 I 920 254 I C 
K 
: N 945 255 21 10 rp C 
 L ; N 966 265 M 944 265 I 944 254 I 966 254 I C 
K 
: N 519 267 21 9 rp C 
 L ; N 540 276 M 518 276 I 518 266 I 540 266 I C 
K 
: N 554 267 21 10 rp C 
 L ; N 575 277 M 553 277 I 553 266 I 575 266 I C 
K 
: N 600 267 21 10 rp C 
 L ; N 621 277 M 599 277 I 599 266 I 621 266 I C 
K 
: N 634 267 22 9 rp C 
 L ; N 656 276 M 633 276 I 633 266 I 656 266 I C 
K 
: N 657 267 21 10 rp C 
 L ; N 678 277 M 656 277 I 656 266 I 678 266 I C 
K 
: N 692 267 21 10 rp C 
 L ; N 713 277 M 691 277 I 691 266 I 713 266 I C 
K 
: N 738 267 32 10 rp C 
 L ; N 770 277 M 737 277 I 737 266 I 770 266 I C 
K 
: N 784 267 10 9 rp C 
 L ; N 794 276 M 783 276 I 783 266 I 794 266 I C 
K 
: N 795 267 21 10 rp C 
 L ; N 816 277 M 794 277 I 794 266 I 816 266 I C 
K 
: N 818 267 10 9 rp C 
 L ; N 828 276 M 817 276 I 817 266 I 828 266 I C 
K 
: N 841 267 33 9 rp C 
 L ; N 874 276 M 840 276 I 840 266 I 874 266 I C 
K 
: N 887 267 10 9 rp C 
 L ; N 897 276 M 886 276 I 886 266 I 897 266 I C 
K 
: N 910 267 10 9 rp C 
 L ; N 920 276 M 909 276 I 909 266 I 920 266 I C 
K 
: N 933 267 10 10 rp C 
 L ; N 943 277 M 932 277 I 932 266 I 943 266 I C 
K 
: N 542 278 10 10 rp C 
 L ; N 552 288 M 541 288 I 541 277 I 552 277 I C 
K 
: N 554 278 9 10 rp C 
 L ; N 563 288 M 553 288 I 553 277 I 563 277 I C 
K 
: N 565 278 10 10 rp C 
 L ; N 575 288 M 564 288 I 564 277 I 575 277 I C 
K 
: N 577 278 9 10 rp C 
 L ; N 586 288 M 576 288 I 576 277 I 586 277 I C 
K 
: N 588 278 10 10 rp C 
 L ; N 598 288 M 587 288 I 587 277 I 598 277 I C 
K 
: N 600 278 21 10 rp C 
 L ; N 621 288 M 599 288 I 599 277 I 621 277 I C 
K 
: N 622 278 10 10 rp C 
 L ; N 632 288 M 621 288 I 621 277 I 632 277 I C 
K 
: N 657 278 22 10 rp C 
 L ; N 679 288 M 656 288 I 656 277 I 679 277 I C 
K 
: N 680 278 33 10 rp C 
 L ; N 713 288 M 679 288 I 679 277 I 713 277 I C 
K 
: N 726 278 33 10 rp C 
 L ; N 759 288 M 725 288 I 725 277 I 759 277 I C 
K 
: N 761 278 9 10 rp C 
 L ; N 770 288 M 760 288 I 760 277 I 770 277 I C 
K 
: N 795 278 10 10 rp C 
 L ; N 805 288 M 794 288 I 794 277 I 805 277 I C 
K 
: N 807 278 9 10 rp C 
 L ; N 816 288 M 806 288 I 806 277 I 816 277 I C 
K 
: N 830 278 9 10 rp C 
 L ; N 839 288 M 829 288 I 829 277 I 839 277 I C 
K 
: N 876 278 9 10 rp C 
 L ; N 885 288 M 875 288 I 875 277 I 885 277 I C 
K 
: N 922 278 21 10 rp C 
 L ; N 943 288 M 921 288 I 921 277 I 943 277 I C 
K 
: N 968 278 9 10 rp C 
 L ; N 977 288 M 967 288 I 967 277 I 977 277 I C 
K 
: N 519 290 10 9 rp C 
 L ; N 529 299 M 518 299 I 518 289 I 529 289 I C 
K 
: N 554 290 9 10 rp C 
 L ; N 563 300 M 553 300 I 553 289 I 563 289 I C 
K 
: N 577 290 9 9 rp C 
 L ; N 586 299 M 576 299 I 576 289 I 586 289 I C 
K 
: N 600 290 10 9 rp C 
 L ; N 610 299 M 599 299 I 599 289 I 610 289 I C 
K 
: N 611 290 10 10 rp C 
 L ; N 621 300 M 610 300 I 610 289 I 621 289 I C 
K 
: N 646 290 9 9 rp C 
 L ; N 655 299 M 645 299 I 645 289 I 655 289 I C 
K 
: N 680 290 21 10 rp C 
 L ; N 701 300 M 679 300 I 679 289 I 701 289 I C 
K 
: N 703 290 10 9 rp C 
 L ; N 713 299 M 702 299 I 702 289 I 713 289 I C 
K 
: N 761 290 21 10 rp C 
 L ; N 782 300 M 760 300 I 760 289 I 782 289 I C 
K 
: N 783 290 10 9 rp C 
 L ; N 793 299 M 782 299 I 782 289 I 793 289 I C 
K 
: N 807 290 21 10 rp C 
 L ; N 828 300 M 806 300 I 806 289 I 828 289 I C 
K 
: N 853 290 9 10 rp C 
 L ; N 862 300 M 852 300 I 852 289 I 862 289 I C 
K 
: N 876 290 9 10 rp C 
 L ; N 885 300 M 875 300 I 875 289 I 885 289 I C 
K 
: N 922 290 9 10 rp C 
 L ; N 931 300 M 921 300 I 921 289 I 931 289 I C 
K 
: N 933 290 33 9 rp C 
 L ; N 966 299 M 932 299 I 932 289 I 966 289 I C 
K 
: N 979 290 10 9 rp C 
 L ; N 989 299 M 978 299 I 978 289 I 989 289 I C 
K 
: N 554 301 9 10 rp C 
 L ; N 563 311 M 553 311 I 553 300 I 563 300 I C 
K 
: N 588 301 10 10 rp C 
 L ; N 598 311 M 587 311 I 587 300 I 598 300 I C 
K 
: N 611 301 10 10 rp C 
 L ; N 621 311 M 610 311 I 610 300 I 621 300 I C 
K 
: N 634 301 10 10 rp C 
 L ; N 644 311 M 633 311 I 633 300 I 644 300 I C 
K 
: N 657 301 21 10 rp C 
 L ; N 678 311 M 656 311 I 656 300 I 678 300 I C 
K 
: N 680 301 21 10 rp C 
 L ; N 701 311 M 679 311 I 679 300 I 701 300 I C 
K 
: N 715 301 10 10 rp C 
 L ; N 725 311 M 714 311 I 714 300 I 725 300 I C 
K 
: N 726 301 33 10 rp C 
 L ; N 759 311 M 725 311 I 725 300 I 759 300 I C 
K 
: N 760 301 22 10 rp C 
 L ; N 782 311 M 759 311 I 759 300 I 782 300 I C 
K 
: N 795 301 10 10 rp C 
 L ; N 805 311 M 794 311 I 794 300 I 805 300 I C 
K 
: N 807 301 9 10 rp C 
 L ; N 816 311 M 806 311 I 806 300 I 816 300 I C 
K 
: N 818 301 10 10 rp C 
 L ; N 828 311 M 817 311 I 817 300 I 828 300 I C 
K 
: N 853 301 21 10 rp C 
 L ; N 874 311 M 852 311 I 852 300 I 874 300 I C 
K 
: N 876 301 9 10 rp C 
 L ; N 885 311 M 875 311 I 875 300 I 885 300 I C 
K 
: N 887 301 10 10 rp C 
 L ; N 897 311 M 886 311 I 886 300 I 897 300 I C 
K 
: N 910 301 10 10 rp C 
 L ; N 920 311 M 909 311 I 909 300 I 920 300 I C 
K 
: N 921 301 10 10 rp C 
 L ; N 931 311 M 920 311 I 920 300 I 931 300 I C 
K 
: N 968 301 9 10 rp C 
 L ; N 977 311 M 967 311 I 967 300 I 977 300 I C 
K 
: N 565 313 10 9 rp C 
 L ; N 575 322 M 564 322 I 564 312 I 575 312 I C 
K 
: N 577 313 9 10 rp C 
 L ; N 586 323 M 576 323 I 576 312 I 586 312 I C 
K 
: N 634 313 10 10 rp C 
 L ; N 644 323 M 633 323 I 633 312 I 644 312 I C 
K 
: N 657 313 10 10 rp C 
 L ; N 667 323 M 656 323 I 656 312 I 667 312 I C 
K 
: N 668 313 10 9 rp C 
 L ; N 678 322 M 667 322 I 667 312 I 678 312 I C 
K 
: N 726 313 33 9 rp C 
 L ; N 759 322 M 725 322 I 725 312 I 759 312 I C 
K 
: N 784 313 9 9 rp C 
 L ; N 793 322 M 783 322 I 783 312 I 793 312 I C 
K 
: N 807 313 9 9 rp C 
 L ; N 816 322 M 806 322 I 806 312 I 816 312 I C 
K 
: N 876 313 9 10 rp C 
 L ; N 885 323 M 875 323 I 875 312 I 885 312 I C 
K 
: N 910 313 10 9 rp C 
 L ; N 920 322 M 909 322 I 909 312 I 920 312 I C 
K 
: N 933 313 10 10 rp C 
 L ; N 943 323 M 932 323 I 932 312 I 943 312 I C 
K 
: N 944 313 10 9 rp C 
 L ; N 954 322 M 943 322 I 943 312 I 954 312 I C 
K 
: N 968 313 9 9 rp C 
 L ; N 977 322 M 967 322 I 967 312 I 977 312 I C 
K 
: N 542 324 10 10 rp C 
 L ; N 552 334 M 541 334 I 541 323 I 552 323 I C 
K 
: N 577 324 21 10 rp C 
 L ; N 598 334 M 576 334 I 576 323 I 598 323 I C 
K 
: N 600 324 9 10 rp C 
 L ; N 609 334 M 599 334 I 599 323 I 609 323 I C 
K 
: N 623 324 21 10 rp C 
 L ; N 644 334 M 622 334 I 622 323 I 644 323 I C 
K 
: N 657 324 10 10 rp C 
 L ; N 667 334 M 656 334 I 656 323 I 667 323 I C 
K 
: N 761 324 9 10 rp C 
 L ; N 770 334 M 760 334 I 760 323 I 770 323 I C 
K 
: N 772 324 10 10 rp C 
 L ; N 782 334 M 771 334 I 771 323 I 782 323 I C 
K 
: N 795 324 10 10 rp C 
 L ; N 805 334 M 794 334 I 794 323 I 805 323 I C 
K 
: N 818 324 10 10 rp C 
 L ; N 828 334 M 817 334 I 817 323 I 828 323 I C 
K 
: N 841 324 10 10 rp C 
 L ; N 851 334 M 840 334 I 840 323 I 851 323 I C 
K 
: N 864 324 10 10 rp C 
 L ; N 874 334 M 863 334 I 863 323 I 874 323 I C 
K 
: N 876 324 21 10 rp C 
 L ; N 897 334 M 875 334 I 875 323 I 897 323 I C 
K 
: N 933 324 10 10 rp C 
 L ; N 943 334 M 932 334 I 932 323 I 943 323 I C 
K 
: N 956 324 10 10 rp C 
 L ; N 966 334 M 955 334 I 955 323 I 966 323 I C 
K 
: N 979 324 10 10 rp C 
 L ; N 989 334 M 978 334 I 978 323 I 989 323 I C 
K 
: N 531 336 44 9 rp C 
 L ; N 575 345 M 530 345 I 530 335 I 575 335 I C 
K 
: N 600 336 10 9 rp C 
 L ; N 610 345 M 599 345 I 599 335 I 610 335 I C 
K 
: N 611 336 10 10 rp C 
 L ; N 621 346 M 610 346 I 610 335 I 621 335 I C 
K 
: N 669 336 9 9 rp C 
 L ; N 678 345 M 668 345 I 668 335 I 678 335 I C 
K 
: N 692 336 9 10 rp C 
 L ; N 701 346 M 691 346 I 691 335 I 701 335 I C 
K 
: N 715 336 21 9 rp C 
 L ; N 736 345 M 714 345 I 714 335 I 736 335 I C 
K 
: N 738 336 9 10 rp C 
 L ; N 747 346 M 737 346 I 737 335 I 747 335 I C 
K 
: N 761 336 9 9 rp C 
 L ; N 770 345 M 760 345 I 760 335 I 770 335 I C 
K 
: N 795 336 10 10 rp C 
 L ; N 805 346 M 794 346 I 794 335 I 805 335 I C 
K 
: N 830 336 9 9 rp C 
 L ; N 839 345 M 829 345 I 829 335 I 839 335 I C 
K 
: N 853 336 9 10 rp C 
 L ; N 862 346 M 852 346 I 852 335 I 862 335 I C 
K 
: N 876 336 9 10 rp C 
 L ; N 885 346 M 875 346 I 875 335 I 885 335 I C 
K 
: N 887 336 10 9 rp C 
 L ; N 897 345 M 886 345 I 886 335 I 897 335 I C 
K 
: N 899 336 9 10 rp C 
 L ; N 908 346 M 898 346 I 898 335 I 908 335 I C 
K 
: N 922 336 10 9 rp C 
 L ; N 932 345 M 921 345 I 921 335 I 932 335 I C 
K 
: N 933 336 21 10 rp C 
 L ; N 954 346 M 932 346 I 932 335 I 954 335 I C 
K 
: N 956 336 10 9 rp C 
 L ; N 966 345 M 955 345 I 955 335 I 966 335 I C 
K 
: N 519 347 10 10 rp C 
 L ; N 529 357 M 518 357 I 518 346 I 529 346 I C 
K 
: N 577 347 9 10 rp C 
 L ; N 586 357 M 576 357 I 576 346 I 586 346 I C 
K 
: N 588 347 10 10 rp C 
 L ; N 598 357 M 587 357 I 587 346 I 598 346 I C 
K 
: N 611 347 10 10 rp C 
 L ; N 621 357 M 610 357 I 610 346 I 621 346 I C 
K 
: N 646 347 21 10 rp C 
 L ; N 667 357 M 645 357 I 645 346 I 667 346 I C 
K 
: N 692 347 9 10 rp C 
 L ; N 701 357 M 691 357 I 691 346 I 701 346 I C 
K 
: N 738 347 9 10 rp C 
 L ; N 747 357 M 737 357 I 737 346 I 747 346 I C 
K 
: N 772 347 21 10 rp C 
 L ; N 793 357 M 771 357 I 771 346 I 793 346 I C 
K 
: N 795 347 10 10 rp C 
 L ; N 805 357 M 794 357 I 794 346 I 805 346 I C 
K 
: N 807 347 9 10 rp C 
 L ; N 816 357 M 806 357 I 806 346 I 816 346 I C 
K 
: N 841 347 21 10 rp C 
 L ; N 862 357 M 840 357 I 840 346 I 862 346 I C 
K 
: N 876 347 9 10 rp C 
 L ; N 885 357 M 875 357 I 875 346 I 885 346 I C 
K 
: N 899 347 9 10 rp C 
 L ; N 908 357 M 898 357 I 898 346 I 908 346 I C 
K 
: N 933 347 21 10 rp C 
 L ; N 954 357 M 932 357 I 932 346 I 954 346 I C 
K 
: N 519 359 10 10 rp C 
 L ; N 529 369 M 518 369 I 518 358 I 529 358 I C 
K 
: N 542 359 21 10 rp C 
 L ; N 563 369 M 541 369 I 541 358 I 563 358 I C 
K 
: N 577 359 9 9 rp C 
 L ; N 586 368 M 576 368 I 576 358 I 586 358 I C 
K 
: N 611 359 21 9 rp C 
 L ; N 632 368 M 610 368 I 610 358 I 632 358 I C 
K 
: N 646 359 9 10 rp C 
 L ; N 655 369 M 645 369 I 645 358 I 655 358 I C 
K 
: N 657 359 10 9 rp C 
 L ; N 667 368 M 656 368 I 656 358 I 667 358 I C 
K 
: N 703 359 21 10 rp C 
 L ; N 724 369 M 702 369 I 702 358 I 724 358 I C 
K 
: N 726 359 10 9 rp C 
 L ; N 736 368 M 725 368 I 725 358 I 736 358 I C 
K 
: N 761 359 32 10 rp C 
 L ; N 793 369 M 760 369 I 760 358 I 793 358 I C 
K 
: N 807 359 21 9 rp C 
 L ; N 828 368 M 806 368 I 806 358 I 828 358 I C 
K 
: N 841 359 33 9 rp C 
 L ; N 874 368 M 840 368 I 840 358 I 874 358 I C 
K 
: N 887 359 10 10 rp C 
 L ; N 897 369 M 886 369 I 886 358 I 897 358 I C 
K 
: N 910 359 10 10 rp C 
 L ; N 920 369 M 909 369 I 909 358 I 920 358 I C 
K 
: N 933 359 10 10 rp C 
 L ; N 943 369 M 932 369 I 932 358 I 943 358 I C 
K 
: N 944 359 22 9 rp C 
 L ; N 966 368 M 943 368 I 943 358 I 966 358 I C 
K 
: N 979 359 10 10 rp C 
 L ; N 989 369 M 978 369 I 978 358 I 989 358 I C 
K 
: N 519 370 10 10 rp C 
 L ; N 529 380 M 518 380 I 518 369 I 529 369 I C 
K 
: N 542 370 21 10 rp C 
 L ; N 563 380 M 541 380 I 541 369 I 563 369 I C 
K 
: N 588 370 21 10 rp C 
 L ; N 609 380 M 587 380 I 587 369 I 609 369 I C 
K 
: N 634 370 21 10 rp C 
 L ; N 655 380 M 633 380 I 633 369 I 655 369 I C 
K 
: N 669 370 9 10 rp C 
 L ; N 678 380 M 668 380 I 668 369 I 678 369 I C 
K 
: N 703 370 10 10 rp C 
 L ; N 713 380 M 702 380 I 702 369 I 713 369 I C 
K 
: N 715 370 9 10 rp C 
 L ; N 724 380 M 714 380 I 714 369 I 724 369 I C 
K 
: N 749 370 21 10 rp C 
 L ; N 770 380 M 748 380 I 748 369 I 770 369 I C 
K 
: N 772 370 10 10 rp C 
 L ; N 782 380 M 771 380 I 771 369 I 782 369 I C 
K 
: N 784 370 9 10 rp C 
 L ; N 793 380 M 783 380 I 783 369 I 793 369 I C 
K 
: N 887 370 10 10 rp C 
 L ; N 897 380 M 886 380 I 886 369 I 897 369 I C 
K 
: N 910 370 10 10 rp C 
 L ; N 920 380 M 909 380 I 909 369 I 920 369 I C 
K 
: N 933 370 10 10 rp C 
 L ; N 943 380 M 932 380 I 932 369 I 943 369 I C 
K 
: N 968 370 10 10 rp C 
 L ; N 978 380 M 967 380 I 967 369 I 978 369 I C 
K 
: N 979 370 10 10 rp C 
 L ; N 989 380 M 978 380 I 978 369 I 989 369 I C 
K 
: N 519 382 21 10 rp C 
 L ; N 540 392 M 518 392 I 518 381 I 540 381 I C 
K 
: N 565 382 10 10 rp C 
 L ; N 575 392 M 564 392 I 564 381 I 575 381 I C 
K 
: N 611 382 10 9 rp C 
 L ; N 621 391 M 610 391 I 610 381 I 621 381 I C 
K 
: N 669 382 21 10 rp C 
 L ; N 690 392 M 668 392 I 668 381 I 690 381 I C 
K 
: N 691 382 10 9 rp C 
 L ; N 701 391 M 690 391 I 690 381 I 701 381 I C 
K 
: N 715 382 21 10 rp C 
 L ; N 736 392 M 714 392 I 714 381 I 736 381 I C 
K 
: N 749 382 10 10 rp C 
 L ; N 759 392 M 748 392 I 748 381 I 759 381 I C 
K 
: N 760 382 10 9 rp C 
 L ; N 770 391 M 759 391 I 759 381 I 770 381 I C 
K 
: N 784 382 9 10 rp C 
 L ; N 793 392 M 783 392 I 783 381 I 793 381 I C 
K 
: N 795 382 22 9 rp C 
 L ; N 817 391 M 794 391 I 794 381 I 817 381 I C 
K 
: N 818 382 10 10 rp C 
 L ; N 828 392 M 817 392 I 817 381 I 828 381 I C 
K 
: N 829 382 10 9 rp C 
 L ; N 839 391 M 828 391 I 828 381 I 839 381 I C 
K 
: N 864 382 10 10 rp C 
 L ; N 874 392 M 863 392 I 863 381 I 874 381 I C 
K 
: N 875 382 11 9 rp C 
 L ; N 886 391 M 874 391 I 874 381 I 886 381 I C 
K 
: N 887 382 10 10 rp C 
 L ; N 897 392 M 886 392 I 886 381 I 897 381 I C 
K 
: N 898 382 22 9 rp C 
 L ; N 920 391 M 897 391 I 897 381 I 920 381 I C 
K 
: N 933 382 10 9 rp C 
 L ; N 943 391 M 932 391 I 932 381 I 943 381 I C 
K 
: N 945 382 9 10 rp C 
 L ; N 954 392 M 944 392 I 944 381 I 954 381 I C 
K 
: N 979 382 10 9 rp C 
 L ; N 989 391 M 978 391 I 978 381 I 989 381 I C 
K 
: N 519 393 21 10 rp C 
 L ; N 540 403 M 518 403 I 518 392 I 540 392 I C 
K 
: N 565 393 10 10 rp C 
 L ; N 575 403 M 564 403 I 564 392 I 575 392 I C 
K 
: N 588 393 10 10 rp C 
 L ; N 598 403 M 587 403 I 587 392 I 598 392 I C 
K 
: N 623 393 9 10 rp C 
 L ; N 632 403 M 622 403 I 622 392 I 632 392 I C 
K 
: N 669 393 9 10 rp C 
 L ; N 678 403 M 668 403 I 668 392 I 678 392 I C 
K 
: N 680 393 10 10 rp C 
 L ; N 690 403 M 679 403 I 679 392 I 690 392 I C 
K 
: N 703 393 10 10 rp C 
 L ; N 713 403 M 702 403 I 702 392 I 713 392 I C 
K 
: N 715 393 21 10 rp C 
 L ; N 736 403 M 714 403 I 714 392 I 736 392 I C 
K 
: N 749 393 10 10 rp C 
 L ; N 759 403 M 748 403 I 748 392 I 759 392 I C 
K 
: N 784 393 9 10 rp C 
 L ; N 793 403 M 783 403 I 783 392 I 793 392 I C 
K 
: N 818 393 10 10 rp C 
 L ; N 828 403 M 817 403 I 817 392 I 828 392 I C 
K 
: N 841 393 10 10 rp C 
 L ; N 851 403 M 840 403 I 840 392 I 851 392 I C 
K 
: N 864 393 10 10 rp C 
 L ; N 874 403 M 863 403 I 863 392 I 874 392 I C 
K 
: N 887 393 10 10 rp C 
 L ; N 897 403 M 886 403 I 886 392 I 897 392 I C 
K 
: N 922 393 9 10 rp C 
 L ; N 931 403 M 921 403 I 921 392 I 931 392 I C 
K 
: N 945 393 10 10 rp C 
 L ; N 955 403 M 944 403 I 944 392 I 955 392 I C 
K 
: N 956 393 10 10 rp C 
 L ; N 966 403 M 955 403 I 955 392 I 966 392 I C 
K 
: N 519 405 21 10 rp C 
 L ; N 540 415 M 518 415 I 518 404 I 540 404 I C 
K 
: N 554 405 21 10 rp C 
 L ; N 575 415 M 553 415 I 553 404 I 575 404 I C 
K 
: N 611 405 10 9 rp C 
 L ; N 621 414 M 610 414 I 610 404 I 621 404 I C 
K 
: N 634 405 22 9 rp C 
 L ; N 656 414 M 633 414 I 633 404 I 656 404 I C 
K 
: N 657 405 10 10 rp C 
 L ; N 667 415 M 656 415 I 656 404 I 667 404 I C 
K 
: N 668 405 10 9 rp C 
 L ; N 678 414 M 667 414 I 667 404 I 678 404 I C 
K 
: N 692 405 9 10 rp C 
 L ; N 701 415 M 691 415 I 691 404 I 701 404 I C 
K 
: N 715 405 21 9 rp C 
 L ; N 736 414 M 714 414 I 714 404 I 736 404 I C 
K 
: N 761 405 9 10 rp C 
 L ; N 770 415 M 760 415 I 760 404 I 770 404 I C 
K 
: N 795 405 10 10 rp C 
 L ; N 805 415 M 794 415 I 794 404 I 805 404 I C 
K 
: N 818 405 10 10 rp C 
 L ; N 828 415 M 817 415 I 817 404 I 828 404 I C 
K 
: N 829 405 11 9 rp C 
 L ; N 840 414 M 828 414 I 828 404 I 840 404 I C 
K 
: N 841 405 10 10 rp C 
 L ; N 851 415 M 840 415 I 840 404 I 851 404 I C 
K 
: N 852 405 22 9 rp C 
 L ; N 874 414 M 851 414 I 851 404 I 874 404 I C 
K 
: N 887 405 10 10 rp C 
 L ; N 897 415 M 886 415 I 886 404 I 897 404 I C 
K 
: N 922 405 9 10 rp C 
 L ; N 931 415 M 921 415 I 921 404 I 931 404 I C 
K 
: N 956 405 10 9 rp C 
 L ; N 966 414 M 955 414 I 955 404 I 966 404 I C 
K 
: N 979 405 10 10 rp C 
 L ; N 989 415 M 978 415 I 978 404 I 989 404 I C 
K 
: N 519 416 21 10 rp C 
 L ; N 540 426 M 518 426 I 518 415 I 540 415 I C 
K 
: N 554 416 55 10 rp C 
 L ; N 609 426 M 553 426 I 553 415 I 609 415 I C 
K 
: N 623 416 9 10 rp C 
 L ; N 632 426 M 622 426 I 622 415 I 632 415 I C 
K 
: N 657 416 10 10 rp C 
 L ; N 667 426 M 656 426 I 656 415 I 667 415 I C 
K 
: N 692 416 9 10 rp C 
 L ; N 701 426 M 691 426 I 691 415 I 701 415 I C 
K 
: N 749 416 21 10 rp C 
 L ; N 770 426 M 748 426 I 748 415 I 770 415 I C 
K 
: N 795 416 10 10 rp C 
 L ; N 805 426 M 794 426 I 794 415 I 805 415 I C 
K 
: N 807 416 9 10 rp C 
 L ; N 816 426 M 806 426 I 806 415 I 816 415 I C 
K 
: N 818 416 10 10 rp C 
 L ; N 828 426 M 817 426 I 817 415 I 828 415 I C 
K 
: N 841 416 10 10 rp C 
 L ; N 851 426 M 840 426 I 840 415 I 851 415 I C 
K 
: N 876 416 21 10 rp C 
 L ; N 897 426 M 875 426 I 875 415 I 897 415 I C 
K 
: N 898 416 34 10 rp C 
 L ; N 932 426 M 897 426 I 897 415 I 932 415 I C 
K 
: N 933 416 10 10 rp C 
 L ; N 943 426 M 932 426 I 932 415 I 943 415 I C 
K 
: N 968 416 21 10 rp C 
 L ; N 989 426 M 967 426 I 967 415 I 989 415 I C 
K 
: N 611 428 10 10 rp C 
 L ; N 621 438 M 610 438 I 610 427 I 621 427 I C 
K 
: N 622 428 11 9 rp C 
 L ; N 633 437 M 621 437 I 621 427 I 633 427 I C 
K 
: N 634 428 10 10 rp C 
 L ; N 644 438 M 633 438 I 633 427 I 644 427 I C 
K 
: N 669 428 10 9 rp C 
 L ; N 679 437 M 668 437 I 668 427 I 679 427 I C 
K 
: N 680 428 10 10 rp C 
 L ; N 690 438 M 679 438 I 679 427 I 690 427 I C 
K 
: N 715 428 9 9 rp C 
 L ; N 724 437 M 714 437 I 714 427 I 724 427 I C 
K 
: N 738 428 9 10 rp C 
 L ; N 747 438 M 737 438 I 737 427 I 747 427 I C 
K 
: N 772 428 10 9 rp C 
 L ; N 782 437 M 771 437 I 771 427 I 782 427 I C 
K 
: N 807 428 9 10 rp C 
 L ; N 816 438 M 806 438 I 806 427 I 816 427 I C 
K 
: N 876 428 10 9 rp C 
 L ; N 886 437 M 875 437 I 875 427 I 886 427 I C 
K 
: N 887 428 10 10 rp C 
 L ; N 897 438 M 886 438 I 886 427 I 897 427 I C 
K 
: N 933 428 10 10 rp C 
 L ; N 943 438 M 932 438 I 932 427 I 943 427 I C 
K 
: N 944 428 11 9 rp C 
 L ; N 955 437 M 943 437 I 943 427 I 955 427 I C 
K 
: N 956 428 10 10 rp C 
 L ; N 966 438 M 955 438 I 955 427 I 966 427 I C 
K 
: N 519 439 10 10 rp C 
 L ; N 529 449 M 518 449 I 518 438 I 529 438 I C 
K 
: N 530 439 57 10 rp C 
 L ; N 587 449 M 529 449 I 529 438 I 587 438 I C 
K 
: N 588 439 10 10 rp C 
 L ; N 598 449 M 587 449 I 587 438 I 598 438 I C 
K 
: N 611 439 10 10 rp C 
 L ; N 621 449 M 610 449 I 610 438 I 621 438 I C 
K 
: N 634 439 22 10 rp C 
 L ; N 656 449 M 633 449 I 633 438 I 656 438 I C 
K 
: N 657 439 10 10 rp C 
 L ; N 667 449 M 656 449 I 656 438 I 667 438 I C 
K 
: N 680 439 33 10 rp C 
 L ; N 713 449 M 679 449 I 679 438 I 713 438 I C 
K 
: N 738 439 9 10 rp C 
 L ; N 747 449 M 737 449 I 737 438 I 747 438 I C 
K 
: N 749 439 21 10 rp C 
 L ; N 770 449 M 748 449 I 748 438 I 770 438 I C 
K 
: N 795 439 10 10 rp C 
 L ; N 805 449 M 794 449 I 794 438 I 805 438 I C 
K 
: N 807 439 9 10 rp C 
 L ; N 816 449 M 806 449 I 806 438 I 816 438 I C 
K 
: N 853 439 9 10 rp C 
 L ; N 862 449 M 852 449 I 852 438 I 862 438 I C 
K 
: N 887 439 10 10 rp C 
 L ; N 897 449 M 886 449 I 886 438 I 897 438 I C 
K 
: N 910 439 10 10 rp C 
 L ; N 920 449 M 909 449 I 909 438 I 920 438 I C 
K 
: N 933 439 10 10 rp C 
 L ; N 943 449 M 932 449 I 932 438 I 943 438 I C 
K 
: N 956 439 10 10 rp C 
 L ; N 966 449 M 955 449 I 955 438 I 966 438 I C 
K 
: N 979 439 10 10 rp C 
 L ; N 989 449 M 978 449 I 978 438 I 989 438 I C 
K 
: N 519 451 10 10 rp C 
 L ; N 529 461 M 518 461 I 518 450 I 529 450 I C 
K 
: N 588 451 10 10 rp C 
 L ; N 598 461 M 587 461 I 587 450 I 598 450 I C 
K 
: N 611 451 10 10 rp C 
 L ; N 621 461 M 610 461 I 610 450 I 621 450 I C 
K 
: N 622 451 10 9 rp C 
 L ; N 632 460 M 621 460 I 621 450 I 632 450 I C 
K 
: N 657 451 10 9 rp C 
 L ; N 667 460 M 656 460 I 656 450 I 667 450 I C 
K 
: N 669 451 9 10 rp C 
 L ; N 678 461 M 668 461 I 668 450 I 678 450 I C 
K 
: N 726 451 21 9 rp C 
 L ; N 747 460 M 725 460 I 725 450 I 747 450 I C 
K 
: N 784 451 9 10 rp C 
 L ; N 793 461 M 783 461 I 783 450 I 793 450 I C 
K 
: N 807 451 9 10 rp C 
 L ; N 816 461 M 806 461 I 806 450 I 816 450 I C 
K 
: N 830 451 9 9 rp C 
 L ; N 839 460 M 829 460 I 829 450 I 839 450 I C 
K 
: N 864 451 22 9 rp C 
 L ; N 886 460 M 863 460 I 863 450 I 886 450 I C 
K 
: N 887 451 10 10 rp C 
 L ; N 897 461 M 886 461 I 886 450 I 897 450 I C 
K 
: N 933 451 21 10 rp C 
 L ; N 954 461 M 932 461 I 932 450 I 954 450 I C 
K 
: N 956 451 10 9 rp C 
 L ; N 966 460 M 955 460 I 955 450 I 966 450 I C 
K 
: N 979 451 10 9 rp C 
 L ; N 989 460 M 978 460 I 978 450 I 989 450 I C 
K 
: N 519 462 10 10 rp C 
 L ; N 529 472 M 518 472 I 518 461 I 529 461 I C 
K 
: N 542 462 33 10 rp C 
 L ; N 575 472 M 541 472 I 541 461 I 575 461 I C 
K 
: N 588 462 10 10 rp C 
 L ; N 598 472 M 587 472 I 587 461 I 598 461 I C 
K 
: N 611 462 10 10 rp C 
 L ; N 621 472 M 610 472 I 610 461 I 621 461 I C 
K 
: N 634 462 10 10 rp C 
 L ; N 644 472 M 633 472 I 633 461 I 644 461 I C 
K 
: N 646 462 9 10 rp C 
 L ; N 655 472 M 645 472 I 645 461 I 655 461 I C 
K 
: N 669 462 9 10 rp C 
 L ; N 678 472 M 668 472 I 668 461 I 678 461 I C 
K 
: N 680 462 10 10 rp C 
 L ; N 690 472 M 679 472 I 679 461 I 690 461 I C 
K 
: N 703 462 21 10 rp C 
 L ; N 724 472 M 702 472 I 702 461 I 724 461 I C 
K 
: N 761 462 10 10 rp C 
 L ; N 771 472 M 760 472 I 760 461 I 771 461 I C 
K 
: N 772 462 10 10 rp C 
 L ; N 782 472 M 771 472 I 771 461 I 782 461 I C 
K 
: N 783 462 10 10 rp C 
 L ; N 793 472 M 782 472 I 782 461 I 793 461 I C 
K 
: N 807 462 9 10 rp C 
 L ; N 816 472 M 806 472 I 806 461 I 816 461 I C 
K 
: N 853 462 9 10 rp C 
 L ; N 862 472 M 852 472 I 852 461 I 862 461 I C 
K 
: N 887 462 21 10 rp C 
 L ; N 908 472 M 886 472 I 886 461 I 908 461 I C 
K 
: N 910 462 22 10 rp C 
 L ; N 932 472 M 909 472 I 909 461 I 932 461 I C 
K 
: N 933 462 10 10 rp C 
 L ; N 943 472 M 932 472 I 932 461 I 943 461 I C 
K 
: N 944 462 10 10 rp C 
 L ; N 954 472 M 943 472 I 943 461 I 954 461 I C 
K 
: N 968 462 9 10 rp C 
 L ; N 977 472 M 967 472 I 967 461 I 977 461 I C 
K 
: N 519 474 10 10 rp C 
 L ; N 529 484 M 518 484 I 518 473 I 529 473 I C 
K 
: N 542 474 33 10 rp C 
 L ; N 575 484 M 541 484 I 541 473 I 575 473 I C 
K 
: N 588 474 10 10 rp C 
 L ; N 598 484 M 587 484 I 587 473 I 598 473 I C 
K 
: N 611 474 10 9 rp C 
 L ; N 621 483 M 610 483 I 610 473 I 621 473 I C 
K 
: N 646 474 9 9 rp C 
 L ; N 655 483 M 645 483 I 645 473 I 655 473 I C 
K 
: N 669 474 9 9 rp C 
 L ; N 678 483 M 668 483 I 668 473 I 678 473 I C 
K 
: N 703 474 22 9 rp C 
 L ; N 725 483 M 702 483 I 702 473 I 725 473 I C 
K 
: N 726 474 10 10 rp C 
 L ; N 736 484 M 725 484 I 725 473 I 736 473 I C 
K 
: N 737 474 10 9 rp C 
 L ; N 747 483 M 736 483 I 736 473 I 747 473 I C 
K 
: N 772 474 10 9 rp C 
 L ; N 782 483 M 771 483 I 771 473 I 782 473 I C 
K 
: N 807 474 21 10 rp C 
 L ; N 828 484 M 806 484 I 806 473 I 828 473 I C 
K 
: N 841 474 10 10 rp C 
 L ; N 851 484 M 840 484 I 840 473 I 851 473 I C 
K 
: N 852 474 10 9 rp C 
 L ; N 862 483 M 851 483 I 851 473 I 862 473 I C 
K 
: N 876 474 9 10 rp C 
 L ; N 885 484 M 875 484 I 875 473 I 885 473 I C 
K 
: N 887 474 21 9 rp C 
 L ; N 908 483 M 886 483 I 886 473 I 908 473 I C 
K 
: N 933 474 10 10 rp C 
 L ; N 943 484 M 932 484 I 932 473 I 943 473 I C 
K 
: N 519 485 10 10 rp C 
 L ; N 529 495 M 518 495 I 518 484 I 529 484 I C 
K 
: N 542 485 33 10 rp C 
 L ; N 575 495 M 541 495 I 541 484 I 575 484 I C 
K 
: N 588 485 10 10 rp C 
 L ; N 598 495 M 587 495 I 587 484 I 598 484 I C 
K 
: N 623 485 10 10 rp C 
 L ; N 633 495 M 622 495 I 622 484 I 633 484 I C 
K 
: N 634 485 10 10 rp C 
 L ; N 644 495 M 633 495 I 633 484 I 644 484 I C 
K 
: N 657 485 10 10 rp C 
 L ; N 667 495 M 656 495 I 656 484 I 667 484 I C 
K 
: N 680 485 10 10 rp C 
 L ; N 690 495 M 679 495 I 679 484 I 690 484 I C 
K 
: N 691 485 10 10 rp C 
 L ; N 701 495 M 690 495 I 690 484 I 701 484 I C 
K 
: N 726 485 10 10 rp C 
 L ; N 736 495 M 725 495 I 725 484 I 736 484 I C 
K 
: N 795 485 10 10 rp C 
 L ; N 805 495 M 794 495 I 794 484 I 805 484 I C 
K 
: N 806 485 22 10 rp C 
 L ; N 828 495 M 805 495 I 805 484 I 828 484 I C 
K 
: N 830 485 9 10 rp C 
 L ; N 839 495 M 829 495 I 829 484 I 839 484 I C 
K 
: N 841 485 10 10 rp C 
 L ; N 851 495 M 840 495 I 840 484 I 851 484 I C 
K 
: N 876 485 9 10 rp C 
 L ; N 885 495 M 875 495 I 875 484 I 885 484 I C 
K 
: N 910 485 10 10 rp C 
 L ; N 920 495 M 909 495 I 909 484 I 920 484 I C 
K 
: N 933 485 21 10 rp C 
 L ; N 954 495 M 932 495 I 932 484 I 954 484 I C 
K 
: N 956 485 22 10 rp C 
 L ; N 978 495 M 955 495 I 955 484 I 978 484 I C 
K 
: N 979 485 10 10 rp C 
 L ; N 989 495 M 978 495 I 978 484 I 989 484 I C 
K 
: N 519 497 10 10 rp C 
 L ; N 529 507 M 518 507 I 518 496 I 529 496 I C 
K 
: N 588 497 10 10 rp C 
 L ; N 598 507 M 587 507 I 587 496 I 598 496 I C 
K 
: N 634 497 10 9 rp C 
 L ; N 644 506 M 633 506 I 633 496 I 644 496 I C 
K 
: N 646 497 9 10 rp C 
 L ; N 655 507 M 645 507 I 645 496 I 655 496 I C 
K 
: N 680 497 10 9 rp C 
 L ; N 690 506 M 679 506 I 679 496 I 690 496 I C 
K 
: N 715 497 9 10 rp C 
 L ; N 724 507 M 714 507 I 714 496 I 724 496 I C 
K 
: N 738 497 9 9 rp C 
 L ; N 747 506 M 737 506 I 737 496 I 747 496 I C 
K 
: N 795 497 10 10 rp C 
 L ; N 805 507 M 794 507 I 794 496 I 805 496 I C 
K 
: N 830 497 9 9 rp C 
 L ; N 839 506 M 829 506 I 829 496 I 839 496 I C 
K 
: N 853 497 9 10 rp C 
 L ; N 862 507 M 852 507 I 852 496 I 862 496 I C 
K 
: N 887 497 10 9 rp C 
 L ; N 897 506 M 886 506 I 886 496 I 897 496 I C 
K 
: N 910 497 22 9 rp C 
 L ; N 932 506 M 909 506 I 909 496 I 932 496 I C 
K 
: N 933 497 21 10 rp C 
 L ; N 954 507 M 932 507 I 932 496 I 954 496 I C 
K 
: N 979 497 10 10 rp C 
 L ; N 989 507 M 978 507 I 978 496 I 989 496 I C 
K 
: N 519 508 79 10 rp C 
 L ; N 598 518 M 518 518 I 518 507 I 598 507 I C 
K 
: N 611 508 21 10 rp C 
 L ; N 632 518 M 610 518 I 610 507 I 632 507 I C 
K 
: N 646 508 9 10 rp C 
 L ; N 655 518 M 645 518 I 645 507 I 655 507 I C 
K 
: N 669 508 9 10 rp C 
 L ; N 678 518 M 668 518 I 668 507 I 678 507 I C 
K 
: N 692 508 44 10 rp C 
 L ; N 736 518 M 691 518 I 691 507 I 736 507 I C 
K 
: N 761 508 9 10 rp C 
 L ; N 770 518 M 760 518 I 760 507 I 770 507 I C 
K 
: N 784 508 21 10 rp C 
 L ; N 805 518 M 783 518 I 783 507 I 805 507 I C 
K 
: N 818 508 10 10 rp C 
 L ; N 828 518 M 817 518 I 817 507 I 828 507 I C 
K 
: N 853 508 9 10 rp C 
 L ; N 862 518 M 852 518 I 852 507 I 862 507 I C 
K 
: N 876 508 9 10 rp C 
 L ; N 885 518 M 875 518 I 875 507 I 885 507 I C 
K 
: N 899 508 9 10 rp C 
 L ; N 908 518 M 898 518 I 898 507 I 908 507 I C 
K 
: N 933 508 56 10 rp C 
 L ; N 989 518 M 932 518 I 932 507 I 989 507 I C 
K 
LH
%%PageTrailer

%%Trailer
%%DocumentNeededResources: 
%%DocumentSuppliedResources: 
%%+ procset Pscript_WinNT_VMErrorHandler 5.0 0
%%+ procset Pscript_FatalError 5.0 0
%%+ procset Pscript_Win_Basic 5.0 0
%%+ procset Pscript_Win_Utils_L2 5.0 0
%%+ procset Pscript_Win_GdiObject 5.0 0
%%+ procset Pscript_Win_GdiObject_L2 5.0 0
Pscript_WinNT_Incr dup /terminate get exec
%%EOF
