%!PS-Adobe-3.0 EPSF-3.0
%%Title: WMF2EPS 1.32  : WMF->EPS conversion for clip002.emf
%%Creator: PScript5.dll Version 5.2
%%CreationDate: 7/1/2004 21:34:24
%%For: hig
%%BoundingBox: 56 56 124 124
%%Pages: 1
%%Orientation: Portrait
%%PageOrder: Ascend
%%DocumentNeededResources: (atend)
%%DocumentSuppliedResources: (atend)
%%DocumentData: Clean7Bit
%%TargetDevice: (WMF2EPS Color PS) (2010.0) 2
%%LanguageLevel: 2
%%EndComments

%%BeginDefaults
%%PageBoundingBox: 0 0 124 124
%%ViewingOrientation: 1 0 0 1
%%EndDefaults

%%BeginProlog
%%BeginResource: file Pscript_WinNT_VMErrorHandler 5.0 0
/currentpacking where{pop/oldpack currentpacking def/setpacking where{pop false
setpacking}if}if/$brkpage 64 dict def $brkpage begin/prnt{dup type/stringtype
ne{=string cvs}if dup length 6 mul/tx exch def/ty 10 def currentpoint/toy exch
def/tox exch def 1 setgray newpath tox toy 2 sub moveto 0 ty rlineto tx 0
rlineto 0 ty neg rlineto closepath fill tox toy moveto 0 setgray show}bind def
/nl{currentpoint exch pop lmargin exch moveto 0 -10 rmoveto}def/=={/cp 0 def
typeprint nl}def/typeprint{dup type exec}readonly def/lmargin 72 def/rmargin 72
def/tprint{dup length cp add rmargin gt{nl/cp 0 def}if dup length cp add/cp
exch def prnt}readonly def/cvsprint{=string cvs tprint( )tprint}readonly def
/integertype{cvsprint}readonly def/realtype{cvsprint}readonly def/booleantype
{cvsprint}readonly def/operatortype{(--)tprint =string cvs tprint(-- )tprint}
readonly def/marktype{pop(-mark- )tprint}readonly def/dicttype{pop
(-dictionary- )tprint}readonly def/nulltype{pop(-null- )tprint}readonly def
/filetype{pop(-filestream- )tprint}readonly def/savetype{pop(-savelevel- )
tprint}readonly def/fonttype{pop(-fontid- )tprint}readonly def/nametype{dup
xcheck not{(/)tprint}if cvsprint}readonly def/stringtype{dup rcheck{(\()tprint
tprint(\))tprint}{pop(-string- )tprint}ifelse}readonly def/arraytype{dup rcheck
{dup xcheck{({)tprint{typeprint}forall(})tprint}{([)tprint{typeprint}forall(])
tprint}ifelse}{pop(-array- )tprint}ifelse}readonly def/packedarraytype{dup
rcheck{dup xcheck{({)tprint{typeprint}forall(})tprint}{([)tprint{typeprint}
forall(])tprint}ifelse}{pop(-packedarray- )tprint}ifelse}readonly def/courier
/Courier findfont 10 scalefont def end errordict/handleerror{systemdict begin
$error begin $brkpage begin newerror{/newerror false store vmstatus pop pop 0
ne{grestoreall}if initgraphics courier setfont lmargin 720 moveto errorname
(VMerror)eq{version cvi 2016 ge{userdict/ehsave known{clear userdict/ehsave get
restore 2 vmreclaim}if vmstatus exch pop exch pop PrtVMMsg}if}if systemdict
/showpage get exec(%%[ Error: )print errorname =print(; OffendingCommand: )
print/command load =print( ]%%)= flush}if end end end}dup 0 systemdict put dup
4 $brkpage put bind readonly put/currentpacking where{pop/setpacking where{pop
oldpack setpacking}if}if
%%EndResource
userdict /Pscript_WinNT_Incr 230 dict dup begin put
%%BeginResource: file Pscript_FatalError 5.0 0
userdict begin/FatalErrorIf{{initgraphics findfont 1 index 0 eq{exch pop}{dup
length dict begin{1 index/FID ne{def}{pop pop}ifelse}forall/Encoding
{ISOLatin1Encoding}stopped{StandardEncoding}if def currentdict end
/ErrFont-Latin1 exch definefont}ifelse exch scalefont setfont counttomark 3 div
cvi{moveto show}repeat showpage quit}{cleartomark}ifelse}bind def end
%%EndResource
userdict begin/PrtVMMsg{vmstatus exch sub exch pop gt{[
(This job requires more memory than is available in this printer.)100 500
(Try one or more of the following, and then print again:)100 485
(For the output format, choose Optimize For Portability.)115 470
(In the Device Settings page, make sure the Available PostScript Memory is accurate.)
115 455(Reduce the number of fonts in the document.)115 440
(Print the document in parts.)115 425 12/Times-Roman[/GothicBBB-Medium-RKSJ-H
dup{findfont}stopped{cleartomark}{/FontName get eq{pop cleartomark[
<82B182CC83578387837582CD8CBB8DDD82B182CC8376838A8393835E82C59798977082C582AB82
E988C88FE382CC83818382838A82F0954B977682C682B582DC82B7814288C889BA82CC8A6590DD9
2E8>90 500<82CC88EA82C2814182DC82BD82CD82BB82CC916782DD8D8782ED82B982F08E7792
E882B582BD8CE381418376838A8393836782B592BC82B582C482DD82C482AD82BE82B382A28142>
90 485<A5506F73745363726970748376838D8370836583428356815B836782A982E7814183478
389815B82AA8C798CB882B782E982E682A482C98DC5934B89BB2082F0914991F082B782E98142>
90 455<A58366836F83438358834983768356838783938376838D8370836583428356815B83678
2CC209798977082C582AB82E98376838A8393835E83818382838A2082CC926C82AA90B382B582A2
82B182C682F08A6D944682B782E98142>90 440<A58368834C8385838183938367928682C58E6
7977082B382EA82C482A282E9837483488393836782CC909482F08CB882E782B78142>90 425
<A58368834C838583818393836782F095AA8A8482B582C48376838A8393836782B782E98142>90
410 10 0/GothicBBB-Medium-RKSJ-H}{cleartomark}ifelse}ifelse showpage
(%%[ PrinterError: Low Printer VM ]%%)= true FatalErrorIf}if}bind def end
version cvi 2016 ge{/VM?{pop}bind def}{/VM? userdict/PrtVMMsg get def}ifelse
%%BeginResource: file Pscript_Win_Basic 5.0 0
/d/def load def/,/load load d/~/exch , d/?/ifelse , d/!/pop , d/`/begin , d/^
/index , d/@/dup , d/+/translate , d/$/roll , d/U/userdict , d/M/moveto , d/-
/rlineto , d/&/currentdict , d/:/gsave , d/;/grestore , d/F/false , d/T/true ,
d/N/newpath , d/E/end , d/Ac/arc , d/An/arcn , d/A/ashow , d/D/awidthshow , d/C
/closepath , d/V/div , d/O/eofill , d/L/fill , d/I/lineto , d/-c/curveto , d/-M
/rmoveto , d/+S/scale , d/Ji/setfont , d/Lc/setlinecap , d/Lj/setlinejoin , d
/Lw/setlinewidth , d/Lm/setmiterlimit , d/sd/setdash , d/S/show , d/LH/showpage
, d/K/stroke , d/W/widthshow , d/R/rotate , d/L2? false/languagelevel where{pop
languagelevel 2 ge{pop true}if}if d L2?{/xS/xshow , d/yS/yshow , d/zS/xyshow ,
d}if/b{bind d}bind d/bd{bind d}bind d/xd{~ d}bd/ld{, d}bd/bn/bind ld/lw/Lw ld
/lc/Lc ld/lj/Lj ld/sg/setgray ld/ADO_mxRot null d/self & d/OrgMx matrix
currentmatrix d/reinitialize{: OrgMx setmatrix[/TextInit/GraphInit/UtilsInit
counttomark{@ where{self eq}{F}?{cvx exec}{!}?}repeat cleartomark ;}b
/initialize{`{/Pscript_Win_Data where{!}{U/Pscript_Win_Data & put}?/ADO_mxRot ~
d/TextInitialised? F d reinitialize E}{U/Pscript_Win_Data 230 dict @ ` put
/ADO_mxRot ~ d/TextInitialised? F d reinitialize}?}b/terminate{!{& self eq
{exit}{E}?}loop E}b/suspend/terminate , d/resume{` Pscript_Win_Data `}b U `
/lucas 21690 d/featurebegin{countdictstack lucas[}b/featurecleanup{stopped
{cleartomark @ lucas eq{! exit}if}loop countdictstack ~ sub @ 0 gt{{E}repeat}
{!}?}b E/snap{transform 0.25 sub round 0.25 add ~ 0.25 sub round 0.25 add ~
itransform}b/dsnap{dtransform round ~ round ~ idtransform}b/nonzero_round{@ 0.5
ge{round}{@ -0.5 lt{round}{0 ge{1}{-1}?}?}?}b/nonzero_dsnap{dtransform
nonzero_round ~ nonzero_round ~ idtransform}b U<04>cvn{}put/rr{1 ^ 0 - 0 ~ -
neg 0 - C}b/irp{4 -2 $ + +S fx 4 2 $ M 1 ^ 0 - 0 ~ - neg 0 -}b/rp{4 2 $ M 1 ^ 0
- 0 ~ - neg 0 -}b/solid{[]0 sd}b/g{@ not{U/DefIf_save save put}if U/DefIf_bool
2 ^ put}b/DefIf_El{if U/DefIf_bool get not @{U/DefIf_save get restore}if}b/e
{DefIf_El !}b/UDF{L2?{undefinefont}{!}?}b/UDR{L2?{undefineresource}{! !}?}b
/freeVM{/Courier findfont[40 0 0 -40 0 0]makefont Ji 2 vmreclaim}b/hfRedefFont
{findfont @ length dict `{1 ^/FID ne{d}{! !}?}forall & E @ ` ~{/CharStrings 1
dict `/.notdef 0 d & E d}if/Encoding 256 array 0 1 255{1 ^ ~/.notdef put}for d
E definefont !}bind d/hfMkCIDFont{/CIDFont findresource @ length 2 add dict `{1
^ @/FID eq ~ @/XUID eq ~/UIDBase eq or or{! !}{d}?}forall/CDevProc ~ d/Metrics2
16 dict d/CIDFontName 1 ^ d & E 1 ^ ~/CIDFont defineresource ![~]composefont !}
bind d
%%EndResource
%%BeginResource: file Pscript_Win_Utils_L2 5.0 0
/rf/rectfill , d/fx{1 1 dtransform @ 0 ge{1 sub 0.5}{1 add -0.5}? 3 -1 $ @ 0 ge
{1 sub 0.5}{1 add -0.5}? 3 1 $ 4 1 $ idtransform 4 -2 $ idtransform}b/BZ{4 -2 $
snap + +S fx rf}b/rs/rectstroke , d/rc/rectclip , d/UtilsInit{currentglobal{F
setglobal}if}b/scol{! setcolor}b/colspA/DeviceGray d/colspABC/DeviceRGB d
/colspRefresh{colspABC setcolorspace}b/SetColSpace{colspABC setcolorspace}b
/resourcestatus where{!/ColorRendering/ProcSet resourcestatus{! ! T}{F}?}{F}?
not{/ColorRendering<</GetHalftoneName{currenthalftone @/HalftoneName known{
/HalftoneName get}{!/none}?}bn/GetPageDeviceName{currentpagedevice @
/PageDeviceName known{/PageDeviceName get @ null eq{!/none}if}{!/none}?}bn
/GetSubstituteCRD{!/DefaultColorRendering/ColorRendering resourcestatus{! !
/DefaultColorRendering}{(DefaultColorRendering*){cvn exit}127 string
/ColorRendering resourceforall}?}bn>>/defineresource where{!/ProcSet
defineresource !}{! !}?}if/buildcrdname{/ColorRendering/ProcSet findresource `
mark GetHalftoneName @ type @/nametype ne ~/stringtype ne and{!/none}if(.)
GetPageDeviceName @ type @/nametype ne ~/stringtype ne and{!/none}if(.)5 ^ 0 5
-1 1{^ length add}for string 6 1 $ 5 ^ 5{~ 1 ^ cvs length 1 ^ length 1 ^ sub
getinterval}repeat ! cvn 3 1 $ ! ! E}b/definecolorrendering{~ buildcrdname ~
/ColorRendering defineresource !}b/findcolorrendering where{!}{
/findcolorrendering{buildcrdname @/ColorRendering resourcestatus{! ! T}{
/ColorRendering/ProcSet findresource ` GetSubstituteCRD E F}?}b}?
/selectcolorrendering{findcolorrendering !/ColorRendering findresource
setcolorrendering}b/G2UBegin{findresource/FontInfo get/GlyphNames2Unicode get
`}bind d/G2CCBegin{findresource/FontInfo get/GlyphNames2HostCode get `}bind d
/G2UEnd{E}bind d/AddFontInfoBegin{/FontInfo 8 dict @ `}bind d/AddFontInfo{
/GlyphNames2Unicode 16 dict d/GlyphNames2HostCode 16 dict d}bind d
/AddFontInfoEnd{E d}bind d/T0AddCFFMtx2{/CIDFont findresource/Metrics2 get ` d
E}bind d
%%EndResource
end
%%EndProlog

%%BeginSetup
[ 1 0 0 1 0 0 ] false Pscript_WinNT_Incr dup /initialize get exec
1 setlinecap 1 setlinejoin
/mysetup [ 72 600 V 0 0 -72 600 V 0 124.44094 ] def 
%%EndSetup

%%Page: 1 1
%%PageBoundingBox: 0 0 124 124
%%EndPageComments
%%BeginPageSetup
/DeviceRGB dup setcolorspace /colspABC exch def
mysetup concat colspRefresh
%%EndPageSetup

Pscript_WinNT_Incr begin
%%BeginResource: file Pscript_Win_GdiObject 5.0 0
/SavedCTM null d/CTMsave{/SavedCTM SavedCTM currentmatrix d}b/CTMrestore
{SavedCTM setmatrix}b/mp null d/ADO_mxRot null d/GDIHMatrix null d
/GDIHPatternDict 22 dict d GDIHPatternDict `/PatternType 1 d/PaintType 2 d/Reps
L2?{1}{5}? d/XStep 8 Reps mul d/YStep XStep d/BBox[0 0 XStep YStep]d/TilingType
1 d/PaintProc{` 1 Lw[]0 sd PaintData , exec E}b/FGnd null d/BGnd null d
/HS_Horizontal{horiz}b/HS_Vertical{vert}b/HS_FDiagonal{fdiag}b/HS_BDiagonal
{biag}b/HS_Cross{horiz vert}b/HS_DiagCross{fdiag biag}b/MaxXYStep XStep YStep
gt{XStep}{YStep}? d/horiz{Reps{0 4 M XStep 0 - 0 8 +}repeat 0 -8 Reps mul + K}b
/vert{Reps{4 0 M 0 YStep - 8 0 +}repeat 0 -8 Reps mul + K}b/biag{Reps{0 0 M
MaxXYStep @ - 0 YStep neg M MaxXYStep @ - 0 8 +}repeat 0 -8 Reps mul + 0 YStep
M 8 8 - K}b/fdiag{Reps{0 0 M MaxXYStep @ neg - 0 YStep M MaxXYStep @ neg - 0 8
+}repeat 0 -8 Reps mul + MaxXYStep @ M 8 -8 - K}b E/makehatch{4 -2 $/yOrg ~ d
/xOrg ~ d GDIHPatternDict/PaintData 3 -1 $ put CTMsave GDIHMatrix setmatrix
GDIHPatternDict matrix xOrg yOrg + mp CTMrestore ~ U ~ 2 ^ put}b/h0{/h0
/HS_Horizontal makehatch}b/h1{/h1/HS_Vertical makehatch}b/h2{/h2/HS_FDiagonal
makehatch}b/h3{/h3/HS_BDiagonal makehatch}b/h4{/h4/HS_Cross makehatch}b/h5{/h5
/HS_DiagCross makehatch}b/GDIBWPatternMx null d/pfprep{save 8 1 $
/PatternOfTheDay 8 1 $ GDIBWPatternDict `/yOrg ~ d/xOrg ~ d/PaintData ~ d/yExt
~ d/Width ~ d/BGnd ~ d/FGnd ~ d/Height yExt RepsV mul d/mx[Width 0 0 Height 0
0]d E build_pattern ~ !}b/pfbf{/fEOFill ~ d pfprep hbf fEOFill{O}{L}? restore}b
/GraphInit{GDIHMatrix null eq{/SavedCTM matrix d : ADO_mxRot concat 0 0 snap +
: 0.48 @ GDIHPatternDict ` YStep mul ~ XStep mul ~ nonzero_dsnap YStep V ~
XStep V ~ E +S/GDIHMatrix matrix currentmatrix readonly d ; : 0.24 -0.24 +S
GDIBWPatternDict ` Width Height E nonzero_dsnap +S/GDIBWPatternMx matrix
currentmatrix readonly d ; ;}if}b
%%EndResource
%%BeginResource: file Pscript_Win_GdiObject_L2 5.0 0
/GDIBWPatternDict 25 dict @ `/PatternType 1 d/PaintType 1 d/RepsV 1 d/RepsH 1 d
/BBox[0 0 RepsH 1]d/TilingType 1 d/XStep 1 d/YStep 1 d/Height 8 RepsV mul d
/Width 8 d/mx[Width 0 0 Height neg 0 Height]d/FGnd null d/BGnd null d
/SetBGndFGnd{BGnd null ne{BGnd aload ! scol BBox aload ! 2 ^ sub ~ 3 ^ sub ~
rf}if FGnd null ne{FGnd aload ! scol}if}b/PaintProc{` SetBGndFGnd RepsH{Width
Height F mx PaintData imagemask Width 0 +}repeat E}b E d/mp/makepattern , d
/build_pattern{CTMsave GDIBWPatternMx setmatrix/nupangle where{! nupangle -90
eq{nupangle R}if}if GDIBWPatternDict @ ` Width Height ne{Width Height gt{Width
Height V 1}{1 Height Width V}? +S}if xOrg yOrg E matrix + mp CTMrestore}b/hbf
{setpattern}b/hf{:/fEOFill ~ d ~ ! setpattern fEOFill{O}{L}? ;}b/pbf{: !
/fEOFill ~ d GDIBWPatternDict `/yOrg ~ d/xOrg ~ d/PaintData ~ d/OutputBPP ~ d
/Height ~ d/Width ~ d/PaintType 1 d/PatternType 1 d/TilingType 1 d/BBox[0 0
Width Height]d/XStep Width d/YStep Height d/mx xOrg yOrg matrix + d 20 dict @ `
/ImageType 1 d/Width Width d/Height Height d/ImageMatrix[1 0 0 1 0 0]d
/BitsPerComponent 8 d OutputBPP 24 eq{/Decode[0 1 0 1 0 1]d}{OutputBPP 8 eq{
/Decode[0 1]d}{/Decode[0 1 0 1 0 1 0 1]d}?}?/DataSource{PaintData}d E/ImageDict
~ d/PaintProc{` ImageDict image E}b & mx makepattern setpattern E fEOFill{O}{L}
? ;}b/mask_pbf{:/fEOFill ~ d 20 dict `/yOrg ~ d/xOrg ~ d/PaintData ~ d/Height ~
d/Width ~ d/PatternType 1 d/PaintType 2 d/TilingType 1 d/BBox[0 0 Width Height]
d/XStep Width d/YStep Height d/mx xOrg yOrg matrix + d/PaintProc{` Width Height
T 1 1 dtransform abs ~ abs ~ 0 0 3 -1 $ 0 0 6 array astore{PaintData}imagemask
E}b & mx makepattern setpattern E fEOFill{O}{L}? ;}b
%%EndResource
end reinitialize
: N 473 2 561 561 rp C 
1 1 1 1 scol  L ; 1 1 1 1 scol N 1034 563 M 472 563 I 472 1 I 1034 1 I C 
K 
: N 519 48 10 10 rp C 
0 0 0 1 scol  L ; 0 0 0 1 scol N 529 58 M 518 58 I 518 47 I 529 47 I C 
K 
: N 530 48 57 10 rp C 
 L ; N 587 58 M 529 58 I 529 47 I 587 47 I C 
K 
: N 588 48 10 10 rp C 
 L ; N 598 58 M 587 58 I 587 47 I 598 47 I C 
K 
: N 611 48 10 10 rp C 
 L ; N 621 58 M 610 58 I 610 47 I 621 47 I C 
K 
: N 634 48 10 10 rp C 
 L ; N 644 58 M 633 58 I 633 47 I 644 47 I C 
K 
: N 657 48 10 10 rp C 
 L ; N 667 58 M 656 58 I 656 47 I 667 47 I C 
K 
: N 715 48 10 10 rp C 
 L ; N 725 58 M 714 58 I 714 47 I 725 47 I C 
K 
: N 726 48 10 10 rp C 
 L ; N 736 58 M 725 58 I 725 47 I 736 47 I C 
K 
: N 784 48 9 10 rp C 
 L ; N 793 58 M 783 58 I 783 47 I 793 47 I C 
K 
: N 818 48 10 10 rp C 
 L ; N 828 58 M 817 58 I 817 47 I 828 47 I C 
K 
: N 830 48 9 10 rp C 
 L ; N 839 58 M 829 58 I 829 47 I 839 47 I C 
K 
: N 853 48 9 10 rp C 
 L ; N 862 58 M 852 58 I 852 47 I 862 47 I C 
K 
: N 876 48 9 10 rp C 
 L ; N 885 58 M 875 58 I 875 47 I 885 47 I C 
K 
: N 910 48 10 10 rp C 
 L ; N 920 58 M 909 58 I 909 47 I 920 47 I C 
K 
: N 921 48 57 10 rp C 
 L ; N 978 58 M 920 58 I 920 47 I 978 47 I C 
K 
: N 979 48 10 10 rp C 
 L ; N 989 58 M 978 58 I 978 47 I 989 47 I C 
K 
: N 519 60 10 10 rp C 
 L ; N 529 70 M 518 70 I 518 59 I 529 59 I C 
K 
: N 588 60 10 10 rp C 
 L ; N 598 70 M 587 70 I 587 59 I 598 59 I C 
K 
: N 611 60 10 10 rp C 
 L ; N 621 70 M 610 70 I 610 59 I 621 59 I C 
K 
: N 634 60 10 9 rp C 
 L ; N 644 69 M 633 69 I 633 59 I 644 59 I C 
K 
: N 646 60 9 10 rp C 
 L ; N 655 70 M 645 70 I 645 59 I 655 59 I C 
K 
: N 680 60 10 10 rp C 
 L ; N 690 70 M 679 70 I 679 59 I 690 59 I C 
K 
: N 703 60 10 10 rp C 
 L ; N 713 70 M 702 70 I 702 59 I 713 59 I C 
K 
: N 726 60 10 9 rp C 
 L ; N 736 69 M 725 69 I 725 59 I 736 59 I C 
K 
: N 749 60 22 9 rp C 
 L ; N 771 69 M 748 69 I 748 59 I 771 59 I C 
K 
: N 772 60 10 10 rp C 
 L ; N 782 70 M 771 70 I 771 59 I 782 59 I C 
K 
: N 795 60 10 10 rp C 
 L ; N 805 70 M 794 70 I 794 59 I 805 59 I C 
K 
: N 830 60 9 10 rp C 
 L ; N 839 70 M 829 70 I 829 59 I 839 59 I C 
K 
: N 853 60 21 10 rp C 
 L ; N 874 70 M 852 70 I 852 59 I 874 59 I C 
K 
: N 887 60 10 10 rp C 
 L ; N 897 70 M 886 70 I 886 59 I 897 59 I C 
K 
: N 910 60 10 10 rp C 
 L ; N 920 70 M 909 70 I 909 59 I 920 59 I C 
K 
: N 979 60 10 10 rp C 
 L ; N 989 70 M 978 70 I 978 59 I 989 59 I C 
K 
: N 519 71 10 10 rp C 
 L ; N 529 81 M 518 81 I 518 70 I 529 70 I C 
K 
: N 542 71 33 10 rp C 
 L ; N 575 81 M 541 81 I 541 70 I 575 70 I C 
K 
: N 588 71 10 10 rp C 
 L ; N 598 81 M 587 81 I 587 70 I 598 70 I C 
K 
: N 611 71 10 10 rp C 
 L ; N 621 81 M 610 81 I 610 70 I 621 70 I C 
K 
: N 646 71 33 10 rp C 
 L ; N 679 81 M 645 81 I 645 70 I 679 70 I C 
K 
: N 680 71 10 10 rp C 
 L ; N 690 81 M 679 81 I 679 70 I 690 70 I C 
K 
: N 703 71 10 10 rp C 
 L ; N 713 81 M 702 81 I 702 70 I 713 70 I C 
K 
: N 772 71 22 10 rp C 
 L ; N 794 81 M 771 81 I 771 70 I 794 70 I C 
K 
: N 795 71 10 10 rp C 
 L ; N 805 81 M 794 81 I 794 70 I 805 70 I C 
K 
: N 806 71 10 10 rp C 
 L ; N 816 81 M 805 81 I 805 70 I 816 70 I C 
K 
: N 830 71 21 10 rp C 
 L ; N 851 81 M 829 81 I 829 70 I 851 70 I C 
K 
: N 852 71 22 10 rp C 
 L ; N 874 81 M 851 81 I 851 70 I 874 70 I C 
K 
: N 887 71 10 10 rp C 
 L ; N 897 81 M 886 81 I 886 70 I 897 70 I C 
K 
: N 910 71 10 10 rp C 
 L ; N 920 81 M 909 81 I 909 70 I 920 70 I C 
K 
: N 933 71 33 10 rp C 
 L ; N 966 81 M 932 81 I 932 70 I 966 70 I C 
K 
: N 979 71 10 10 rp C 
 L ; N 989 81 M 978 81 I 978 70 I 989 70 I C 
K 
: N 519 83 10 10 rp C 
 L ; N 529 93 M 518 93 I 518 82 I 529 82 I C 
K 
: N 542 83 33 10 rp C 
 L ; N 575 93 M 541 93 I 541 82 I 575 82 I C 
K 
: N 588 83 10 10 rp C 
 L ; N 598 93 M 587 93 I 587 82 I 598 82 I C 
K 
: N 623 83 9 10 rp C 
 L ; N 632 93 M 622 93 I 622 82 I 632 82 I C 
K 
: N 680 83 21 10 rp C 
 L ; N 701 93 M 679 93 I 679 82 I 701 82 I C 
K 
: N 726 83 21 9 rp C 
 L ; N 747 92 M 725 92 I 725 82 I 747 82 I C 
K 
: N 795 83 10 9 rp C 
 L ; N 805 92 M 794 92 I 794 82 I 805 82 I C 
K 
: N 818 83 10 10 rp C 
 L ; N 828 93 M 817 93 I 817 82 I 828 82 I C 
K 
: N 829 83 11 9 rp C 
 L ; N 840 92 M 828 92 I 828 82 I 840 82 I C 
K 
: N 841 83 10 10 rp C 
 L ; N 851 93 M 840 93 I 840 82 I 851 82 I C 
K 
: N 876 83 9 9 rp C 
 L ; N 885 92 M 875 92 I 875 82 I 885 82 I C 
K 
: N 910 83 10 10 rp C 
 L ; N 920 93 M 909 93 I 909 82 I 920 82 I C 
K 
: N 933 83 33 10 rp C 
 L ; N 966 93 M 932 93 I 932 82 I 966 82 I C 
K 
: N 979 83 10 10 rp C 
 L ; N 989 93 M 978 93 I 978 82 I 989 82 I C 
K 
: N 519 94 10 10 rp C 
 L ; N 529 104 M 518 104 I 518 93 I 529 93 I C 
K 
: N 542 94 33 10 rp C 
 L ; N 575 104 M 541 104 I 541 93 I 575 93 I C 
K 
: N 588 94 10 10 rp C 
 L ; N 598 104 M 587 104 I 587 93 I 598 93 I C 
K 
: N 611 94 45 10 rp C 
 L ; N 656 104 M 610 104 I 610 93 I 656 93 I C 
K 
: N 657 94 10 10 rp C 
 L ; N 667 104 M 656 104 I 656 93 I 667 93 I C 
K 
: N 668 94 22 10 rp C 
 L ; N 690 104 M 667 104 I 667 93 I 690 93 I C 
K 
: N 692 94 9 10 rp C 
 L ; N 701 104 M 691 104 I 691 93 I 701 93 I C 
K 
: N 715 94 9 10 rp C 
 L ; N 724 104 M 714 104 I 714 93 I 724 93 I C 
K 
: N 818 94 10 10 rp C 
 L ; N 828 104 M 817 104 I 817 93 I 828 93 I C 
K 
: N 841 94 10 10 rp C 
 L ; N 851 104 M 840 104 I 840 93 I 851 93 I C 
K 
: N 910 94 10 10 rp C 
 L ; N 920 104 M 909 104 I 909 93 I 920 93 I C 
K 
: N 933 94 33 10 rp C 
 L ; N 966 104 M 932 104 I 932 93 I 966 93 I C 
K 
: N 979 94 10 10 rp C 
 L ; N 989 104 M 978 104 I 978 93 I 989 93 I C 
K 
: N 519 106 10 10 rp C 
 L ; N 529 116 M 518 116 I 518 105 I 529 105 I C 
K 
: N 588 106 10 10 rp C 
 L ; N 598 116 M 587 116 I 587 105 I 598 105 I C 
K 
: N 657 106 10 10 rp C 
 L ; N 667 116 M 656 116 I 656 105 I 667 105 I C 
K 
: N 692 106 9 9 rp C 
 L ; N 701 115 M 691 115 I 691 105 I 701 105 I C 
K 
: N 715 106 10 9 rp C 
 L ; N 725 115 M 714 115 I 714 105 I 725 105 I C 
K 
: N 726 106 10 10 rp C 
 L ; N 736 116 M 725 116 I 725 105 I 736 105 I C 
K 
: N 795 106 10 10 rp C 
 L ; N 805 116 M 794 116 I 794 105 I 805 105 I C 
K 
: N 830 106 10 9 rp C 
 L ; N 840 115 M 829 115 I 829 105 I 840 105 I C 
K 
: N 841 106 10 10 rp C 
 L ; N 851 116 M 840 116 I 840 105 I 851 105 I C 
K 
: N 852 106 11 9 rp C 
 L ; N 863 115 M 851 115 I 851 105 I 863 105 I C 
K 
: N 864 106 10 10 rp C 
 L ; N 874 116 M 863 116 I 863 105 I 874 105 I C 
K 
: N 875 106 10 9 rp C 
 L ; N 885 115 M 874 115 I 874 105 I 885 105 I C 
K 
: N 910 106 10 10 rp C 
 L ; N 920 116 M 909 116 I 909 105 I 920 105 I C 
K 
: N 979 106 10 10 rp C 
 L ; N 989 116 M 978 116 I 978 105 I 989 105 I C 
K 
: N 519 117 79 10 rp C 
 L ; N 598 127 M 518 127 I 518 116 I 598 116 I C 
K 
: N 611 117 10 10 rp C 
 L ; N 621 127 M 610 127 I 610 116 I 621 116 I C 
K 
: N 634 117 10 10 rp C 
 L ; N 644 127 M 633 127 I 633 116 I 644 116 I C 
K 
: N 657 117 10 10 rp C 
 L ; N 667 127 M 656 127 I 656 116 I 667 116 I C 
K 
: N 680 117 10 10 rp C 
 L ; N 690 127 M 679 127 I 679 116 I 690 116 I C 
K 
: N 703 117 10 10 rp C 
 L ; N 713 127 M 702 127 I 702 116 I 713 116 I C 
K 
: N 726 117 10 10 rp C 
 L ; N 736 127 M 725 127 I 725 116 I 736 116 I C 
K 
: N 749 117 10 10 rp C 
 L ; N 759 127 M 748 127 I 748 116 I 759 116 I C 
K 
: N 772 117 10 10 rp C 
 L ; N 782 127 M 771 127 I 771 116 I 782 116 I C 
K 
: N 795 117 10 10 rp C 
 L ; N 805 127 M 794 127 I 794 116 I 805 116 I C 
K 
: N 818 117 10 10 rp C 
 L ; N 828 127 M 817 127 I 817 116 I 828 116 I C 
K 
: N 841 117 10 10 rp C 
 L ; N 851 127 M 840 127 I 840 116 I 851 116 I C 
K 
: N 864 117 10 10 rp C 
 L ; N 874 127 M 863 127 I 863 116 I 874 116 I C 
K 
: N 887 117 10 10 rp C 
 L ; N 897 127 M 886 127 I 886 116 I 897 116 I C 
K 
: N 910 117 79 10 rp C 
 L ; N 989 127 M 909 127 I 909 116 I 989 116 I C 
K 
: N 623 129 9 10 rp C 
 L ; N 632 139 M 622 139 I 622 128 I 632 128 I C 
K 
: N 634 129 10 9 rp C 
 L ; N 644 138 M 633 138 I 633 128 I 644 128 I C 
K 
: N 680 129 10 9 rp C 
 L ; N 690 138 M 679 138 I 679 128 I 690 128 I C 
K 
: N 715 129 9 10 rp C 
 L ; N 724 139 M 714 139 I 714 128 I 724 128 I C 
K 
: N 726 129 10 9 rp C 
 L ; N 736 138 M 725 138 I 725 128 I 736 128 I C 
K 
: N 749 129 10 10 rp C 
 L ; N 759 139 M 748 139 I 748 128 I 759 128 I C 
K 
: N 772 129 10 10 rp C 
 L ; N 782 139 M 771 139 I 771 128 I 782 128 I C 
K 
: N 783 129 11 9 rp C 
 L ; N 794 138 M 782 138 I 782 128 I 794 128 I C 
K 
: N 795 129 10 10 rp C 
 L ; N 805 139 M 794 139 I 794 128 I 805 128 I C 
K 
: N 818 129 10 9 rp C 
 L ; N 828 138 M 817 138 I 817 128 I 828 128 I C 
K 
: N 830 129 9 10 rp C 
 L ; N 839 139 M 829 139 I 829 128 I 839 128 I C 
K 
: N 864 129 10 9 rp C 
 L ; N 874 138 M 863 138 I 863 128 I 874 128 I C 
K 
: N 876 129 9 10 rp C 
 L ; N 885 139 M 875 139 I 875 128 I 885 128 I C 
K 
: N 519 140 10 10 rp C 
 L ; N 529 150 M 518 150 I 518 139 I 529 139 I C 
K 
: N 554 140 9 10 rp C 
 L ; N 563 150 M 553 150 I 553 139 I 563 139 I C 
K 
: N 565 140 10 10 rp C 
 L ; N 575 150 M 564 150 I 564 139 I 575 139 I C 
K 
: N 577 140 9 10 rp C 
 L ; N 586 150 M 576 150 I 576 139 I 586 139 I C 
K 
: N 588 140 22 10 rp C 
 L ; N 610 150 M 587 150 I 587 139 I 610 139 I C 
K 
: N 611 140 21 10 rp C 
 L ; N 632 150 M 610 150 I 610 139 I 632 139 I C 
K 
: N 646 140 9 10 rp C 
 L ; N 655 150 M 645 150 I 645 139 I 655 139 I C 
K 
: N 669 140 9 10 rp C 
 L ; N 678 150 M 668 150 I 668 139 I 678 139 I C 
K 
: N 692 140 21 10 rp C 
 L ; N 713 150 M 691 150 I 691 139 I 713 139 I C 
K 
: N 715 140 9 10 rp C 
 L ; N 724 150 M 714 150 I 714 139 I 724 139 I C 
K 
: N 749 140 10 10 rp C 
 L ; N 759 150 M 748 150 I 748 139 I 759 139 I C 
K 
: N 761 140 21 10 rp C 
 L ; N 782 150 M 760 150 I 760 139 I 782 139 I C 
K 
: N 795 140 10 10 rp C 
 L ; N 805 150 M 794 150 I 794 139 I 805 139 I C 
K 
: N 830 140 9 10 rp C 
 L ; N 839 150 M 829 150 I 829 139 I 839 139 I C 
K 
: N 853 140 9 10 rp C 
 L ; N 862 150 M 852 150 I 852 139 I 862 139 I C 
K 
: N 876 140 10 10 rp C 
 L ; N 886 150 M 875 150 I 875 139 I 886 139 I C 
K 
: N 887 140 21 10 rp C 
 L ; N 908 150 M 886 150 I 886 139 I 908 139 I C 
K 
: N 933 140 10 10 rp C 
 L ; N 943 150 M 932 150 I 932 139 I 943 139 I C 
K 
: N 956 140 10 10 rp C 
 L ; N 966 150 M 955 150 I 955 139 I 966 139 I C 
K 
: N 968 140 21 10 rp C 
 L ; N 989 150 M 967 150 I 967 139 I 989 139 I C 
K 
: N 531 152 32 10 rp C 
 L ; N 563 162 M 530 162 I 530 151 I 563 151 I C 
K 
: N 577 152 9 10 rp C 
 L ; N 586 162 M 576 162 I 576 151 I 586 151 I C 
K 
: N 611 152 10 9 rp C 
 L ; N 621 161 M 610 161 I 610 151 I 621 151 I C 
K 
: N 623 152 9 10 rp C 
 L ; N 632 162 M 622 162 I 622 151 I 632 151 I C 
K 
: N 680 152 10 9 rp C 
 L ; N 690 161 M 679 161 I 679 151 I 690 151 I C 
K 
: N 715 152 9 10 rp C 
 L ; N 724 162 M 714 162 I 714 151 I 724 151 I C 
K 
: N 726 152 10 9 rp C 
 L ; N 736 161 M 725 161 I 725 151 I 736 151 I C 
K 
: N 761 152 32 9 rp C 
 L ; N 793 161 M 760 161 I 760 151 I 793 151 I C 
K 
: N 807 152 10 9 rp C 
 L ; N 817 161 M 806 161 I 806 151 I 817 151 I C 
K 
: N 818 152 10 10 rp C 
 L ; N 828 162 M 817 162 I 817 151 I 828 151 I C 
K 
: N 853 152 9 9 rp C 
 L ; N 862 161 M 852 161 I 852 151 I 862 151 I C 
K 
: N 887 152 10 9 rp C 
 L ; N 897 161 M 886 161 I 886 151 I 897 151 I C 
K 
: N 899 152 32 10 rp C 
 L ; N 931 162 M 898 162 I 898 151 I 931 151 I C 
K 
: N 945 152 9 9 rp C 
 L ; N 954 161 M 944 161 I 944 151 I 954 151 I C 
K 
: N 968 152 21 9 rp C 
 L ; N 989 161 M 967 161 I 967 151 I 989 151 I C 
K 
: N 519 163 10 10 rp C 
 L ; N 529 173 M 518 173 I 518 162 I 529 162 I C 
K 
: N 530 163 11 10 rp C 
 L ; N 541 173 M 529 173 I 529 162 I 541 162 I C 
K 
: N 542 163 21 10 rp C 
 L ; N 563 173 M 541 173 I 541 162 I 563 162 I C 
K 
: N 577 163 21 10 rp C 
 L ; N 598 173 M 576 173 I 576 162 I 598 162 I C 
K 
: N 623 163 9 10 rp C 
 L ; N 632 173 M 622 173 I 622 162 I 632 162 I C 
K 
: N 634 163 10 10 rp C 
 L ; N 644 173 M 633 173 I 633 162 I 644 162 I C 
K 
: N 692 163 9 10 rp C 
 L ; N 701 173 M 691 173 I 691 162 I 701 162 I C 
K 
: N 715 163 9 10 rp C 
 L ; N 724 173 M 714 173 I 714 162 I 724 162 I C 
K 
: N 738 163 21 10 rp C 
 L ; N 759 173 M 737 173 I 737 162 I 759 162 I C 
K 
: N 795 163 10 10 rp C 
 L ; N 805 173 M 794 173 I 794 162 I 805 162 I C 
K 
: N 818 163 10 10 rp C 
 L ; N 828 173 M 817 173 I 817 162 I 828 162 I C 
K 
: N 830 163 9 10 rp C 
 L ; N 839 173 M 829 173 I 829 162 I 839 162 I C 
K 
: N 876 163 9 10 rp C 
 L ; N 885 173 M 875 173 I 875 162 I 885 162 I C 
K 
: N 899 163 10 10 rp C 
 L ; N 909 173 M 898 173 I 898 162 I 909 162 I C 
K 
: N 910 163 10 10 rp C 
 L ; N 920 173 M 909 173 I 909 162 I 920 162 I C 
K 
: N 921 163 22 10 rp C 
 L ; N 943 173 M 920 173 I 920 162 I 943 162 I C 
K 
: N 519 175 10 9 rp C 
 L ; N 529 184 M 518 184 I 518 174 I 529 174 I C 
K 
: N 542 175 10 10 rp C 
 L ; N 552 185 M 541 185 I 541 174 I 552 174 I C 
K 
: N 553 175 10 9 rp C 
 L ; N 563 184 M 552 184 I 552 174 I 563 174 I C 
K 
: N 600 175 9 9 rp C 
 L ; N 609 184 M 599 184 I 599 174 I 609 174 I C 
K 
: N 623 175 9 9 rp C 
 L ; N 632 184 M 622 184 I 622 174 I 632 174 I C 
K 
: N 646 175 9 10 rp C 
 L ; N 655 185 M 645 185 I 645 174 I 655 174 I C 
K 
: N 692 175 9 10 rp C 
 L ; N 701 185 M 691 185 I 691 174 I 701 174 I C 
K 
: N 726 175 10 9 rp C 
 L ; N 736 184 M 725 184 I 725 174 I 736 174 I C 
K 
: N 761 175 9 10 rp C 
 L ; N 770 185 M 760 185 I 760 174 I 770 174 I C 
K 
: N 772 175 10 9 rp C 
 L ; N 782 184 M 771 184 I 771 174 I 782 174 I C 
K 
: N 807 175 9 10 rp C 
 L ; N 816 185 M 806 185 I 806 174 I 816 174 I C 
K 
: N 830 175 9 10 rp C 
 L ; N 839 185 M 829 185 I 829 174 I 839 174 I C 
K 
: N 841 175 10 9 rp C 
 L ; N 851 184 M 840 184 I 840 174 I 851 174 I C 
K 
: N 864 175 10 9 rp C 
 L ; N 874 184 M 863 184 I 863 174 I 874 174 I C 
K 
: N 887 175 10 10 rp C 
 L ; N 897 185 M 886 185 I 886 174 I 897 174 I C 
K 
: N 910 175 10 9 rp C 
 L ; N 920 184 M 909 184 I 909 174 I 920 174 I C 
K 
: N 945 175 9 9 rp C 
 L ; N 954 184 M 944 184 I 944 174 I 954 174 I C 
K 
: N 542 186 10 10 rp C 
 L ; N 552 196 M 541 196 I 541 185 I 552 185 I C 
K 
: N 588 186 10 10 rp C 
 L ; N 598 196 M 587 196 I 587 185 I 598 185 I C 
K 
: N 646 186 9 10 rp C 
 L ; N 655 196 M 645 196 I 645 185 I 655 185 I C 
K 
: N 657 186 10 10 rp C 
 L ; N 667 196 M 656 196 I 656 185 I 667 185 I C 
K 
: N 680 186 10 10 rp C 
 L ; N 690 196 M 679 196 I 679 185 I 690 185 I C 
K 
: N 692 186 9 10 rp C 
 L ; N 701 196 M 691 196 I 691 185 I 701 185 I C 
K 
: N 715 186 9 10 rp C 
 L ; N 724 196 M 714 196 I 714 185 I 724 185 I C 
K 
: N 738 186 9 10 rp C 
 L ; N 747 196 M 737 196 I 737 185 I 747 185 I C 
K 
: N 749 186 10 10 rp C 
 L ; N 759 196 M 748 196 I 748 185 I 759 185 I C 
K 
: N 761 186 9 10 rp C 
 L ; N 770 196 M 760 196 I 760 185 I 770 185 I C 
K 
: N 784 186 9 10 rp C 
 L ; N 793 196 M 783 196 I 783 185 I 793 185 I C 
K 
: N 807 186 9 10 rp C 
 L ; N 816 196 M 806 196 I 806 185 I 816 185 I C 
K 
: N 830 186 9 10 rp C 
 L ; N 839 196 M 829 196 I 829 185 I 839 185 I C 
K 
: N 887 186 10 10 rp C 
 L ; N 897 196 M 886 196 I 886 185 I 897 185 I C 
K 
: N 922 186 9 10 rp C 
 L ; N 931 196 M 921 196 I 921 185 I 931 185 I C 
K 
: N 956 186 10 10 rp C 
 L ; N 966 196 M 955 196 I 955 185 I 966 185 I C 
K 
: N 979 186 10 10 rp C 
 L ; N 989 196 M 978 196 I 978 185 I 989 185 I C 
K 
: N 519 198 21 9 rp C 
 L ; N 540 207 M 518 207 I 518 197 I 540 197 I C 
K 
: N 600 198 10 9 rp C 
 L ; N 610 207 M 599 207 I 599 197 I 610 197 I C 
K 
: N 611 198 10 10 rp C 
 L ; N 621 208 M 610 208 I 610 197 I 621 197 I C 
K 
: N 634 198 10 9 rp C 
 L ; N 644 207 M 633 207 I 633 197 I 644 197 I C 
K 
: N 646 198 9 10 rp C 
 L ; N 655 208 M 645 208 I 645 197 I 655 197 I C 
K 
: N 692 198 9 9 rp C 
 L ; N 701 207 M 691 207 I 691 197 I 701 197 I C 
K 
: N 726 198 10 10 rp C 
 L ; N 736 208 M 725 208 I 725 197 I 736 197 I C 
K 
: N 737 198 10 9 rp C 
 L ; N 747 207 M 736 207 I 736 197 I 747 197 I C 
K 
: N 761 198 21 9 rp C 
 L ; N 782 207 M 760 207 I 760 197 I 782 197 I C 
K 
: N 795 198 10 9 rp C 
 L ; N 805 207 M 794 207 I 794 197 I 805 197 I C 
K 
: N 841 198 33 10 rp C 
 L ; N 874 208 M 840 208 I 840 197 I 874 197 I C 
K 
: N 875 198 10 9 rp C 
 L ; N 885 207 M 874 207 I 874 197 I 885 197 I C 
K 
: N 899 198 9 9 rp C 
 L ; N 908 207 M 898 207 I 898 197 I 908 197 I C 
K 
: N 922 198 9 9 rp C 
 L ; N 931 207 M 921 207 I 921 197 I 931 197 I C 
K 
: N 956 198 21 9 rp C 
 L ; N 977 207 M 955 207 I 955 197 I 977 197 I C 
K 
: N 542 209 33 10 rp C 
 L ; N 575 219 M 541 219 I 541 208 I 575 208 I C 
K 
: N 588 209 10 10 rp C 
 L ; N 598 219 M 587 219 I 587 208 I 598 208 I C 
K 
: N 611 209 10 10 rp C 
 L ; N 621 219 M 610 219 I 610 208 I 621 208 I C 
K 
: N 646 209 9 10 rp C 
 L ; N 655 219 M 645 219 I 645 208 I 655 208 I C 
K 
: N 680 209 10 10 rp C 
 L ; N 690 219 M 679 219 I 679 208 I 690 208 I C 
K 
: N 703 209 10 10 rp C 
 L ; N 713 219 M 702 219 I 702 208 I 713 208 I C 
K 
: N 726 209 10 10 rp C 
 L ; N 736 219 M 725 219 I 725 208 I 736 208 I C 
K 
: N 830 209 9 10 rp C 
 L ; N 839 219 M 829 219 I 829 208 I 839 208 I C 
K 
: N 841 209 10 10 rp C 
 L ; N 851 219 M 840 219 I 840 208 I 851 208 I C 
K 
: N 853 209 21 10 rp C 
 L ; N 874 219 M 852 219 I 852 208 I 874 208 I C 
K 
: N 945 209 9 10 rp C 
 L ; N 954 219 M 944 219 I 944 208 I 954 208 I C 
K 
: N 519 221 10 10 rp C 
 L ; N 529 231 M 518 231 I 518 220 I 529 220 I C 
K 
: N 542 221 22 9 rp C 
 L ; N 564 230 M 541 230 I 541 220 I 564 220 I C 
K 
: N 565 221 21 10 rp C 
 L ; N 586 231 M 564 231 I 564 220 I 586 220 I C 
K 
: N 600 221 21 9 rp C 
 L ; N 621 230 M 599 230 I 599 220 I 621 220 I C 
K 
: N 623 221 21 10 rp C 
 L ; N 644 231 M 622 231 I 622 220 I 644 220 I C 
K 
: N 657 221 10 9 rp C 
 L ; N 667 230 M 656 230 I 656 220 I 667 220 I C 
K 
: N 680 221 10 10 rp C 
 L ; N 690 231 M 679 231 I 679 220 I 690 220 I C 
K 
: N 715 221 9 10 rp C 
 L ; N 724 231 M 714 231 I 714 220 I 724 220 I C 
K 
: N 726 221 10 9 rp C 
 L ; N 736 230 M 725 230 I 725 220 I 736 220 I C 
K 
: N 738 221 9 10 rp C 
 L ; N 747 231 M 737 231 I 737 220 I 747 220 I C 
K 
: N 761 221 21 10 rp C 
 L ; N 782 231 M 760 231 I 760 220 I 782 220 I C 
K 
: N 795 221 10 10 rp C 
 L ; N 805 231 M 794 231 I 794 220 I 805 220 I C 
K 
: N 806 221 22 9 rp C 
 L ; N 828 230 M 805 230 I 805 220 I 828 220 I C 
K 
: N 830 221 9 10 rp C 
 L ; N 839 231 M 829 231 I 829 220 I 839 220 I C 
K 
: N 853 221 9 10 rp C 
 L ; N 862 231 M 852 231 I 852 220 I 862 220 I C 
K 
: N 864 221 21 9 rp C 
 L ; N 885 230 M 863 230 I 863 220 I 885 220 I C 
K 
: N 922 221 9 10 rp C 
 L ; N 931 231 M 921 231 I 921 220 I 931 220 I C 
K 
: N 933 221 10 9 rp C 
 L ; N 943 230 M 932 230 I 932 220 I 943 220 I C 
K 
: N 945 221 21 10 rp C 
 L ; N 966 231 M 944 231 I 944 220 I 966 220 I C 
K 
: N 979 221 10 10 rp C 
 L ; N 989 231 M 978 231 I 978 220 I 989 220 I C 
K 
: N 519 232 10 10 rp C 
 L ; N 529 242 M 518 242 I 518 231 I 529 231 I C 
K 
: N 565 232 10 10 rp C 
 L ; N 575 242 M 564 242 I 564 231 I 575 231 I C 
K 
: N 577 232 9 10 rp C 
 L ; N 586 242 M 576 242 I 576 231 I 586 231 I C 
K 
: N 588 232 10 10 rp C 
 L ; N 598 242 M 587 242 I 587 231 I 598 231 I C 
K 
: N 623 232 9 10 rp C 
 L ; N 632 242 M 622 242 I 622 231 I 632 231 I C 
K 
: N 634 232 10 10 rp C 
 L ; N 644 242 M 633 242 I 633 231 I 644 231 I C 
K 
: N 646 232 9 10 rp C 
 L ; N 655 242 M 645 242 I 645 231 I 655 231 I C 
K 
: N 669 232 10 10 rp C 
 L ; N 679 242 M 668 242 I 668 231 I 679 231 I C 
K 
: N 680 232 10 10 rp C 
 L ; N 690 242 M 679 242 I 679 231 I 690 231 I C 
K 
: N 703 232 10 10 rp C 
 L ; N 713 242 M 702 242 I 702 231 I 713 231 I C 
K 
: N 714 232 10 10 rp C 
 L ; N 724 242 M 713 242 I 713 231 I 724 231 I C 
K 
: N 738 232 9 10 rp C 
 L ; N 747 242 M 737 242 I 737 231 I 747 231 I C 
K 
: N 761 232 10 10 rp C 
 L ; N 771 242 M 760 242 I 760 231 I 771 231 I C 
K 
: N 772 232 21 10 rp C 
 L ; N 793 242 M 771 242 I 771 231 I 793 231 I C 
K 
: N 795 232 10 10 rp C 
 L ; N 805 242 M 794 242 I 794 231 I 805 231 I C 
K 
: N 830 232 21 10 rp C 
 L ; N 851 242 M 829 242 I 829 231 I 851 231 I C 
K 
: N 853 232 9 10 rp C 
 L ; N 862 242 M 852 242 I 852 231 I 862 231 I C 
K 
: N 899 232 9 10 rp C 
 L ; N 908 242 M 898 242 I 898 231 I 908 231 I C 
K 
: N 922 232 9 10 rp C 
 L ; N 931 242 M 921 242 I 921 231 I 931 231 I C 
K 
: N 945 232 9 10 rp C 
 L ; N 954 242 M 944 242 I 944 231 I 954 231 I C 
K 
: N 956 232 10 10 rp C 
 L ; N 966 242 M 955 242 I 955 231 I 966 231 I C 
K 
: N 979 232 10 10 rp C 
 L ; N 989 242 M 978 242 I 978 231 I 989 231 I C 
K 
: N 531 244 21 10 rp C 
 L ; N 552 254 M 530 254 I 530 243 I 552 243 I C 
K 
: N 577 244 9 10 rp C 
 L ; N 586 254 M 576 254 I 576 243 I 586 243 I C 
K 
: N 611 244 21 10 rp C 
 L ; N 632 254 M 610 254 I 610 243 I 632 243 I C 
K 
: N 646 244 21 10 rp C 
 L ; N 667 254 M 645 254 I 645 243 I 667 243 I C 
K 
: N 680 244 10 9 rp C 
 L ; N 690 253 M 679 253 I 679 243 I 690 243 I C 
K 
: N 703 244 10 10 rp C 
 L ; N 713 254 M 702 254 I 702 243 I 713 243 I C 
K 
: N 749 244 10 10 rp C 
 L ; N 759 254 M 748 254 I 748 243 I 759 243 I C 
K 
: N 772 244 10 10 rp C 
 L ; N 782 254 M 771 254 I 771 243 I 782 243 I C 
K 
: N 783 244 10 9 rp C 
 L ; N 793 253 M 782 253 I 782 243 I 793 243 I C 
K 
: N 807 244 21 9 rp C 
 L ; N 828 253 M 806 253 I 806 243 I 828 243 I C 
K 
: N 853 244 9 10 rp C 
 L ; N 862 254 M 852 254 I 852 243 I 862 243 I C 
K 
: N 887 244 33 10 rp C 
 L ; N 920 254 M 886 254 I 886 243 I 920 243 I C 
K 
: N 921 244 22 9 rp C 
 L ; N 943 253 M 920 253 I 920 243 I 943 243 I C 
K 
: N 945 244 9 10 rp C 
 L ; N 954 254 M 944 254 I 944 243 I 954 243 I C 
K 
: N 968 244 9 9 rp C 
 L ; N 977 253 M 967 253 I 967 243 I 977 243 I C 
K 
: N 519 255 10 10 rp C 
 L ; N 529 265 M 518 265 I 518 254 I 529 254 I C 
K 
: N 530 255 22 10 rp C 
 L ; N 552 265 M 529 265 I 529 254 I 552 254 I C 
K 
: N 565 255 33 10 rp C 
 L ; N 598 265 M 564 265 I 564 254 I 598 254 I C 
K 
: N 611 255 10 10 rp C 
 L ; N 621 265 M 610 265 I 610 254 I 621 254 I C 
K 
: N 622 255 10 10 rp C 
 L ; N 632 265 M 621 265 I 621 254 I 632 254 I C 
K 
: N 646 255 9 10 rp C 
 L ; N 655 265 M 645 265 I 645 254 I 655 254 I C 
K 
: N 657 255 21 10 rp C 
 L ; N 678 265 M 656 265 I 656 254 I 678 254 I C 
K 
: N 692 255 21 10 rp C 
 L ; N 713 265 M 691 265 I 691 254 I 713 254 I C 
K 
: N 749 255 10 10 rp C 
 L ; N 759 265 M 748 265 I 748 254 I 759 254 I C 
K 
: N 760 255 11 10 rp C 
 L ; N 771 265 M 759 265 I 759 254 I 771 254 I C 
K 
: N 772 255 10 10 rp C 
 L ; N 782 265 M 771 265 I 771 254 I 782 254 I C 
K 
: N 795 255 10 10 rp C 
 L ; N 805 265 M 794 265 I 794 254 I 805 254 I C 
K 
: N 841 255 10 10 rp C 
 L ; N 851 265 M 840 265 I 840 254 I 851 254 I C 
K 
: N 853 255 9 10 rp C 
 L ; N 862 265 M 852 265 I 852 254 I 862 254 I C 
K 
: N 876 255 44 10 rp C 
 L ; N 920 265 M 875 265 I 875 254 I 920 254 I C 
K 
: N 945 255 21 10 rp C 
 L ; N 966 265 M 944 265 I 944 254 I 966 254 I C 
K 
: N 979 255 10 10 rp C 
 L ; N 989 265 M 978 265 I 978 254 I 989 254 I C 
K 
: N 519 267 10 10 rp C 
 L ; N 529 277 M 518 277 I 518 266 I 529 266 I C 
K 
: N 611 267 10 9 rp C 
 L ; N 621 276 M 610 276 I 610 266 I 621 266 I C 
K 
: N 646 267 9 10 rp C 
 L ; N 655 277 M 645 277 I 645 266 I 655 266 I C 
K 
: N 715 267 21 9 rp C 
 L ; N 736 276 M 714 276 I 714 266 I 736 266 I C 
K 
: N 749 267 10 9 rp C 
 L ; N 759 276 M 748 276 I 748 266 I 759 266 I C 
K 
: N 772 267 10 10 rp C 
 L ; N 782 277 M 771 277 I 771 266 I 782 266 I C 
K 
: N 818 267 21 10 rp C 
 L ; N 839 277 M 817 277 I 817 266 I 839 266 I C 
K 
: N 853 267 21 9 rp C 
 L ; N 874 276 M 852 276 I 852 266 I 874 266 I C 
K 
: N 933 267 10 10 rp C 
 L ; N 943 277 M 932 277 I 932 266 I 943 266 I C 
K 
: N 519 278 10 10 rp C 
 L ; N 529 288 M 518 288 I 518 277 I 529 277 I C 
K 
: N 530 278 10 10 rp C 
 L ; N 540 288 M 529 288 I 529 277 I 540 277 I C 
K 
: N 588 278 10 10 rp C 
 L ; N 598 288 M 587 288 I 587 277 I 598 277 I C 
K 
: N 600 278 9 10 rp C 
 L ; N 609 288 M 599 288 I 599 277 I 609 277 I C 
K 
: N 634 278 10 10 rp C 
 L ; N 644 288 M 633 288 I 633 277 I 644 277 I C 
K 
: N 645 278 22 10 rp C 
 L ; N 667 288 M 644 288 I 644 277 I 667 277 I C 
K 
: N 692 278 21 10 rp C 
 L ; N 713 288 M 691 288 I 691 277 I 713 277 I C 
K 
: N 738 278 9 10 rp C 
 L ; N 747 288 M 737 288 I 737 277 I 747 277 I C 
K 
: N 761 278 21 10 rp C 
 L ; N 782 288 M 760 288 I 760 277 I 782 277 I C 
K 
: N 784 278 9 10 rp C 
 L ; N 793 288 M 783 288 I 783 277 I 793 277 I C 
K 
: N 807 278 21 10 rp C 
 L ; N 828 288 M 806 288 I 806 277 I 828 277 I C 
K 
: N 829 278 22 10 rp C 
 L ; N 851 288 M 828 288 I 828 277 I 851 277 I C 
K 
: N 922 278 21 10 rp C 
 L ; N 943 288 M 921 288 I 921 277 I 943 277 I C 
K 
: N 945 278 9 10 rp C 
 L ; N 954 288 M 944 288 I 944 277 I 954 277 I C 
K 
: N 956 278 22 10 rp C 
 L ; N 978 288 M 955 288 I 955 277 I 978 277 I C 
K 
: N 979 278 10 10 rp C 
 L ; N 989 288 M 978 288 I 978 277 I 989 277 I C 
K 
: N 519 290 10 9 rp C 
 L ; N 529 299 M 518 299 I 518 289 I 529 289 I C 
K 
: N 554 290 9 9 rp C 
 L ; N 563 299 M 553 299 I 553 289 I 563 289 I C 
K 
: N 577 290 9 10 rp C 
 L ; N 586 300 M 576 300 I 576 289 I 586 289 I C 
K 
: N 600 290 9 10 rp C 
 L ; N 609 300 M 599 300 I 599 289 I 609 289 I C 
K 
: N 634 290 10 10 rp C 
 L ; N 644 300 M 633 300 I 633 289 I 644 289 I C 
K 
: N 680 290 10 9 rp C 
 L ; N 690 299 M 679 299 I 679 289 I 690 289 I C 
K 
: N 715 290 32 10 rp C 
 L ; N 747 300 M 714 300 I 714 289 I 747 289 I C 
K 
: N 784 290 9 9 rp C 
 L ; N 793 299 M 783 299 I 783 289 I 793 289 I C 
K 
: N 807 290 21 9 rp C 
 L ; N 828 299 M 806 299 I 806 289 I 828 289 I C 
K 
: N 853 290 9 10 rp C 
 L ; N 862 300 M 852 300 I 852 289 I 862 289 I C 
K 
: N 876 290 9 10 rp C 
 L ; N 885 300 M 875 300 I 875 289 I 885 289 I C 
K 
: N 910 290 10 9 rp C 
 L ; N 920 299 M 909 299 I 909 289 I 920 289 I C 
K 
: N 945 290 9 9 rp C 
 L ; N 954 299 M 944 299 I 944 289 I 954 289 I C 
K 
: N 979 290 10 9 rp C 
 L ; N 989 299 M 978 299 I 978 289 I 989 289 I C 
K 
: N 531 301 9 10 rp C 
 L ; N 540 311 M 530 311 I 530 300 I 540 300 I C 
K 
: N 565 301 10 10 rp C 
 L ; N 575 311 M 564 311 I 564 300 I 575 300 I C 
K 
: N 577 301 9 10 rp C 
 L ; N 586 311 M 576 311 I 576 300 I 586 300 I C 
K 
: N 588 301 10 10 rp C 
 L ; N 598 311 M 587 311 I 587 300 I 598 300 I C 
K 
: N 600 301 9 10 rp C 
 L ; N 609 311 M 599 311 I 599 300 I 609 300 I C 
K 
: N 611 301 44 10 rp C 
 L ; N 655 311 M 610 311 I 610 300 I 655 300 I C 
K 
: N 703 301 22 10 rp C 
 L ; N 725 311 M 702 311 I 702 300 I 725 300 I C 
K 
: N 726 301 33 10 rp C 
 L ; N 759 311 M 725 311 I 725 300 I 759 300 I C 
K 
: N 772 301 10 10 rp C 
 L ; N 782 311 M 771 311 I 771 300 I 782 300 I C 
K 
: N 795 301 10 10 rp C 
 L ; N 805 311 M 794 311 I 794 300 I 805 300 I C 
K 
: N 853 301 33 10 rp C 
 L ; N 886 311 M 852 311 I 852 300 I 886 300 I C 
K 
: N 887 301 10 10 rp C 
 L ; N 897 311 M 886 311 I 886 300 I 897 300 I C 
K 
: N 898 301 10 10 rp C 
 L ; N 908 311 M 897 311 I 897 300 I 908 300 I C 
K 
: N 922 301 9 10 rp C 
 L ; N 931 311 M 921 311 I 921 300 I 931 300 I C 
K 
: N 968 301 9 10 rp C 
 L ; N 977 311 M 967 311 I 967 300 I 977 300 I C 
K 
: N 554 313 9 10 rp C 
 L ; N 563 323 M 553 323 I 553 312 I 563 312 I C 
K 
: N 577 313 9 10 rp C 
 L ; N 586 323 M 576 323 I 576 312 I 586 312 I C 
K 
: N 600 313 9 10 rp C 
 L ; N 609 323 M 599 323 I 599 312 I 609 312 I C 
K 
: N 657 313 10 10 rp C 
 L ; N 667 323 M 656 323 I 656 312 I 667 312 I C 
K 
: N 680 313 10 9 rp C 
 L ; N 690 322 M 679 322 I 679 312 I 690 312 I C 
K 
: N 726 313 10 9 rp C 
 L ; N 736 322 M 725 322 I 725 312 I 736 312 I C 
K 
: N 738 313 21 10 rp C 
 L ; N 759 323 M 737 323 I 737 312 I 759 312 I C 
K 
: N 784 313 9 10 rp C 
 L ; N 793 323 M 783 323 I 783 312 I 793 312 I C 
K 
: N 818 313 10 10 rp C 
 L ; N 828 323 M 817 323 I 817 312 I 828 312 I C 
K 
: N 829 313 11 9 rp C 
 L ; N 840 322 M 828 322 I 828 312 I 840 312 I C 
K 
: N 841 313 10 10 rp C 
 L ; N 851 323 M 840 323 I 840 312 I 851 312 I C 
K 
: N 887 313 10 10 rp C 
 L ; N 897 323 M 886 323 I 886 312 I 897 312 I C 
K 
: N 910 313 10 9 rp C 
 L ; N 920 322 M 909 322 I 909 312 I 920 312 I C 
K 
: N 945 313 10 9 rp C 
 L ; N 955 322 M 944 322 I 944 312 I 955 312 I C 
K 
: N 956 313 10 10 rp C 
 L ; N 966 323 M 955 323 I 955 312 I 966 312 I C 
K 
: N 967 313 10 9 rp C 
 L ; N 977 322 M 966 322 I 966 312 I 977 312 I C 
K 
: N 519 324 10 10 rp C 
 L ; N 529 334 M 518 334 I 518 323 I 529 323 I C 
K 
: N 531 324 21 10 rp C 
 L ; N 552 334 M 530 334 I 530 323 I 552 323 I C 
K 
: N 553 324 11 10 rp C 
 L ; N 564 334 M 552 334 I 552 323 I 564 323 I C 
K 
: N 565 324 10 10 rp C 
 L ; N 575 334 M 564 334 I 564 323 I 575 323 I C 
K 
: N 576 324 34 10 rp C 
 L ; N 610 334 M 575 334 I 575 323 I 610 323 I C 
K 
: N 611 324 21 10 rp C 
 L ; N 632 334 M 610 334 I 610 323 I 632 323 I C 
K 
: N 657 324 10 10 rp C 
 L ; N 667 334 M 656 334 I 656 323 I 667 323 I C 
K 
: N 668 324 10 10 rp C 
 L ; N 678 334 M 667 334 I 667 323 I 678 323 I C 
K 
: N 692 324 9 10 rp C 
 L ; N 701 334 M 691 334 I 691 323 I 701 323 I C 
K 
: N 738 324 9 10 rp C 
 L ; N 747 334 M 737 334 I 737 323 I 747 323 I C 
K 
: N 749 324 22 10 rp C 
 L ; N 771 334 M 748 334 I 748 323 I 771 323 I C 
K 
: N 772 324 10 10 rp C 
 L ; N 782 334 M 771 334 I 771 323 I 782 323 I C 
K 
: N 783 324 11 10 rp C 
 L ; N 794 334 M 782 334 I 782 323 I 794 323 I C 
K 
: N 795 324 33 10 rp C 
 L ; N 828 334 M 794 334 I 794 323 I 828 323 I C 
K 
: N 841 324 10 10 rp C 
 L ; N 851 334 M 840 334 I 840 323 I 851 323 I C 
K 
: N 864 324 10 10 rp C 
 L ; N 874 334 M 863 334 I 863 323 I 874 323 I C 
K 
: N 876 324 21 10 rp C 
 L ; N 897 334 M 875 334 I 875 323 I 897 323 I C 
K 
: N 956 324 10 10 rp C 
 L ; N 966 334 M 955 334 I 955 323 I 966 323 I C 
K 
: N 979 324 10 10 rp C 
 L ; N 989 334 M 978 334 I 978 323 I 989 323 I C 
K 
: N 531 336 21 10 rp C 
 L ; N 552 346 M 530 346 I 530 335 I 552 335 I C 
K 
: N 565 336 10 10 rp C 
 L ; N 575 346 M 564 346 I 564 335 I 575 335 I C 
K 
: N 611 336 10 10 rp C 
 L ; N 621 346 M 610 346 I 610 335 I 621 335 I C 
K 
: N 622 336 11 9 rp C 
 L ; N 633 345 M 621 345 I 621 335 I 633 335 I C 
K 
: N 634 336 10 10 rp C 
 L ; N 644 346 M 633 346 I 633 335 I 644 335 I C 
K 
: N 645 336 11 9 rp C 
 L ; N 656 345 M 644 345 I 644 335 I 656 335 I C 
K 
: N 657 336 10 10 rp C 
 L ; N 667 346 M 656 346 I 656 335 I 667 335 I C 
K 
: N 703 336 10 10 rp C 
 L ; N 713 346 M 702 346 I 702 335 I 713 335 I C 
K 
: N 726 336 21 10 rp C 
 L ; N 747 346 M 725 346 I 725 335 I 747 335 I C 
K 
: N 772 336 10 9 rp C 
 L ; N 782 345 M 771 345 I 771 335 I 782 335 I C 
K 
: N 795 336 10 9 rp C 
 L ; N 805 345 M 794 345 I 794 335 I 805 335 I C 
K 
: N 807 336 9 10 rp C 
 L ; N 816 346 M 806 346 I 806 335 I 816 335 I C 
K 
: N 818 336 21 9 rp C 
 L ; N 839 345 M 817 345 I 817 335 I 839 335 I C 
K 
: N 853 336 9 10 rp C 
 L ; N 862 346 M 852 346 I 852 335 I 862 335 I C 
K 
: N 876 336 9 10 rp C 
 L ; N 885 346 M 875 346 I 875 335 I 885 335 I C 
K 
: N 887 336 10 9 rp C 
 L ; N 897 345 M 886 345 I 886 335 I 897 335 I C 
K 
: N 899 336 9 10 rp C 
 L ; N 908 346 M 898 346 I 898 335 I 908 335 I C 
K 
: N 922 336 9 9 rp C 
 L ; N 931 345 M 921 345 I 921 335 I 931 335 I C 
K 
: N 945 336 9 10 rp C 
 L ; N 954 346 M 944 346 I 944 335 I 954 335 I C 
K 
: N 956 336 10 9 rp C 
 L ; N 966 345 M 955 345 I 955 335 I 966 335 I C 
K 
: N 979 336 10 9 rp C 
 L ; N 989 345 M 978 345 I 978 335 I 989 335 I C 
K 
: N 531 347 21 10 rp C 
 L ; N 552 357 M 530 357 I 530 346 I 552 346 I C 
K 
: N 565 347 21 10 rp C 
 L ; N 586 357 M 564 357 I 564 346 I 586 346 I C 
K 
: N 588 347 10 10 rp C 
 L ; N 598 357 M 587 357 I 587 346 I 598 346 I C 
K 
: N 611 347 10 10 rp C 
 L ; N 621 357 M 610 357 I 610 346 I 621 346 I C 
K 
: N 634 347 10 10 rp C 
 L ; N 644 357 M 633 357 I 633 346 I 644 346 I C 
K 
: N 657 347 22 10 rp C 
 L ; N 679 357 M 656 357 I 656 346 I 679 346 I C 
K 
: N 680 347 10 10 rp C 
 L ; N 690 357 M 679 357 I 679 346 I 690 346 I C 
K 
: N 703 347 10 10 rp C 
 L ; N 713 357 M 702 357 I 702 346 I 713 346 I C 
K 
: N 715 347 32 10 rp C 
 L ; N 747 357 M 714 357 I 714 346 I 747 346 I C 
K 
: N 807 347 9 10 rp C 
 L ; N 816 357 M 806 357 I 806 346 I 816 346 I C 
K 
: N 841 347 10 10 rp C 
 L ; N 851 357 M 840 357 I 840 346 I 851 346 I C 
K 
: N 852 347 10 10 rp C 
 L ; N 862 357 M 851 357 I 851 346 I 862 346 I C 
K 
: N 876 347 9 10 rp C 
 L ; N 885 357 M 875 357 I 875 346 I 885 346 I C 
K 
: N 899 347 21 10 rp C 
 L ; N 920 357 M 898 357 I 898 346 I 920 346 I C 
K 
: N 945 347 9 10 rp C 
 L ; N 954 357 M 944 357 I 944 346 I 954 346 I C 
K 
: N 519 359 21 10 rp C 
 L ; N 540 369 M 518 369 I 518 358 I 540 358 I C 
K 
: N 542 359 10 9 rp C 
 L ; N 552 368 M 541 368 I 541 358 I 552 358 I C 
K 
: N 565 359 10 9 rp C 
 L ; N 575 368 M 564 368 I 564 358 I 575 358 I C 
K 
: N 577 359 9 10 rp C 
 L ; N 586 369 M 576 369 I 576 358 I 586 358 I C 
K 
: N 600 359 9 10 rp C 
 L ; N 609 369 M 599 369 I 599 358 I 609 358 I C 
K 
: N 623 359 9 10 rp C 
 L ; N 632 369 M 622 369 I 622 358 I 632 358 I C 
K 
: N 634 359 10 9 rp C 
 L ; N 644 368 M 633 368 I 633 358 I 644 358 I C 
K 
: N 680 359 10 9 rp C 
 L ; N 690 368 M 679 368 I 679 358 I 690 358 I C 
K 
: N 715 359 9 10 rp C 
 L ; N 724 369 M 714 369 I 714 358 I 724 358 I C 
K 
: N 726 359 33 9 rp C 
 L ; N 759 368 M 725 368 I 725 358 I 759 358 I C 
K 
: N 761 359 44 10 rp C 
 L ; N 805 369 M 760 369 I 760 358 I 805 358 I C 
K 
: N 818 359 10 9 rp C 
 L ; N 828 368 M 817 368 I 817 358 I 828 358 I C 
K 
: N 841 359 10 9 rp C 
 L ; N 851 368 M 840 368 I 840 358 I 851 358 I C 
K 
: N 864 359 10 9 rp C 
 L ; N 874 368 M 863 368 I 863 358 I 874 358 I C 
K 
: N 887 359 10 10 rp C 
 L ; N 897 369 M 886 369 I 886 358 I 897 358 I C 
K 
: N 922 359 9 10 rp C 
 L ; N 931 369 M 921 369 I 921 358 I 931 358 I C 
K 
: N 945 359 21 9 rp C 
 L ; N 966 368 M 944 368 I 944 358 I 966 358 I C 
K 
: N 519 370 10 10 rp C 
 L ; N 529 380 M 518 380 I 518 369 I 529 369 I C 
K 
: N 530 370 10 10 rp C 
 L ; N 540 380 M 529 380 I 529 369 I 540 369 I C 
K 
: N 577 370 32 10 rp C 
 L ; N 609 380 M 576 380 I 576 369 I 609 369 I C 
K 
: N 623 370 9 10 rp C 
 L ; N 632 380 M 622 380 I 622 369 I 632 369 I C 
K 
: N 646 370 9 10 rp C 
 L ; N 655 380 M 645 380 I 645 369 I 655 369 I C 
K 
: N 669 370 9 10 rp C 
 L ; N 678 380 M 668 380 I 668 369 I 678 369 I C 
K 
: N 715 370 9 10 rp C 
 L ; N 724 380 M 714 380 I 714 369 I 724 369 I C 
K 
: N 761 370 9 10 rp C 
 L ; N 770 380 M 760 380 I 760 369 I 770 369 I C 
K 
: N 772 370 10 10 rp C 
 L ; N 782 380 M 771 380 I 771 369 I 782 369 I C 
K 
: N 784 370 9 10 rp C 
 L ; N 793 380 M 783 380 I 783 369 I 793 369 I C 
K 
: N 795 370 10 10 rp C 
 L ; N 805 380 M 794 380 I 794 369 I 805 369 I C 
K 
: N 853 370 9 10 rp C 
 L ; N 862 380 M 852 380 I 852 369 I 862 369 I C 
K 
: N 887 370 10 10 rp C 
 L ; N 897 380 M 886 380 I 886 369 I 897 369 I C 
K 
: N 910 370 21 10 rp C 
 L ; N 931 380 M 909 380 I 909 369 I 931 369 I C 
K 
: N 968 370 21 10 rp C 
 L ; N 989 380 M 967 380 I 967 369 I 989 369 I C 
K 
: N 519 382 10 10 rp C 
 L ; N 529 392 M 518 392 I 518 381 I 529 381 I C 
K 
: N 565 382 10 9 rp C 
 L ; N 575 391 M 564 391 I 564 381 I 575 381 I C 
K 
: N 623 382 9 10 rp C 
 L ; N 632 392 M 622 392 I 622 381 I 632 381 I C 
K 
: N 692 382 9 9 rp C 
 L ; N 701 391 M 691 391 I 691 381 I 701 381 I C 
K 
: N 726 382 10 10 rp C 
 L ; N 736 392 M 725 392 I 725 381 I 736 381 I C 
K 
: N 761 382 9 9 rp C 
 L ; N 770 391 M 760 391 I 760 381 I 770 381 I C 
K 
: N 784 382 9 9 rp C 
 L ; N 793 391 M 783 391 I 783 381 I 793 381 I C 
K 
: N 818 382 21 9 rp C 
 L ; N 839 391 M 817 391 I 817 381 I 839 381 I C 
K 
: N 876 382 10 9 rp C 
 L ; N 886 391 M 875 391 I 875 381 I 886 381 I C 
K 
: N 887 382 10 10 rp C 
 L ; N 897 392 M 886 392 I 886 381 I 897 381 I C 
K 
: N 945 382 9 10 rp C 
 L ; N 954 392 M 944 392 I 944 381 I 954 381 I C 
K 
: N 956 382 22 9 rp C 
 L ; N 978 391 M 955 391 I 955 381 I 978 381 I C 
K 
: N 979 382 10 10 rp C 
 L ; N 989 392 M 978 392 I 978 381 I 989 381 I C 
K 
: N 519 393 21 10 rp C 
 L ; N 540 403 M 518 403 I 518 392 I 540 392 I C 
K 
: N 542 393 10 10 rp C 
 L ; N 552 403 M 541 403 I 541 392 I 552 392 I C 
K 
: N 554 393 9 10 rp C 
 L ; N 563 403 M 553 403 I 553 392 I 563 392 I C 
K 
: N 588 393 10 10 rp C 
 L ; N 598 403 M 587 403 I 587 392 I 598 392 I C 
K 
: N 623 393 9 10 rp C 
 L ; N 632 403 M 622 403 I 622 392 I 632 392 I C 
K 
: N 634 393 10 10 rp C 
 L ; N 644 403 M 633 403 I 633 392 I 644 392 I C 
K 
: N 646 393 9 10 rp C 
 L ; N 655 403 M 645 403 I 645 392 I 655 392 I C 
K 
: N 680 393 10 10 rp C 
 L ; N 690 403 M 679 403 I 679 392 I 690 392 I C 
K 
: N 715 393 32 10 rp C 
 L ; N 747 403 M 714 403 I 714 392 I 747 392 I C 
K 
: N 772 393 10 10 rp C 
 L ; N 782 403 M 771 403 I 771 392 I 782 392 I C 
K 
: N 795 393 21 10 rp C 
 L ; N 816 403 M 794 403 I 794 392 I 816 392 I C 
K 
: N 841 393 10 10 rp C 
 L ; N 851 403 M 840 403 I 840 392 I 851 392 I C 
K 
: N 887 393 10 10 rp C 
 L ; N 897 403 M 886 403 I 886 392 I 897 392 I C 
K 
: N 922 393 9 10 rp C 
 L ; N 931 403 M 921 403 I 921 392 I 931 392 I C 
K 
: N 945 393 9 10 rp C 
 L ; N 954 403 M 944 403 I 944 392 I 954 392 I C 
K 
: N 979 393 10 10 rp C 
 L ; N 989 403 M 978 403 I 978 392 I 989 392 I C 
K 
: N 519 405 21 10 rp C 
 L ; N 540 415 M 518 415 I 518 404 I 540 404 I C 
K 
: N 554 405 21 10 rp C 
 L ; N 575 415 M 553 415 I 553 404 I 575 404 I C 
K 
: N 576 405 10 9 rp C 
 L ; N 586 414 M 575 414 I 575 404 I 586 404 I C 
K 
: N 600 405 9 9 rp C 
 L ; N 609 414 M 599 414 I 599 404 I 609 404 I C 
K 
: N 623 405 9 10 rp C 
 L ; N 632 415 M 622 415 I 622 404 I 632 404 I C 
K 
: N 646 405 10 9 rp C 
 L ; N 656 414 M 645 414 I 645 404 I 656 404 I C 
K 
: N 657 405 10 10 rp C 
 L ; N 667 415 M 656 415 I 656 404 I 667 404 I C 
K 
: N 680 405 10 10 rp C 
 L ; N 690 415 M 679 415 I 679 404 I 690 404 I C 
K 
: N 691 405 10 9 rp C 
 L ; N 701 414 M 690 414 I 690 404 I 701 404 I C 
K 
: N 715 405 21 9 rp C 
 L ; N 736 414 M 714 414 I 714 404 I 736 404 I C 
K 
: N 738 405 9 10 rp C 
 L ; N 747 415 M 737 415 I 737 404 I 747 404 I C 
K 
: N 749 405 21 9 rp C 
 L ; N 770 414 M 748 414 I 748 404 I 770 404 I C 
K 
: N 784 405 9 10 rp C 
 L ; N 793 415 M 783 415 I 783 404 I 793 404 I C 
K 
: N 818 405 10 10 rp C 
 L ; N 828 415 M 817 415 I 817 404 I 828 404 I C 
K 
: N 829 405 10 9 rp C 
 L ; N 839 414 M 828 414 I 828 404 I 839 404 I C 
K 
: N 853 405 21 9 rp C 
 L ; N 874 414 M 852 414 I 852 404 I 874 404 I C 
K 
: N 922 405 9 10 rp C 
 L ; N 931 415 M 921 415 I 921 404 I 931 404 I C 
K 
: N 956 405 10 9 rp C 
 L ; N 966 414 M 955 414 I 955 404 I 966 404 I C 
K 
: N 979 405 10 10 rp C 
 L ; N 989 415 M 978 415 I 978 404 I 989 404 I C 
K 
: N 519 416 21 10 rp C 
 L ; N 540 426 M 518 426 I 518 415 I 540 415 I C 
K 
: N 554 416 21 10 rp C 
 L ; N 575 426 M 553 426 I 553 415 I 575 415 I C 
K 
: N 588 416 10 10 rp C 
 L ; N 598 426 M 587 426 I 587 415 I 598 415 I C 
K 
: N 611 416 10 10 rp C 
 L ; N 621 426 M 610 426 I 610 415 I 621 415 I C 
K 
: N 622 416 10 10 rp C 
 L ; N 632 426 M 621 426 I 621 415 I 632 415 I C 
K 
: N 657 416 10 10 rp C 
 L ; N 667 426 M 656 426 I 656 415 I 667 415 I C 
K 
: N 668 416 22 10 rp C 
 L ; N 690 426 M 667 426 I 667 415 I 690 415 I C 
K 
: N 738 416 9 10 rp C 
 L ; N 747 426 M 737 426 I 737 415 I 747 415 I C 
K 
: N 784 416 9 10 rp C 
 L ; N 793 426 M 783 426 I 783 415 I 793 415 I C 
K 
: N 795 416 22 10 rp C 
 L ; N 817 426 M 794 426 I 794 415 I 817 415 I C 
K 
: N 818 416 10 10 rp C 
 L ; N 828 426 M 817 426 I 817 415 I 828 415 I C 
K 
: N 876 416 10 10 rp C 
 L ; N 886 426 M 875 426 I 875 415 I 886 415 I C 
K 
: N 887 416 10 10 rp C 
 L ; N 897 426 M 886 426 I 886 415 I 897 415 I C 
K 
: N 898 416 34 10 rp C 
 L ; N 932 426 M 897 426 I 897 415 I 932 415 I C 
K 
: N 933 416 10 10 rp C 
 L ; N 943 426 M 932 426 I 932 415 I 943 415 I C 
K 
: N 979 416 10 10 rp C 
 L ; N 989 426 M 978 426 I 978 415 I 989 415 I C 
K 
: N 611 428 10 10 rp C 
 L ; N 621 438 M 610 438 I 610 427 I 621 427 I C 
K 
: N 657 428 10 10 rp C 
 L ; N 667 438 M 656 438 I 656 427 I 667 427 I C 
K 
: N 692 428 10 9 rp C 
 L ; N 702 437 M 691 437 I 691 427 I 702 427 I C 
K 
: N 703 428 10 10 rp C 
 L ; N 713 438 M 702 438 I 702 427 I 713 427 I C 
K 
: N 726 428 10 10 rp C 
 L ; N 736 438 M 725 438 I 725 427 I 736 427 I C 
K 
: N 761 428 9 9 rp C 
 L ; N 770 437 M 760 437 I 760 427 I 770 427 I C 
K 
: N 784 428 9 9 rp C 
 L ; N 793 437 M 783 437 I 783 427 I 793 427 I C 
K 
: N 818 428 10 10 rp C 
 L ; N 828 438 M 817 438 I 817 427 I 828 427 I C 
K 
: N 853 428 21 9 rp C 
 L ; N 874 437 M 852 437 I 852 427 I 874 427 I C 
K 
: N 887 428 10 10 rp C 
 L ; N 897 438 M 886 438 I 886 427 I 897 427 I C 
K 
: N 933 428 10 10 rp C 
 L ; N 943 438 M 932 438 I 932 427 I 943 427 I C 
K 
: N 956 428 10 10 rp C 
 L ; N 966 438 M 955 438 I 955 427 I 966 427 I C 
K 
: N 519 439 10 10 rp C 
 L ; N 529 449 M 518 449 I 518 438 I 529 438 I C 
K 
: N 530 439 57 10 rp C 
 L ; N 587 449 M 529 449 I 529 438 I 587 438 I C 
K 
: N 588 439 10 10 rp C 
 L ; N 598 449 M 587 449 I 587 438 I 598 438 I C 
K 
: N 611 439 10 10 rp C 
 L ; N 621 449 M 610 449 I 610 438 I 621 438 I C 
K 
: N 646 439 21 10 rp C 
 L ; N 667 449 M 645 449 I 645 438 I 667 438 I C 
K 
: N 703 439 21 10 rp C 
 L ; N 724 449 M 702 449 I 702 438 I 724 438 I C 
K 
: N 726 439 33 10 rp C 
 L ; N 759 449 M 725 449 I 725 438 I 759 438 I C 
K 
: N 772 439 10 10 rp C 
 L ; N 782 449 M 771 449 I 771 438 I 782 438 I C 
K 
: N 795 439 10 10 rp C 
 L ; N 805 449 M 794 449 I 794 438 I 805 438 I C 
K 
: N 818 439 10 10 rp C 
 L ; N 828 449 M 817 449 I 817 438 I 828 438 I C 
K 
: N 887 439 10 10 rp C 
 L ; N 897 449 M 886 449 I 886 438 I 897 438 I C 
K 
: N 910 439 10 10 rp C 
 L ; N 920 449 M 909 449 I 909 438 I 920 438 I C 
K 
: N 933 439 10 10 rp C 
 L ; N 943 449 M 932 449 I 932 438 I 943 438 I C 
K 
: N 956 439 10 10 rp C 
 L ; N 966 449 M 955 449 I 955 438 I 966 438 I C 
K 
: N 979 439 10 10 rp C 
 L ; N 989 449 M 978 449 I 978 438 I 989 438 I C 
K 
: N 519 451 10 10 rp C 
 L ; N 529 461 M 518 461 I 518 450 I 529 450 I C 
K 
: N 588 451 10 10 rp C 
 L ; N 598 461 M 587 461 I 587 450 I 598 450 I C 
K 
: N 611 451 10 10 rp C 
 L ; N 621 461 M 610 461 I 610 450 I 621 450 I C 
K 
: N 622 451 34 9 rp C 
 L ; N 656 460 M 621 460 I 621 450 I 656 450 I C 
K 
: N 657 451 10 10 rp C 
 L ; N 667 461 M 656 461 I 656 450 I 667 450 I C 
K 
: N 703 451 10 9 rp C 
 L ; N 713 460 M 702 460 I 702 450 I 713 450 I C 
K 
: N 715 451 9 10 rp C 
 L ; N 724 461 M 714 461 I 714 450 I 724 450 I C 
K 
: N 761 451 9 10 rp C 
 L ; N 770 461 M 760 461 I 760 450 I 770 450 I C 
K 
: N 772 451 10 9 rp C 
 L ; N 782 460 M 771 460 I 771 450 I 782 450 I C 
K 
: N 795 451 10 10 rp C 
 L ; N 805 461 M 794 461 I 794 450 I 805 450 I C 
K 
: N 818 451 10 10 rp C 
 L ; N 828 461 M 817 461 I 817 450 I 828 450 I C 
K 
: N 864 451 22 9 rp C 
 L ; N 886 460 M 863 460 I 863 450 I 886 450 I C 
K 
: N 887 451 10 10 rp C 
 L ; N 897 461 M 886 461 I 886 450 I 897 450 I C 
K 
: N 933 451 10 10 rp C 
 L ; N 943 461 M 932 461 I 932 450 I 943 450 I C 
K 
: N 944 451 10 9 rp C 
 L ; N 954 460 M 943 460 I 943 450 I 954 450 I C 
K 
: N 979 451 10 9 rp C 
 L ; N 989 460 M 978 460 I 978 450 I 989 450 I C 
K 
: N 519 462 10 10 rp C 
 L ; N 529 472 M 518 472 I 518 461 I 529 461 I C 
K 
: N 542 462 33 10 rp C 
 L ; N 575 472 M 541 472 I 541 461 I 575 461 I C 
K 
: N 588 462 10 10 rp C 
 L ; N 598 472 M 587 472 I 587 461 I 598 461 I C 
K 
: N 611 462 10 10 rp C 
 L ; N 621 472 M 610 472 I 610 461 I 621 461 I C 
K 
: N 657 462 10 10 rp C 
 L ; N 667 472 M 656 472 I 656 461 I 667 461 I C 
K 
: N 715 462 9 10 rp C 
 L ; N 724 472 M 714 472 I 714 461 I 724 461 I C 
K 
: N 726 462 10 10 rp C 
 L ; N 736 472 M 725 472 I 725 461 I 736 461 I C 
K 
: N 738 462 9 10 rp C 
 L ; N 747 472 M 737 472 I 737 461 I 747 461 I C 
K 
: N 761 462 9 10 rp C 
 L ; N 770 472 M 760 472 I 760 461 I 770 461 I C 
K 
: N 784 462 9 10 rp C 
 L ; N 793 472 M 783 472 I 783 461 I 793 461 I C 
K 
: N 795 462 10 10 rp C 
 L ; N 805 472 M 794 472 I 794 461 I 805 461 I C 
K 
: N 807 462 9 10 rp C 
 L ; N 816 472 M 806 472 I 806 461 I 816 461 I C 
K 
: N 818 462 21 10 rp C 
 L ; N 839 472 M 817 472 I 817 461 I 839 461 I C 
K 
: N 887 462 10 10 rp C 
 L ; N 897 472 M 886 472 I 886 461 I 897 461 I C 
K 
: N 899 462 9 10 rp C 
 L ; N 908 472 M 898 472 I 898 461 I 908 461 I C 
K 
: N 910 462 22 10 rp C 
 L ; N 932 472 M 909 472 I 909 461 I 932 461 I C 
K 
: N 933 462 10 10 rp C 
 L ; N 943 472 M 932 472 I 932 461 I 943 461 I C 
K 
: N 956 462 10 10 rp C 
 L ; N 966 472 M 955 472 I 955 461 I 966 461 I C 
K 
: N 967 462 10 10 rp C 
 L ; N 977 472 M 966 472 I 966 461 I 977 461 I C 
K 
: N 519 474 10 10 rp C 
 L ; N 529 484 M 518 484 I 518 473 I 529 473 I C 
K 
: N 542 474 33 10 rp C 
 L ; N 575 484 M 541 484 I 541 473 I 575 473 I C 
K 
: N 588 474 10 10 rp C 
 L ; N 598 484 M 587 484 I 587 473 I 598 473 I C 
K 
: N 611 474 10 9 rp C 
 L ; N 621 483 M 610 483 I 610 473 I 621 473 I C 
K 
: N 623 474 9 10 rp C 
 L ; N 632 484 M 622 484 I 622 473 I 632 473 I C 
K 
: N 634 474 21 9 rp C 
 L ; N 655 483 M 633 483 I 633 473 I 655 473 I C 
K 
: N 669 474 21 10 rp C 
 L ; N 690 484 M 668 484 I 668 473 I 690 473 I C 
K 
: N 715 474 9 10 rp C 
 L ; N 724 484 M 714 484 I 714 473 I 724 473 I C 
K 
: N 738 474 9 9 rp C 
 L ; N 747 483 M 737 483 I 737 473 I 747 473 I C 
K 
: N 784 474 9 10 rp C 
 L ; N 793 484 M 783 484 I 783 473 I 793 473 I C 
K 
: N 807 474 9 9 rp C 
 L ; N 816 483 M 806 483 I 806 473 I 816 473 I C 
K 
: N 841 474 10 10 rp C 
 L ; N 851 484 M 840 484 I 840 473 I 851 473 I C 
K 
: N 852 474 22 9 rp C 
 L ; N 874 483 M 851 483 I 851 473 I 874 473 I C 
K 
: N 876 474 9 10 rp C 
 L ; N 885 484 M 875 484 I 875 473 I 885 473 I C 
K 
: N 899 474 9 9 rp C 
 L ; N 908 483 M 898 483 I 898 473 I 908 473 I C 
K 
: N 933 474 10 10 rp C 
 L ; N 943 484 M 932 484 I 932 473 I 943 473 I C 
K 
: N 956 474 10 9 rp C 
 L ; N 966 483 M 955 483 I 955 473 I 966 473 I C 
K 
: N 519 485 10 10 rp C 
 L ; N 529 495 M 518 495 I 518 484 I 529 484 I C 
K 
: N 542 485 33 10 rp C 
 L ; N 575 495 M 541 495 I 541 484 I 575 484 I C 
K 
: N 588 485 10 10 rp C 
 L ; N 598 495 M 587 495 I 587 484 I 598 484 I C 
K 
: N 623 485 9 10 rp C 
 L ; N 632 495 M 622 495 I 622 484 I 632 484 I C 
K 
: N 657 485 10 10 rp C 
 L ; N 667 495 M 656 495 I 656 484 I 667 484 I C 
K 
: N 669 485 21 10 rp C 
 L ; N 690 495 M 668 495 I 668 484 I 690 484 I C 
K 
: N 715 485 9 10 rp C 
 L ; N 724 495 M 714 495 I 714 484 I 724 484 I C 
K 
: N 726 485 10 10 rp C 
 L ; N 736 495 M 725 495 I 725 484 I 736 484 I C 
K 
: N 761 485 9 10 rp C 
 L ; N 770 495 M 760 495 I 760 484 I 770 484 I C 
K 
: N 784 485 21 10 rp C 
 L ; N 805 495 M 783 495 I 783 484 I 805 484 I C 
K 
: N 818 485 10 10 rp C 
 L ; N 828 495 M 817 495 I 817 484 I 828 484 I C 
K 
: N 841 485 10 10 rp C 
 L ; N 851 495 M 840 495 I 840 484 I 851 484 I C 
K 
: N 876 485 9 10 rp C 
 L ; N 885 495 M 875 495 I 875 484 I 885 484 I C 
K 
: N 910 485 10 10 rp C 
 L ; N 920 495 M 909 495 I 909 484 I 920 484 I C 
K 
: N 933 485 21 10 rp C 
 L ; N 954 495 M 932 495 I 932 484 I 954 484 I C 
K 
: N 968 485 10 10 rp C 
 L ; N 978 495 M 967 495 I 967 484 I 978 484 I C 
K 
: N 979 485 10 10 rp C 
 L ; N 989 495 M 978 495 I 978 484 I 989 484 I C 
K 
: N 519 497 10 10 rp C 
 L ; N 529 507 M 518 507 I 518 496 I 529 496 I C 
K 
: N 588 497 10 10 rp C 
 L ; N 598 507 M 587 507 I 587 496 I 598 496 I C 
K 
: N 634 497 21 10 rp C 
 L ; N 655 507 M 633 507 I 633 496 I 655 496 I C 
K 
: N 669 497 10 9 rp C 
 L ; N 679 506 M 668 506 I 668 496 I 679 496 I C 
K 
: N 680 497 10 10 rp C 
 L ; N 690 507 M 679 507 I 679 496 I 690 496 I C 
K 
: N 703 497 10 10 rp C 
 L ; N 713 507 M 702 507 I 702 496 I 713 496 I C 
K 
: N 714 497 10 9 rp C 
 L ; N 724 506 M 713 506 I 713 496 I 724 496 I C 
K 
: N 738 497 9 10 rp C 
 L ; N 747 507 M 737 507 I 737 496 I 747 496 I C 
K 
: N 772 497 10 10 rp C 
 L ; N 782 507 M 771 507 I 771 496 I 782 496 I C 
K 
: N 807 497 10 9 rp C 
 L ; N 817 506 M 806 506 I 806 496 I 817 496 I C 
K 
: N 818 497 10 10 rp C 
 L ; N 828 507 M 817 507 I 817 496 I 828 496 I C 
K 
: N 853 497 9 10 rp C 
 L ; N 862 507 M 852 507 I 852 496 I 862 496 I C 
K 
: N 910 497 10 10 rp C 
 L ; N 920 507 M 909 507 I 909 496 I 920 496 I C 
K 
: N 921 497 11 9 rp C 
 L ; N 932 506 M 920 506 I 920 496 I 932 496 I C 
K 
: N 933 497 33 10 rp C 
 L ; N 966 507 M 932 507 I 932 496 I 966 496 I C 
K 
: N 979 497 10 10 rp C 
 L ; N 989 507 M 978 507 I 978 496 I 989 496 I C 
K 
: N 519 508 79 10 rp C 
 L ; N 598 518 M 518 518 I 518 507 I 598 507 I C 
K 
: N 611 508 10 10 rp C 
 L ; N 621 518 M 610 518 I 610 507 I 621 507 I C 
K 
: N 634 508 33 10 rp C 
 L ; N 667 518 M 633 518 I 633 507 I 667 507 I C 
K 
: N 680 508 33 10 rp C 
 L ; N 713 518 M 679 518 I 679 507 I 713 507 I C 
K 
: N 726 508 21 10 rp C 
 L ; N 747 518 M 725 518 I 725 507 I 747 507 I C 
K 
: N 761 508 21 10 rp C 
 L ; N 782 518 M 760 518 I 760 507 I 782 507 I C 
K 
: N 795 508 10 10 rp C 
 L ; N 805 518 M 794 518 I 794 507 I 805 507 I C 
K 
: N 818 508 10 10 rp C 
 L ; N 828 518 M 817 518 I 817 507 I 828 507 I C 
K 
: N 853 508 9 10 rp C 
 L ; N 862 518 M 852 518 I 852 507 I 862 507 I C 
K 
: N 876 508 9 10 rp C 
 L ; N 885 518 M 875 518 I 875 507 I 885 507 I C 
K 
: N 899 508 21 10 rp C 
 L ; N 920 518 M 898 518 I 898 507 I 920 507 I C 
K 
: N 933 508 56 10 rp C 
 L ; N 989 518 M 932 518 I 932 507 I 989 507 I C 
K 
LH
%%PageTrailer

%%Trailer
%%DocumentNeededResources: 
%%DocumentSuppliedResources: 
%%+ procset Pscript_WinNT_VMErrorHandler 5.0 0
%%+ procset Pscript_FatalError 5.0 0
%%+ procset Pscript_Win_Basic 5.0 0
%%+ procset Pscript_Win_Utils_L2 5.0 0
%%+ procset Pscript_Win_GdiObject 5.0 0
%%+ procset Pscript_Win_GdiObject_L2 5.0 0
Pscript_WinNT_Incr dup /terminate get exec
%%EOF
