%!PS-Adobe-3.0 EPSF-3.0
%%Title: WMF2EPS 1.32  : WMF->EPS conversion for clip003.emf
%%Creator: PScript5.dll Version 5.2
%%CreationDate: 6/21/2004 15:11:24
%%For: hig
%%BoundingBox: 56 56 123 123
%%Pages: 1
%%Orientation: Portrait
%%PageOrder: Ascend
%%DocumentNeededResources: (atend)
%%DocumentSuppliedResources: (atend)
%%DocumentData: Clean7Bit
%%TargetDevice: (WMF2EPS Color PS) (2010.0) 2
%%LanguageLevel: 2
%%EndComments

%%BeginDefaults
%%PageBoundingBox: 0 0 124 124
%%ViewingOrientation: 1 0 0 1
%%EndDefaults

%%BeginProlog
%%BeginResource: file Pscript_WinNT_VMErrorHandler 5.0 0
/currentpacking where{pop/oldpack currentpacking def/setpacking where{pop false
setpacking}if}if/$brkpage 64 dict def $brkpage begin/prnt{dup type/stringtype
ne{=string cvs}if dup length 6 mul/tx exch def/ty 10 def currentpoint/toy exch
def/tox exch def 1 setgray newpath tox toy 2 sub moveto 0 ty rlineto tx 0
rlineto 0 ty neg rlineto closepath fill tox toy moveto 0 setgray show}bind def
/nl{currentpoint exch pop lmargin exch moveto 0 -10 rmoveto}def/=={/cp 0 def
typeprint nl}def/typeprint{dup type exec}readonly def/lmargin 72 def/rmargin 72
def/tprint{dup length cp add rmargin gt{nl/cp 0 def}if dup length cp add/cp
exch def prnt}readonly def/cvsprint{=string cvs tprint( )tprint}readonly def
/integertype{cvsprint}readonly def/realtype{cvsprint}readonly def/booleantype
{cvsprint}readonly def/operatortype{(--)tprint =string cvs tprint(-- )tprint}
readonly def/marktype{pop(-mark- )tprint}readonly def/dicttype{pop
(-dictionary- )tprint}readonly def/nulltype{pop(-null- )tprint}readonly def
/filetype{pop(-filestream- )tprint}readonly def/savetype{pop(-savelevel- )
tprint}readonly def/fonttype{pop(-fontid- )tprint}readonly def/nametype{dup
xcheck not{(/)tprint}if cvsprint}readonly def/stringtype{dup rcheck{(\()tprint
tprint(\))tprint}{pop(-string- )tprint}ifelse}readonly def/arraytype{dup rcheck
{dup xcheck{({)tprint{typeprint}forall(})tprint}{([)tprint{typeprint}forall(])
tprint}ifelse}{pop(-array- )tprint}ifelse}readonly def/packedarraytype{dup
rcheck{dup xcheck{({)tprint{typeprint}forall(})tprint}{([)tprint{typeprint}
forall(])tprint}ifelse}{pop(-packedarray- )tprint}ifelse}readonly def/courier
/Courier findfont 10 scalefont def end errordict/handleerror{systemdict begin
$error begin $brkpage begin newerror{/newerror false store vmstatus pop pop 0
ne{grestoreall}if initgraphics courier setfont lmargin 720 moveto errorname
(VMerror)eq{version cvi 2016 ge{userdict/ehsave known{clear userdict/ehsave get
restore 2 vmreclaim}if vmstatus exch pop exch pop PrtVMMsg}if}if systemdict
/showpage get exec(%%[ Error: )print errorname =print(; OffendingCommand: )
print/command load =print( ]%%)= flush}if end end end}dup 0 systemdict put dup
4 $brkpage put bind readonly put/currentpacking where{pop/setpacking where{pop
oldpack setpacking}if}if
%%EndResource
userdict /Pscript_WinNT_Incr 230 dict dup begin put
%%BeginResource: file Pscript_FatalError 5.0 0
userdict begin/FatalErrorIf{{initgraphics findfont 1 index 0 eq{exch pop}{dup
length dict begin{1 index/FID ne{def}{pop pop}ifelse}forall/Encoding
{ISOLatin1Encoding}stopped{StandardEncoding}if def currentdict end
/ErrFont-Latin1 exch definefont}ifelse exch scalefont setfont counttomark 3 div
cvi{moveto show}repeat showpage quit}{cleartomark}ifelse}bind def end
%%EndResource
userdict begin/PrtVMMsg{vmstatus exch sub exch pop gt{[
(This job requires more memory than is available in this printer.)100 500
(Try one or more of the following, and then print again:)100 485
(For the output format, choose Optimize For Portability.)115 470
(In the Device Settings page, make sure the Available PostScript Memory is accurate.)
115 455(Reduce the number of fonts in the document.)115 440
(Print the document in parts.)115 425 12/Times-Roman[/GothicBBB-Medium-RKSJ-H
dup{findfont}stopped{cleartomark}{/FontName get eq{pop cleartomark[
<82B182CC83578387837582CD8CBB8DDD82B182CC8376838A8393835E82C59798977082C582AB82
E988C88FE382CC83818382838A82F0954B977682C682B582DC82B7814288C889BA82CC8A6590DD9
2E8>90 500<82CC88EA82C2814182DC82BD82CD82BB82CC916782DD8D8782ED82B982F08E7792
E882B582BD8CE381418376838A8393836782B592BC82B582C482DD82C482AD82BE82B382A28142>
90 485<A5506F73745363726970748376838D8370836583428356815B836782A982E7814183478
389815B82AA8C798CB882B782E982E682A482C98DC5934B89BB2082F0914991F082B782E98142>
90 455<A58366836F83438358834983768356838783938376838D8370836583428356815B83678
2CC209798977082C582AB82E98376838A8393835E83818382838A2082CC926C82AA90B382B582A2
82B182C682F08A6D944682B782E98142>90 440<A58368834C8385838183938367928682C58E6
7977082B382EA82C482A282E9837483488393836782CC909482F08CB882E782B78142>90 425
<A58368834C838583818393836782F095AA8A8482B582C48376838A8393836782B782E98142>90
410 10 0/GothicBBB-Medium-RKSJ-H}{cleartomark}ifelse}ifelse showpage
(%%[ PrinterError: Low Printer VM ]%%)= true FatalErrorIf}if}bind def end
version cvi 2016 ge{/VM?{pop}bind def}{/VM? userdict/PrtVMMsg get def}ifelse
%%BeginResource: file Pscript_Win_Basic 5.0 0
/d/def load def/,/load load d/~/exch , d/?/ifelse , d/!/pop , d/`/begin , d/^
/index , d/@/dup , d/+/translate , d/$/roll , d/U/userdict , d/M/moveto , d/-
/rlineto , d/&/currentdict , d/:/gsave , d/;/grestore , d/F/false , d/T/true ,
d/N/newpath , d/E/end , d/Ac/arc , d/An/arcn , d/A/ashow , d/D/awidthshow , d/C
/closepath , d/V/div , d/O/eofill , d/L/fill , d/I/lineto , d/-c/curveto , d/-M
/rmoveto , d/+S/scale , d/Ji/setfont , d/Lc/setlinecap , d/Lj/setlinejoin , d
/Lw/setlinewidth , d/Lm/setmiterlimit , d/sd/setdash , d/S/show , d/LH/showpage
, d/K/stroke , d/W/widthshow , d/R/rotate , d/L2? false/languagelevel where{pop
languagelevel 2 ge{pop true}if}if d L2?{/xS/xshow , d/yS/yshow , d/zS/xyshow ,
d}if/b{bind d}bind d/bd{bind d}bind d/xd{~ d}bd/ld{, d}bd/bn/bind ld/lw/Lw ld
/lc/Lc ld/lj/Lj ld/sg/setgray ld/ADO_mxRot null d/self & d/OrgMx matrix
currentmatrix d/reinitialize{: OrgMx setmatrix[/TextInit/GraphInit/UtilsInit
counttomark{@ where{self eq}{F}?{cvx exec}{!}?}repeat cleartomark ;}b
/initialize{`{/Pscript_Win_Data where{!}{U/Pscript_Win_Data & put}?/ADO_mxRot ~
d/TextInitialised? F d reinitialize E}{U/Pscript_Win_Data 230 dict @ ` put
/ADO_mxRot ~ d/TextInitialised? F d reinitialize}?}b/terminate{!{& self eq
{exit}{E}?}loop E}b/suspend/terminate , d/resume{` Pscript_Win_Data `}b U `
/lucas 21690 d/featurebegin{countdictstack lucas[}b/featurecleanup{stopped
{cleartomark @ lucas eq{! exit}if}loop countdictstack ~ sub @ 0 gt{{E}repeat}
{!}?}b E/snap{transform 0.25 sub round 0.25 add ~ 0.25 sub round 0.25 add ~
itransform}b/dsnap{dtransform round ~ round ~ idtransform}b/nonzero_round{@ 0.5
ge{round}{@ -0.5 lt{round}{0 ge{1}{-1}?}?}?}b/nonzero_dsnap{dtransform
nonzero_round ~ nonzero_round ~ idtransform}b U<04>cvn{}put/rr{1 ^ 0 - 0 ~ -
neg 0 - C}b/irp{4 -2 $ + +S fx 4 2 $ M 1 ^ 0 - 0 ~ - neg 0 -}b/rp{4 2 $ M 1 ^ 0
- 0 ~ - neg 0 -}b/solid{[]0 sd}b/g{@ not{U/DefIf_save save put}if U/DefIf_bool
2 ^ put}b/DefIf_El{if U/DefIf_bool get not @{U/DefIf_save get restore}if}b/e
{DefIf_El !}b/UDF{L2?{undefinefont}{!}?}b/UDR{L2?{undefineresource}{! !}?}b
/freeVM{/Courier findfont[40 0 0 -40 0 0]makefont Ji 2 vmreclaim}b/hfRedefFont
{findfont @ length dict `{1 ^/FID ne{d}{! !}?}forall & E @ ` ~{/CharStrings 1
dict `/.notdef 0 d & E d}if/Encoding 256 array 0 1 255{1 ^ ~/.notdef put}for d
E definefont !}bind d/hfMkCIDFont{/CIDFont findresource @ length 2 add dict `{1
^ @/FID eq ~ @/XUID eq ~/UIDBase eq or or{! !}{d}?}forall/CDevProc ~ d/Metrics2
16 dict d/CIDFontName 1 ^ d & E 1 ^ ~/CIDFont defineresource ![~]composefont !}
bind d
%%EndResource
%%BeginResource: file Pscript_Win_Utils_L2 5.0 0
/rf/rectfill , d/fx{1 1 dtransform @ 0 ge{1 sub 0.5}{1 add -0.5}? 3 -1 $ @ 0 ge
{1 sub 0.5}{1 add -0.5}? 3 1 $ 4 1 $ idtransform 4 -2 $ idtransform}b/BZ{4 -2 $
snap + +S fx rf}b/rs/rectstroke , d/rc/rectclip , d/UtilsInit{currentglobal{F
setglobal}if}b/scol{! setcolor}b/colspA/DeviceGray d/colspABC/DeviceRGB d
/colspRefresh{colspABC setcolorspace}b/SetColSpace{colspABC setcolorspace}b
/resourcestatus where{!/ColorRendering/ProcSet resourcestatus{! ! T}{F}?}{F}?
not{/ColorRendering<</GetHalftoneName{currenthalftone @/HalftoneName known{
/HalftoneName get}{!/none}?}bn/GetPageDeviceName{currentpagedevice @
/PageDeviceName known{/PageDeviceName get @ null eq{!/none}if}{!/none}?}bn
/GetSubstituteCRD{!/DefaultColorRendering/ColorRendering resourcestatus{! !
/DefaultColorRendering}{(DefaultColorRendering*){cvn exit}127 string
/ColorRendering resourceforall}?}bn>>/defineresource where{!/ProcSet
defineresource !}{! !}?}if/buildcrdname{/ColorRendering/ProcSet findresource `
mark GetHalftoneName @ type @/nametype ne ~/stringtype ne and{!/none}if(.)
GetPageDeviceName @ type @/nametype ne ~/stringtype ne and{!/none}if(.)5 ^ 0 5
-1 1{^ length add}for string 6 1 $ 5 ^ 5{~ 1 ^ cvs length 1 ^ length 1 ^ sub
getinterval}repeat ! cvn 3 1 $ ! ! E}b/definecolorrendering{~ buildcrdname ~
/ColorRendering defineresource !}b/findcolorrendering where{!}{
/findcolorrendering{buildcrdname @/ColorRendering resourcestatus{! ! T}{
/ColorRendering/ProcSet findresource ` GetSubstituteCRD E F}?}b}?
/selectcolorrendering{findcolorrendering !/ColorRendering findresource
setcolorrendering}b/G2UBegin{findresource/FontInfo get/GlyphNames2Unicode get
`}bind d/G2CCBegin{findresource/FontInfo get/GlyphNames2HostCode get `}bind d
/G2UEnd{E}bind d/AddFontInfoBegin{/FontInfo 8 dict @ `}bind d/AddFontInfo{
/GlyphNames2Unicode 16 dict d/GlyphNames2HostCode 16 dict d}bind d
/AddFontInfoEnd{E d}bind d/T0AddCFFMtx2{/CIDFont findresource/Metrics2 get ` d
E}bind d
%%EndResource
end
%%EndProlog

%%BeginSetup
[ 1 0 0 1 0 0 ] false Pscript_WinNT_Incr dup /initialize get exec
1 setlinecap 1 setlinejoin
/mysetup [ 72 600 V 0 0 -72 600 V 0 123.59055 ] def 
%%EndSetup

%%Page: 1 1
%%PageBoundingBox: 0 0 124 124
%%EndPageComments
%%BeginPageSetup
/DeviceRGB dup setcolorspace /colspABC exch def
mysetup concat colspRefresh
%%EndPageSetup

Pscript_WinNT_Incr begin
%%BeginResource: file Pscript_Win_GdiObject 5.0 0
/SavedCTM null d/CTMsave{/SavedCTM SavedCTM currentmatrix d}b/CTMrestore
{SavedCTM setmatrix}b/mp null d/ADO_mxRot null d/GDIHMatrix null d
/GDIHPatternDict 22 dict d GDIHPatternDict `/PatternType 1 d/PaintType 2 d/Reps
L2?{1}{5}? d/XStep 8 Reps mul d/YStep XStep d/BBox[0 0 XStep YStep]d/TilingType
1 d/PaintProc{` 1 Lw[]0 sd PaintData , exec E}b/FGnd null d/BGnd null d
/HS_Horizontal{horiz}b/HS_Vertical{vert}b/HS_FDiagonal{fdiag}b/HS_BDiagonal
{biag}b/HS_Cross{horiz vert}b/HS_DiagCross{fdiag biag}b/MaxXYStep XStep YStep
gt{XStep}{YStep}? d/horiz{Reps{0 4 M XStep 0 - 0 8 +}repeat 0 -8 Reps mul + K}b
/vert{Reps{4 0 M 0 YStep - 8 0 +}repeat 0 -8 Reps mul + K}b/biag{Reps{0 0 M
MaxXYStep @ - 0 YStep neg M MaxXYStep @ - 0 8 +}repeat 0 -8 Reps mul + 0 YStep
M 8 8 - K}b/fdiag{Reps{0 0 M MaxXYStep @ neg - 0 YStep M MaxXYStep @ neg - 0 8
+}repeat 0 -8 Reps mul + MaxXYStep @ M 8 -8 - K}b E/makehatch{4 -2 $/yOrg ~ d
/xOrg ~ d GDIHPatternDict/PaintData 3 -1 $ put CTMsave GDIHMatrix setmatrix
GDIHPatternDict matrix xOrg yOrg + mp CTMrestore ~ U ~ 2 ^ put}b/h0{/h0
/HS_Horizontal makehatch}b/h1{/h1/HS_Vertical makehatch}b/h2{/h2/HS_FDiagonal
makehatch}b/h3{/h3/HS_BDiagonal makehatch}b/h4{/h4/HS_Cross makehatch}b/h5{/h5
/HS_DiagCross makehatch}b/GDIBWPatternMx null d/pfprep{save 8 1 $
/PatternOfTheDay 8 1 $ GDIBWPatternDict `/yOrg ~ d/xOrg ~ d/PaintData ~ d/yExt
~ d/Width ~ d/BGnd ~ d/FGnd ~ d/Height yExt RepsV mul d/mx[Width 0 0 Height 0
0]d E build_pattern ~ !}b/pfbf{/fEOFill ~ d pfprep hbf fEOFill{O}{L}? restore}b
/GraphInit{GDIHMatrix null eq{/SavedCTM matrix d : ADO_mxRot concat 0 0 snap +
: 0.48 @ GDIHPatternDict ` YStep mul ~ XStep mul ~ nonzero_dsnap YStep V ~
XStep V ~ E +S/GDIHMatrix matrix currentmatrix readonly d ; : 0.24 -0.24 +S
GDIBWPatternDict ` Width Height E nonzero_dsnap +S/GDIBWPatternMx matrix
currentmatrix readonly d ; ;}if}b
%%EndResource
%%BeginResource: file Pscript_Win_GdiObject_L2 5.0 0
/GDIBWPatternDict 25 dict @ `/PatternType 1 d/PaintType 1 d/RepsV 1 d/RepsH 1 d
/BBox[0 0 RepsH 1]d/TilingType 1 d/XStep 1 d/YStep 1 d/Height 8 RepsV mul d
/Width 8 d/mx[Width 0 0 Height neg 0 Height]d/FGnd null d/BGnd null d
/SetBGndFGnd{BGnd null ne{BGnd aload ! scol BBox aload ! 2 ^ sub ~ 3 ^ sub ~
rf}if FGnd null ne{FGnd aload ! scol}if}b/PaintProc{` SetBGndFGnd RepsH{Width
Height F mx PaintData imagemask Width 0 +}repeat E}b E d/mp/makepattern , d
/build_pattern{CTMsave GDIBWPatternMx setmatrix/nupangle where{! nupangle -90
eq{nupangle R}if}if GDIBWPatternDict @ ` Width Height ne{Width Height gt{Width
Height V 1}{1 Height Width V}? +S}if xOrg yOrg E matrix + mp CTMrestore}b/hbf
{setpattern}b/hf{:/fEOFill ~ d ~ ! setpattern fEOFill{O}{L}? ;}b/pbf{: !
/fEOFill ~ d GDIBWPatternDict `/yOrg ~ d/xOrg ~ d/PaintData ~ d/OutputBPP ~ d
/Height ~ d/Width ~ d/PaintType 1 d/PatternType 1 d/TilingType 1 d/BBox[0 0
Width Height]d/XStep Width d/YStep Height d/mx xOrg yOrg matrix + d 20 dict @ `
/ImageType 1 d/Width Width d/Height Height d/ImageMatrix[1 0 0 1 0 0]d
/BitsPerComponent 8 d OutputBPP 24 eq{/Decode[0 1 0 1 0 1]d}{OutputBPP 8 eq{
/Decode[0 1]d}{/Decode[0 1 0 1 0 1 0 1]d}?}?/DataSource{PaintData}d E/ImageDict
~ d/PaintProc{` ImageDict image E}b & mx makepattern setpattern E fEOFill{O}{L}
? ;}b/mask_pbf{:/fEOFill ~ d 20 dict `/yOrg ~ d/xOrg ~ d/PaintData ~ d/Height ~
d/Width ~ d/PatternType 1 d/PaintType 2 d/TilingType 1 d/BBox[0 0 Width Height]
d/XStep Width d/YStep Height d/mx xOrg yOrg matrix + d/PaintProc{` Width Height
T 1 1 dtransform abs ~ abs ~ 0 0 3 -1 $ 0 0 6 array astore{PaintData}imagemask
E}b & mx makepattern setpattern E fEOFill{O}{L}? ;}b
%%EndResource
end reinitialize
: N 473 2 556 556 rp C 
1 1 1 1 scol  L ; 1 1 1 1 scol : 472 1 557 557 rc N 1029 558 M 472 558 I 472 1 I 1029 1 I C 
K 
; : N 516 45 8 9 rp C 
0 0 0 1 scol  L ; 0 0 0 1 scol N 524 54 M 515 54 I 515 44 I 524 44 I C 
K 
: N 526 45 51 8 rp C 
 L ; N 577 53 M 525 53 I 525 44 I 577 44 I C 
K 
: N 579 45 8 9 rp C 
 L ; N 587 54 M 578 54 I 578 44 I 587 44 I C 
K 
: N 621 45 9 8 rp C 
 L ; N 630 53 M 620 53 I 620 44 I 630 44 I C 
K 
: N 631 45 9 9 rp C 
 L ; N 640 54 M 630 54 I 630 44 I 640 44 I C 
K 
: N 652 45 9 8 rp C 
 L ; N 661 53 M 651 53 I 651 44 I 661 44 I C 
K 
: N 663 45 8 9 rp C 
 L ; N 671 54 M 662 54 I 662 44 I 671 44 I C 
K 
: N 715 45 9 9 rp C 
 L ; N 724 54 M 714 54 I 714 44 I 724 44 I C 
K 
: N 736 45 9 8 rp C 
 L ; N 745 53 M 735 53 I 735 44 I 745 44 I C 
K 
: N 747 45 8 9 rp C 
 L ; N 755 54 M 746 54 I 746 44 I 755 44 I C 
K 
: N 799 45 10 8 rp C 
 L ; N 809 53 M 798 53 I 798 44 I 809 44 I C 
K 
: N 810 45 9 9 rp C 
 L ; N 819 54 M 809 54 I 809 44 I 819 44 I C 
K 
: N 820 45 20 8 rp C 
 L ; N 840 53 M 819 53 I 819 44 I 840 44 I C 
K 
: N 894 45 9 8 rp C 
 L ; N 903 53 M 893 53 I 893 44 I 903 44 I C 
K 
: N 915 45 9 9 rp C 
 L ; N 924 54 M 914 54 I 914 44 I 924 44 I C 
K 
: N 925 45 52 8 rp C 
 L ; N 977 53 M 924 53 I 924 44 I 977 44 I C 
K 
: N 978 45 9 9 rp C 
 L ; N 987 54 M 977 54 I 977 44 I 987 44 I C 
K 
: N 516 55 8 9 rp C 
 L ; N 524 64 M 515 64 I 515 54 I 524 54 I C 
K 
: N 579 55 8 9 rp C 
 L ; N 587 64 M 578 64 I 578 54 I 587 54 I C 
K 
: N 610 55 9 9 rp C 
 L ; N 619 64 M 609 64 I 609 54 I 619 54 I C 
K 
: N 631 55 19 9 rp C 
 L ; N 650 64 M 630 64 I 630 54 I 650 54 I C 
K 
: N 663 55 9 9 rp C 
 L ; N 672 64 M 662 64 I 662 54 I 672 54 I C 
K 
: N 673 55 9 9 rp C 
 L ; N 682 64 M 672 64 I 672 54 I 682 54 I C 
K 
: N 694 55 9 9 rp C 
 L ; N 703 64 M 693 64 I 693 54 I 703 54 I C 
K 
: N 715 55 9 9 rp C 
 L ; N 724 64 M 714 64 I 714 54 I 724 54 I C 
K 
: N 747 55 19 9 rp C 
 L ; N 766 64 M 746 64 I 746 54 I 766 54 I C 
K 
: N 768 55 29 9 rp C 
 L ; N 797 64 M 767 64 I 767 54 I 797 54 I C 
K 
: N 810 55 9 9 rp C 
 L ; N 819 64 M 809 64 I 809 54 I 819 54 I C 
K 
: N 842 55 8 9 rp C 
 L ; N 850 64 M 841 64 I 841 54 I 850 54 I C 
K 
: N 884 55 8 9 rp C 
 L ; N 892 64 M 883 64 I 883 54 I 892 54 I C 
K 
: N 915 55 9 9 rp C 
 L ; N 924 64 M 914 64 I 914 54 I 924 54 I C 
K 
: N 978 55 9 9 rp C 
 L ; N 987 64 M 977 64 I 977 54 I 987 54 I C 
K 
: N 516 66 8 9 rp C 
 L ; N 524 75 M 515 75 I 515 65 I 524 65 I C 
K 
: N 537 66 29 9 rp C 
 L ; N 566 75 M 536 75 I 536 65 I 566 65 I C 
K 
: N 579 66 8 9 rp C 
 L ; N 587 75 M 578 75 I 578 65 I 587 65 I C 
K 
: N 621 66 8 9 rp C 
 L ; N 629 75 M 620 75 I 620 65 I 629 65 I C 
K 
: N 652 66 9 8 rp C 
 L ; N 661 74 M 651 74 I 651 65 I 661 65 I C 
K 
: N 673 66 19 8 rp C 
 L ; N 692 74 M 672 74 I 672 65 I 692 65 I C 
K 
: N 705 66 8 9 rp C 
 L ; N 713 75 M 704 75 I 704 65 I 713 65 I C 
K 
: N 726 66 19 8 rp C 
 L ; N 745 74 M 725 74 I 725 65 I 745 65 I C 
K 
: N 768 66 9 8 rp C 
 L ; N 777 74 M 767 74 I 767 65 I 777 65 I C 
K 
: N 778 66 30 9 rp C 
 L ; N 808 75 M 777 75 I 777 65 I 808 65 I C 
K 
: N 842 66 8 8 rp C 
 L ; N 850 74 M 841 74 I 841 65 I 850 65 I C 
K 
: N 863 66 8 8 rp C 
 L ; N 871 74 M 862 74 I 862 65 I 871 65 I C 
K 
: N 884 66 8 9 rp C 
 L ; N 892 75 M 883 75 I 883 65 I 892 65 I C 
K 
: N 915 66 9 9 rp C 
 L ; N 924 75 M 914 75 I 914 65 I 924 65 I C 
K 
: N 936 66 30 9 rp C 
 L ; N 966 75 M 935 75 I 935 65 I 966 65 I C 
K 
: N 978 66 9 9 rp C 
 L ; N 987 75 M 977 75 I 977 65 I 987 65 I C 
K 
: N 516 76 8 9 rp C 
 L ; N 524 85 M 515 85 I 515 75 I 524 75 I C 
K 
: N 537 76 29 9 rp C 
 L ; N 566 85 M 536 85 I 536 75 I 566 75 I C 
K 
: N 579 76 8 9 rp C 
 L ; N 587 85 M 578 85 I 578 75 I 587 75 I C 
K 
: N 610 76 9 9 rp C 
 L ; N 619 85 M 609 85 I 609 75 I 619 75 I C 
K 
: N 620 76 9 9 rp C 
 L ; N 629 85 M 619 85 I 619 75 I 629 75 I C 
K 
: N 663 76 8 9 rp C 
 L ; N 671 85 M 662 85 I 662 75 I 671 75 I C 
K 
: N 694 76 9 9 rp C 
 L ; N 703 85 M 693 85 I 693 75 I 703 75 I C 
K 
: N 705 76 8 9 rp C 
 L ; N 713 85 M 704 85 I 704 75 I 713 75 I C 
K 
: N 757 76 9 9 rp C 
 L ; N 766 85 M 756 85 I 756 75 I 766 75 I C 
K 
: N 778 76 20 9 rp C 
 L ; N 798 85 M 777 85 I 777 75 I 798 75 I C 
K 
: N 799 76 9 9 rp C 
 L ; N 808 85 M 798 85 I 798 75 I 808 75 I C 
K 
: N 810 76 9 9 rp C 
 L ; N 819 85 M 809 85 I 809 75 I 819 75 I C 
K 
: N 852 76 9 9 rp C 
 L ; N 861 85 M 851 85 I 851 75 I 861 75 I C 
K 
: N 884 76 19 9 rp C 
 L ; N 903 85 M 883 85 I 883 75 I 903 75 I C 
K 
: N 915 76 9 9 rp C 
 L ; N 924 85 M 914 85 I 914 75 I 924 75 I C 
K 
: N 936 76 30 9 rp C 
 L ; N 966 85 M 935 85 I 935 75 I 966 75 I C 
K 
: N 978 76 9 9 rp C 
 L ; N 987 85 M 977 85 I 977 75 I 987 75 I C 
K 
: N 516 87 8 9 rp C 
 L ; N 524 96 M 515 96 I 515 86 I 524 86 I C 
K 
: N 537 87 29 8 rp C 
 L ; N 566 95 M 536 95 I 536 86 I 566 86 I C 
K 
: N 579 87 8 9 rp C 
 L ; N 587 96 M 578 96 I 578 86 I 587 86 I C 
K 
: N 610 87 9 9 rp C 
 L ; N 619 96 M 609 96 I 609 86 I 619 86 I C 
K 
: N 684 87 8 8 rp C 
 L ; N 692 95 M 683 95 I 683 86 I 692 86 I C 
K 
: N 705 87 8 8 rp C 
 L ; N 713 95 M 704 95 I 704 86 I 713 86 I C 
K 
: N 726 87 8 9 rp C 
 L ; N 734 96 M 725 96 I 725 86 I 734 86 I C 
K 
: N 736 87 30 8 rp C 
 L ; N 766 95 M 735 95 I 735 86 I 766 86 I C 
K 
: N 768 87 8 9 rp C 
 L ; N 776 96 M 767 96 I 767 86 I 776 86 I C 
K 
: N 799 87 9 9 rp C 
 L ; N 808 96 M 798 96 I 798 86 I 808 86 I C 
K 
: N 821 87 8 8 rp C 
 L ; N 829 95 M 820 95 I 820 86 I 829 86 I C 
K 
: N 852 87 9 8 rp C 
 L ; N 861 95 M 851 95 I 851 86 I 861 86 I C 
K 
: N 873 87 30 8 rp C 
 L ; N 903 95 M 872 95 I 872 86 I 903 86 I C 
K 
: N 915 87 9 9 rp C 
 L ; N 924 96 M 914 96 I 914 86 I 924 86 I C 
K 
: N 936 87 30 8 rp C 
 L ; N 966 95 M 935 95 I 935 86 I 966 86 I C 
K 
: N 978 87 9 9 rp C 
 L ; N 987 96 M 977 96 I 977 86 I 987 86 I C 
K 
: N 516 97 8 9 rp C 
 L ; N 524 106 M 515 106 I 515 96 I 524 96 I C 
K 
: N 579 97 8 9 rp C 
 L ; N 587 106 M 578 106 I 578 96 I 587 96 I C 
K 
: N 600 97 8 9 rp C 
 L ; N 608 106 M 599 106 I 599 96 I 608 96 I C 
K 
: N 610 97 9 9 rp C 
 L ; N 619 106 M 609 106 I 609 96 I 619 96 I C 
K 
: N 631 97 9 9 rp C 
 L ; N 640 106 M 630 106 I 630 96 I 640 96 I C 
K 
: N 663 97 8 9 rp C 
 L ; N 671 106 M 662 106 I 662 96 I 671 96 I C 
K 
: N 673 97 9 9 rp C 
 L ; N 682 106 M 672 106 I 672 96 I 682 96 I C 
K 
: N 726 97 8 9 rp C 
 L ; N 734 106 M 725 106 I 725 96 I 734 96 I C 
K 
: N 768 97 8 9 rp C 
 L ; N 776 106 M 767 106 I 767 96 I 776 96 I C 
K 
: N 778 97 9 9 rp C 
 L ; N 787 106 M 777 106 I 777 96 I 787 96 I C 
K 
: N 789 97 8 9 rp C 
 L ; N 797 106 M 788 106 I 788 96 I 797 96 I C 
K 
: N 799 97 10 9 rp C 
 L ; N 809 106 M 798 106 I 798 96 I 809 96 I C 
K 
: N 810 97 9 9 rp C 
 L ; N 819 106 M 809 106 I 809 96 I 819 96 I C 
K 
: N 863 97 8 9 rp C 
 L ; N 871 106 M 862 106 I 862 96 I 871 96 I C 
K 
: N 915 97 9 9 rp C 
 L ; N 924 106 M 914 106 I 914 96 I 924 96 I C 
K 
: N 978 97 9 9 rp C 
 L ; N 987 106 M 977 106 I 977 96 I 987 96 I C 
K 
: N 516 108 71 8 rp C 
 L ; N 587 116 M 515 116 I 515 107 I 587 107 I C 
K 
: N 600 108 8 8 rp C 
 L ; N 608 116 M 599 116 I 599 107 I 608 107 I C 
K 
: N 621 108 8 9 rp C 
 L ; N 629 117 M 620 117 I 620 107 I 629 107 I C 
K 
: N 642 108 8 8 rp C 
 L ; N 650 116 M 641 116 I 641 107 I 650 107 I C 
K 
: N 663 108 8 9 rp C 
 L ; N 671 117 M 662 117 I 662 107 I 671 107 I C 
K 
: N 684 108 8 8 rp C 
 L ; N 692 116 M 683 116 I 683 107 I 692 107 I C 
K 
: N 705 108 8 8 rp C 
 L ; N 713 116 M 704 116 I 704 107 I 713 107 I C 
K 
: N 726 108 8 9 rp C 
 L ; N 734 117 M 725 117 I 725 107 I 734 107 I C 
K 
: N 747 108 8 8 rp C 
 L ; N 755 116 M 746 116 I 746 107 I 755 107 I C 
K 
: N 768 108 8 9 rp C 
 L ; N 776 117 M 767 117 I 767 107 I 776 107 I C 
K 
: N 789 108 8 9 rp C 
 L ; N 797 117 M 788 117 I 788 107 I 797 107 I C 
K 
: N 810 108 9 8 rp C 
 L ; N 819 116 M 809 116 I 809 107 I 819 107 I C 
K 
: N 831 108 9 9 rp C 
 L ; N 840 117 M 830 117 I 830 107 I 840 107 I C 
K 
: N 852 108 9 8 rp C 
 L ; N 861 116 M 851 116 I 851 107 I 861 107 I C 
K 
: N 873 108 9 9 rp C 
 L ; N 882 117 M 872 117 I 872 107 I 882 107 I C 
K 
: N 894 108 9 8 rp C 
 L ; N 903 116 M 893 116 I 893 107 I 903 107 I C 
K 
: N 915 108 72 8 rp C 
 L ; N 987 116 M 914 116 I 914 107 I 987 107 I C 
K 
: N 610 118 19 9 rp C 
 L ; N 629 127 M 609 127 I 609 117 I 629 117 I C 
K 
: N 631 118 9 9 rp C 
 L ; N 640 127 M 630 127 I 630 117 I 640 117 I C 
K 
: N 663 118 9 9 rp C 
 L ; N 672 127 M 662 127 I 662 117 I 672 117 I C 
K 
: N 673 118 9 9 rp C 
 L ; N 682 127 M 672 127 I 672 117 I 682 117 I C 
K 
: N 715 118 9 9 rp C 
 L ; N 724 127 M 714 127 I 714 117 I 724 117 I C 
K 
: N 726 118 8 9 rp C 
 L ; N 734 127 M 725 127 I 725 117 I 734 117 I C 
K 
: N 768 118 8 9 rp C 
 L ; N 776 127 M 767 127 I 767 117 I 776 117 I C 
K 
: N 789 118 19 9 rp C 
 L ; N 808 127 M 788 127 I 788 117 I 808 117 I C 
K 
: N 831 118 9 9 rp C 
 L ; N 840 127 M 830 127 I 830 117 I 840 117 I C 
K 
: N 841 118 9 9 rp C 
 L ; N 850 127 M 840 127 I 840 117 I 850 117 I C 
K 
: N 863 118 9 9 rp C 
 L ; N 872 127 M 862 127 I 862 117 I 872 117 I C 
K 
: N 873 118 9 9 rp C 
 L ; N 882 127 M 872 127 I 872 117 I 882 117 I C 
K 
: N 516 129 8 8 rp C 
 L ; N 524 137 M 515 137 I 515 128 I 524 128 I C 
K 
: N 547 129 9 9 rp C 
 L ; N 556 138 M 546 138 I 546 128 I 556 128 I C 
K 
: N 568 129 19 8 rp C 
 L ; N 587 137 M 567 137 I 567 128 I 587 128 I C 
K 
: N 600 129 29 9 rp C 
 L ; N 629 138 M 599 138 I 599 128 I 629 128 I C 
K 
: N 642 129 9 8 rp C 
 L ; N 651 137 M 641 137 I 641 128 I 651 128 I C 
K 
: N 652 129 9 9 rp C 
 L ; N 661 138 M 651 138 I 651 128 I 661 128 I C 
K 
: N 673 129 19 9 rp C 
 L ; N 692 138 M 672 138 I 672 128 I 692 128 I C 
K 
: N 694 129 19 8 rp C 
 L ; N 713 137 M 693 137 I 693 128 I 713 128 I C 
K 
: N 726 129 40 9 rp C 
 L ; N 766 138 M 725 138 I 725 128 I 766 128 I C 
K 
: N 767 129 9 8 rp C 
 L ; N 776 137 M 766 137 I 766 128 I 776 128 I C 
K 
: N 789 129 19 8 rp C 
 L ; N 808 137 M 788 137 I 788 128 I 808 128 I C 
K 
: N 821 129 19 9 rp C 
 L ; N 840 138 M 820 138 I 820 128 I 840 128 I C 
K 
: N 852 129 9 8 rp C 
 L ; N 861 137 M 851 137 I 851 128 I 861 128 I C 
K 
: N 873 129 20 8 rp C 
 L ; N 893 137 M 872 137 I 872 128 I 893 128 I C 
K 
: N 894 129 9 9 rp C 
 L ; N 903 138 M 893 138 I 893 128 I 903 128 I C 
K 
: N 904 129 9 8 rp C 
 L ; N 913 137 M 903 137 I 903 128 I 913 128 I C 
K 
: N 926 129 8 8 rp C 
 L ; N 934 137 M 925 137 I 925 128 I 934 128 I C 
K 
: N 537 139 9 9 rp C 
 L ; N 546 148 M 536 148 I 536 138 I 546 138 I C 
K 
: N 547 139 9 9 rp C 
 L ; N 556 148 M 546 148 I 546 138 I 556 138 I C 
K 
: N 600 139 8 9 rp C 
 L ; N 608 148 M 599 148 I 599 138 I 608 138 I C 
K 
: N 610 139 9 9 rp C 
 L ; N 619 148 M 609 148 I 609 138 I 619 138 I C 
K 
: N 621 139 19 9 rp C 
 L ; N 640 148 M 620 148 I 620 138 I 640 138 I C 
K 
: N 652 139 9 9 rp C 
 L ; N 661 148 M 651 148 I 651 138 I 661 138 I C 
K 
: N 663 139 8 9 rp C 
 L ; N 671 148 M 662 148 I 662 138 I 671 138 I C 
K 
: N 673 139 9 9 rp C 
 L ; N 682 148 M 672 148 I 672 138 I 682 138 I C 
K 
: N 684 139 8 9 rp C 
 L ; N 692 148 M 683 148 I 683 138 I 692 138 I C 
K 
: N 726 139 19 9 rp C 
 L ; N 745 148 M 725 148 I 725 138 I 745 138 I C 
K 
: N 746 139 10 9 rp C 
 L ; N 756 148 M 745 148 I 745 138 I 756 138 I C 
K 
: N 757 139 9 9 rp C 
 L ; N 766 148 M 756 148 I 756 138 I 766 138 I C 
K 
: N 778 139 9 9 rp C 
 L ; N 787 148 M 777 148 I 777 138 I 787 138 I C 
K 
: N 810 139 19 9 rp C 
 L ; N 829 148 M 809 148 I 809 138 I 829 138 I C 
K 
: N 831 139 9 9 rp C 
 L ; N 840 148 M 830 148 I 830 138 I 840 138 I C 
K 
: N 863 139 8 9 rp C 
 L ; N 871 148 M 862 148 I 862 138 I 871 138 I C 
K 
: N 894 139 9 9 rp C 
 L ; N 903 148 M 893 148 I 893 138 I 903 138 I C 
K 
: N 968 139 8 9 rp C 
 L ; N 976 148 M 967 148 I 967 138 I 976 138 I C 
K 
: N 516 150 9 8 rp C 
 L ; N 525 158 M 515 158 I 515 149 I 525 149 I C 
K 
: N 526 150 9 9 rp C 
 L ; N 535 159 M 525 159 I 525 149 I 535 149 I C 
K 
: N 547 150 9 8 rp C 
 L ; N 556 158 M 546 158 I 546 149 I 556 149 I C 
K 
: N 579 150 8 8 rp C 
 L ; N 587 158 M 578 158 I 578 149 I 587 149 I C 
K 
: N 600 150 8 8 rp C 
 L ; N 608 158 M 599 158 I 599 149 I 608 149 I C 
K 
: N 621 150 19 8 rp C 
 L ; N 640 158 M 620 158 I 620 149 I 640 149 I C 
K 
: N 642 150 8 9 rp C 
 L ; N 650 159 M 641 159 I 641 149 I 650 149 I C 
K 
: N 663 150 8 9 rp C 
 L ; N 671 159 M 662 159 I 662 149 I 671 149 I C 
K 
: N 684 150 8 9 rp C 
 L ; N 692 159 M 683 159 I 683 149 I 692 149 I C 
K 
: N 715 150 20 8 rp C 
 L ; N 735 158 M 714 158 I 714 149 I 735 149 I C 
K 
: N 736 150 9 9 rp C 
 L ; N 745 159 M 735 159 I 735 149 I 745 149 I C 
K 
: N 757 150 9 8 rp C 
 L ; N 766 158 M 756 158 I 756 149 I 766 149 I C 
K 
: N 789 150 8 8 rp C 
 L ; N 797 158 M 788 158 I 788 149 I 797 149 I C 
K 
: N 810 150 9 8 rp C 
 L ; N 819 158 M 809 158 I 809 149 I 819 149 I C 
K 
: N 821 150 8 9 rp C 
 L ; N 829 159 M 820 159 I 820 149 I 829 149 I C 
K 
: N 852 150 9 8 rp C 
 L ; N 861 158 M 851 158 I 851 149 I 861 149 I C 
K 
: N 884 150 9 8 rp C 
 L ; N 893 158 M 883 158 I 883 149 I 893 149 I C 
K 
: N 894 150 9 9 rp C 
 L ; N 903 159 M 893 159 I 893 149 I 903 149 I C 
K 
: N 915 150 9 9 rp C 
 L ; N 924 159 M 914 159 I 914 149 I 924 149 I C 
K 
: N 936 150 9 9 rp C 
 L ; N 945 159 M 935 159 I 935 149 I 945 149 I C 
K 
: N 957 150 9 9 rp C 
 L ; N 966 159 M 956 159 I 956 149 I 966 149 I C 
K 
: N 526 160 9 9 rp C 
 L ; N 535 169 M 525 169 I 525 159 I 535 159 I C 
K 
: N 568 160 9 9 rp C 
 L ; N 577 169 M 567 169 I 567 159 I 577 159 I C 
K 
: N 642 160 8 9 rp C 
 L ; N 650 169 M 641 169 I 641 159 I 650 159 I C 
K 
: N 663 160 19 9 rp C 
 L ; N 682 169 M 662 169 I 662 159 I 682 159 I C 
K 
: N 683 160 9 9 rp C 
 L ; N 692 169 M 682 169 I 682 159 I 692 159 I C 
K 
: N 705 160 8 9 rp C 
 L ; N 713 169 M 704 169 I 704 159 I 713 159 I C 
K 
: N 736 160 9 9 rp C 
 L ; N 745 169 M 735 169 I 735 159 I 745 159 I C 
K 
: N 747 160 8 9 rp C 
 L ; N 755 169 M 746 169 I 746 159 I 755 159 I C 
K 
: N 768 160 8 9 rp C 
 L ; N 776 169 M 767 169 I 767 159 I 776 159 I C 
K 
: N 799 160 9 9 rp C 
 L ; N 808 169 M 798 169 I 798 159 I 808 159 I C 
K 
: N 821 160 8 9 rp C 
 L ; N 829 169 M 820 169 I 820 159 I 829 159 I C 
K 
: N 863 160 8 9 rp C 
 L ; N 871 169 M 862 169 I 862 159 I 871 159 I C 
K 
: N 894 160 9 9 rp C 
 L ; N 903 169 M 893 169 I 893 159 I 903 159 I C 
K 
: N 904 160 10 9 rp C 
 L ; N 914 169 M 903 169 I 903 159 I 914 159 I C 
K 
: N 915 160 9 9 rp C 
 L ; N 924 169 M 914 169 I 914 159 I 924 159 I C 
K 
: N 925 160 41 9 rp C 
 L ; N 966 169 M 924 169 I 924 159 I 966 159 I C 
K 
: N 968 160 8 9 rp C 
 L ; N 976 169 M 967 169 I 967 159 I 976 159 I C 
K 
: N 526 171 9 9 rp C 
 L ; N 535 180 M 525 180 I 525 170 I 535 170 I C 
K 
: N 547 171 19 9 rp C 
 L ; N 566 180 M 546 180 I 546 170 I 566 170 I C 
K 
: N 579 171 8 8 rp C 
 L ; N 587 179 M 578 179 I 578 170 I 587 170 I C 
K 
: N 642 171 8 8 rp C 
 L ; N 650 179 M 641 179 I 641 170 I 650 170 I C 
K 
: N 663 171 19 8 rp C 
 L ; N 682 179 M 662 179 I 662 170 I 682 170 I C 
K 
: N 705 171 8 8 rp C 
 L ; N 713 179 M 704 179 I 704 170 I 713 170 I C 
K 
: N 747 171 8 9 rp C 
 L ; N 755 180 M 746 180 I 746 170 I 755 170 I C 
K 
: N 757 171 9 8 rp C 
 L ; N 766 179 M 756 179 I 756 170 I 766 170 I C 
K 
: N 778 171 19 9 rp C 
 L ; N 797 180 M 777 180 I 777 170 I 797 170 I C 
K 
: N 810 171 9 9 rp C 
 L ; N 819 180 M 809 180 I 809 170 I 819 170 I C 
K 
: N 820 171 10 8 rp C 
 L ; N 830 179 M 819 179 I 819 170 I 830 170 I C 
K 
: N 831 171 9 9 rp C 
 L ; N 840 180 M 830 180 I 830 170 I 840 170 I C 
K 
: N 863 171 30 8 rp C 
 L ; N 893 179 M 862 179 I 862 170 I 893 170 I C 
K 
: N 894 171 9 9 rp C 
 L ; N 903 180 M 893 180 I 893 170 I 903 170 I C 
K 
: N 915 171 9 9 rp C 
 L ; N 924 180 M 914 180 I 914 170 I 924 170 I C 
K 
: N 968 171 8 9 rp C 
 L ; N 976 180 M 967 180 I 967 170 I 976 170 I C 
K 
: N 516 181 19 9 rp C 
 L ; N 535 190 M 515 190 I 515 180 I 535 180 I C 
K 
: N 547 181 9 9 rp C 
 L ; N 556 190 M 546 190 I 546 180 I 556 180 I C 
K 
: N 557 181 10 9 rp C 
 L ; N 567 190 M 556 190 I 556 180 I 567 180 I C 
K 
: N 568 181 9 9 rp C 
 L ; N 577 190 M 567 190 I 567 180 I 577 180 I C 
K 
: N 621 181 9 9 rp C 
 L ; N 630 190 M 620 190 I 620 180 I 630 180 I C 
K 
: N 631 181 9 9 rp C 
 L ; N 640 190 M 630 190 I 630 180 I 640 180 I C 
K 
: N 652 181 9 9 rp C 
 L ; N 661 190 M 651 190 I 651 180 I 661 180 I C 
K 
: N 684 181 19 9 rp C 
 L ; N 703 190 M 683 190 I 683 180 I 703 180 I C 
K 
: N 715 181 9 9 rp C 
 L ; N 724 190 M 714 190 I 714 180 I 724 180 I C 
K 
: N 726 181 29 9 rp C 
 L ; N 755 190 M 725 190 I 725 180 I 755 180 I C 
K 
: N 778 181 9 9 rp C 
 L ; N 787 190 M 777 190 I 777 180 I 787 180 I C 
K 
: N 788 181 10 9 rp C 
 L ; N 798 190 M 787 190 I 787 180 I 798 180 I C 
K 
: N 799 181 9 9 rp C 
 L ; N 808 190 M 798 190 I 798 180 I 808 180 I C 
K 
: N 810 181 9 9 rp C 
 L ; N 819 190 M 809 190 I 809 180 I 819 180 I C 
K 
: N 831 181 9 9 rp C 
 L ; N 840 190 M 830 190 I 830 180 I 840 180 I C 
K 
: N 894 181 9 9 rp C 
 L ; N 903 190 M 893 190 I 893 180 I 903 180 I C 
K 
: N 904 181 10 9 rp C 
 L ; N 914 190 M 903 190 I 903 180 I 914 180 I C 
K 
: N 915 181 9 9 rp C 
 L ; N 924 190 M 914 190 I 914 180 I 924 180 I C 
K 
: N 936 181 9 9 rp C 
 L ; N 945 190 M 935 190 I 935 180 I 945 180 I C 
K 
: N 957 181 9 9 rp C 
 L ; N 966 190 M 956 190 I 956 180 I 966 180 I C 
K 
: N 967 181 10 9 rp C 
 L ; N 977 190 M 966 190 I 966 180 I 977 180 I C 
K 
: N 978 181 9 9 rp C 
 L ; N 987 190 M 977 190 I 977 180 I 987 180 I C 
K 
: N 516 192 30 8 rp C 
 L ; N 546 200 M 515 200 I 515 191 I 546 191 I C 
K 
: N 547 192 9 9 rp C 
 L ; N 556 201 M 546 201 I 546 191 I 556 191 I C 
K 
: N 568 192 9 9 rp C 
 L ; N 577 201 M 567 201 I 567 191 I 577 191 I C 
K 
: N 578 192 9 8 rp C 
 L ; N 587 200 M 577 200 I 577 191 I 587 191 I C 
K 
: N 600 192 8 9 rp C 
 L ; N 608 201 M 599 201 I 599 191 I 608 191 I C 
K 
: N 631 192 9 9 rp C 
 L ; N 640 201 M 630 201 I 630 191 I 640 191 I C 
K 
: N 652 192 9 9 rp C 
 L ; N 661 201 M 651 201 I 651 191 I 661 191 I C 
K 
: N 673 192 9 9 rp C 
 L ; N 682 201 M 672 201 I 672 191 I 682 191 I C 
K 
: N 705 192 8 8 rp C 
 L ; N 713 200 M 704 200 I 704 191 I 713 191 I C 
K 
: N 726 192 19 9 rp C 
 L ; N 745 201 M 725 201 I 725 191 I 745 191 I C 
K 
: N 746 192 9 8 rp C 
 L ; N 755 200 M 745 200 I 745 191 I 755 191 I C 
K 
: N 778 192 9 9 rp C 
 L ; N 787 201 M 777 201 I 777 191 I 787 191 I C 
K 
: N 799 192 9 9 rp C 
 L ; N 808 201 M 798 201 I 798 191 I 808 191 I C 
K 
: N 821 192 9 8 rp C 
 L ; N 830 200 M 820 200 I 820 191 I 830 191 I C 
K 
: N 831 192 19 9 rp C 
 L ; N 850 201 M 830 201 I 830 191 I 850 191 I C 
K 
: N 852 192 9 8 rp C 
 L ; N 861 200 M 851 200 I 851 191 I 861 191 I C 
K 
: N 873 192 9 8 rp C 
 L ; N 882 200 M 872 200 I 872 191 I 882 191 I C 
K 
: N 894 192 9 8 rp C 
 L ; N 903 200 M 893 200 I 893 191 I 903 191 I C 
K 
: N 915 192 9 8 rp C 
 L ; N 924 200 M 914 200 I 914 191 I 924 191 I C 
K 
: N 926 192 8 9 rp C 
 L ; N 934 201 M 925 201 I 925 191 I 934 191 I C 
K 
: N 957 192 9 9 rp C 
 L ; N 966 201 M 956 201 I 956 191 I 966 191 I C 
K 
: N 978 192 9 8 rp C 
 L ; N 987 200 M 977 200 I 977 191 I 987 191 I C 
K 
: N 547 202 9 9 rp C 
 L ; N 556 211 M 546 211 I 546 201 I 556 201 I C 
K 
: N 568 202 9 9 rp C 
 L ; N 577 211 M 567 211 I 567 201 I 577 201 I C 
K 
: N 600 202 8 9 rp C 
 L ; N 608 211 M 599 211 I 599 201 I 608 201 I C 
K 
: N 631 202 9 9 rp C 
 L ; N 640 211 M 630 211 I 630 201 I 640 201 I C 
K 
: N 642 202 8 9 rp C 
 L ; N 650 211 M 641 211 I 641 201 I 650 201 I C 
K 
: N 652 202 20 9 rp C 
 L ; N 672 211 M 651 211 I 651 201 I 672 201 I C 
K 
: N 673 202 19 9 rp C 
 L ; N 692 211 M 672 211 I 672 201 I 692 201 I C 
K 
: N 726 202 19 9 rp C 
 L ; N 745 211 M 725 211 I 725 201 I 745 201 I C 
K 
: N 778 202 9 9 rp C 
 L ; N 787 211 M 777 211 I 777 201 I 787 201 I C 
K 
: N 799 202 10 9 rp C 
 L ; N 809 211 M 798 211 I 798 201 I 809 201 I C 
K 
: N 810 202 9 9 rp C 
 L ; N 819 211 M 809 211 I 809 201 I 819 201 I C 
K 
: N 831 202 19 9 rp C 
 L ; N 850 211 M 830 211 I 830 201 I 850 201 I C 
K 
: N 863 202 8 9 rp C 
 L ; N 871 211 M 862 211 I 862 201 I 871 201 I C 
K 
: N 884 202 8 9 rp C 
 L ; N 892 211 M 883 211 I 883 201 I 892 201 I C 
K 
: N 926 202 8 9 rp C 
 L ; N 934 211 M 925 211 I 925 201 I 934 201 I C 
K 
: N 947 202 19 9 rp C 
 L ; N 966 211 M 946 211 I 946 201 I 966 201 I C 
K 
: N 516 213 8 9 rp C 
 L ; N 524 222 M 515 222 I 515 212 I 524 212 I C 
K 
: N 537 213 8 9 rp C 
 L ; N 545 222 M 536 222 I 536 212 I 545 212 I C 
K 
: N 547 213 9 8 rp C 
 L ; N 556 221 M 546 221 I 546 212 I 556 212 I C 
K 
: N 579 213 8 8 rp C 
 L ; N 587 221 M 578 221 I 578 212 I 587 212 I C 
K 
: N 642 213 8 8 rp C 
 L ; N 650 221 M 641 221 I 641 212 I 650 212 I C 
K 
: N 673 213 20 8 rp C 
 L ; N 693 221 M 672 221 I 672 212 I 693 212 I C 
K 
: N 694 213 9 9 rp C 
 L ; N 703 222 M 693 222 I 693 212 I 703 212 I C 
K 
: N 726 213 8 9 rp C 
 L ; N 734 222 M 725 222 I 725 212 I 734 212 I C 
K 
: N 736 213 9 8 rp C 
 L ; N 745 221 M 735 221 I 735 212 I 745 212 I C 
K 
: N 757 213 19 8 rp C 
 L ; N 776 221 M 756 221 I 756 212 I 776 212 I C 
K 
: N 789 213 8 8 rp C 
 L ; N 797 221 M 788 221 I 788 212 I 797 212 I C 
K 
: N 810 213 9 8 rp C 
 L ; N 819 221 M 809 221 I 809 212 I 819 212 I C 
K 
: N 831 213 9 8 rp C 
 L ; N 840 221 M 830 221 I 830 212 I 840 212 I C 
K 
: N 842 213 8 9 rp C 
 L ; N 850 222 M 841 222 I 841 212 I 850 212 I C 
K 
: N 852 213 9 8 rp C 
 L ; N 861 221 M 851 221 I 851 212 I 861 212 I C 
K 
: N 884 213 8 9 rp C 
 L ; N 892 222 M 883 222 I 883 212 I 892 212 I C 
K 
: N 894 213 9 8 rp C 
 L ; N 903 221 M 893 221 I 893 212 I 903 212 I C 
K 
: N 915 213 9 8 rp C 
 L ; N 924 221 M 914 221 I 914 212 I 924 212 I C 
K 
: N 936 213 9 8 rp C 
 L ; N 945 221 M 935 221 I 935 212 I 945 212 I C 
K 
: N 968 213 19 8 rp C 
 L ; N 987 221 M 967 221 I 967 212 I 987 212 I C 
K 
: N 516 223 8 10 rp C 
 L ; N 524 233 M 515 233 I 515 222 I 524 222 I C 
K 
: N 537 223 8 9 rp C 
 L ; N 545 232 M 536 232 I 536 222 I 545 222 I C 
K 
: N 568 223 9 10 rp C 
 L ; N 577 233 M 567 233 I 567 222 I 577 222 I C 
K 
: N 589 223 9 10 rp C 
 L ; N 598 233 M 588 233 I 588 222 I 598 222 I C 
K 
: N 599 223 10 9 rp C 
 L ; N 609 232 M 598 232 I 598 222 I 609 222 I C 
K 
: N 610 223 9 10 rp C 
 L ; N 619 233 M 609 233 I 609 222 I 619 222 I C 
K 
: N 652 223 9 9 rp C 
 L ; N 661 232 M 651 232 I 651 222 I 661 222 I C 
K 
: N 694 223 9 10 rp C 
 L ; N 703 233 M 693 233 I 693 222 I 703 222 I C 
K 
: N 726 223 8 10 rp C 
 L ; N 734 233 M 725 233 I 725 222 I 734 222 I C 
K 
: N 778 223 9 10 rp C 
 L ; N 787 233 M 777 233 I 777 222 I 787 222 I C 
K 
: N 842 223 8 9 rp C 
 L ; N 850 232 M 841 232 I 841 222 I 850 222 I C 
K 
: N 863 223 8 10 rp C 
 L ; N 871 233 M 862 233 I 862 222 I 871 222 I C 
K 
: N 873 223 19 9 rp C 
 L ; N 892 232 M 872 232 I 872 222 I 892 222 I C 
K 
: N 905 223 8 9 rp C 
 L ; N 913 232 M 904 232 I 904 222 I 913 222 I C 
K 
: N 516 234 19 9 rp C 
 L ; N 535 243 M 515 243 I 515 233 I 535 233 I C 
K 
: N 547 234 9 9 rp C 
 L ; N 556 243 M 546 243 I 546 233 I 556 233 I C 
K 
: N 558 234 19 9 rp C 
 L ; N 577 243 M 557 243 I 557 233 I 577 233 I C 
K 
: N 578 234 20 9 rp C 
 L ; N 598 243 M 577 243 I 577 233 I 598 233 I C 
K 
: N 610 234 9 9 rp C 
 L ; N 619 243 M 609 243 I 609 233 I 619 233 I C 
K 
: N 642 234 8 9 rp C 
 L ; N 650 243 M 641 243 I 641 233 I 650 233 I C 
K 
: N 663 234 8 9 rp C 
 L ; N 671 243 M 662 243 I 662 233 I 671 233 I C 
K 
: N 673 234 40 9 rp C 
 L ; N 713 243 M 672 243 I 672 233 I 713 233 I C 
K 
: N 726 234 8 9 rp C 
 L ; N 734 243 M 725 243 I 725 233 I 734 233 I C 
K 
: N 778 234 19 9 rp C 
 L ; N 797 243 M 777 243 I 777 233 I 797 233 I C 
K 
: N 821 234 8 9 rp C 
 L ; N 829 243 M 820 243 I 820 233 I 829 233 I C 
K 
: N 863 234 8 9 rp C 
 L ; N 871 243 M 862 243 I 862 233 I 871 233 I C 
K 
: N 894 234 9 9 rp C 
 L ; N 903 243 M 893 243 I 893 233 I 903 233 I C 
K 
: N 915 234 9 9 rp C 
 L ; N 924 243 M 914 243 I 914 233 I 924 233 I C 
K 
: N 947 234 19 9 rp C 
 L ; N 966 243 M 946 243 I 946 233 I 966 233 I C 
K 
: N 516 245 9 8 rp C 
 L ; N 525 253 M 515 253 I 515 244 I 525 244 I C 
K 
: N 526 245 9 9 rp C 
 L ; N 535 254 M 525 254 I 525 244 I 535 244 I C 
K 
: N 558 245 19 9 rp C 
 L ; N 577 254 M 557 254 I 557 244 I 577 244 I C 
K 
: N 610 245 9 8 rp C 
 L ; N 619 253 M 609 253 I 609 244 I 619 244 I C 
K 
: N 631 245 9 8 rp C 
 L ; N 640 253 M 630 253 I 630 244 I 640 244 I C 
K 
: N 663 245 8 9 rp C 
 L ; N 671 254 M 662 254 I 662 244 I 671 244 I C 
K 
: N 715 245 40 9 rp C 
 L ; N 755 254 M 714 254 I 714 244 I 755 244 I C 
K 
: N 799 245 9 9 rp C 
 L ; N 808 254 M 798 254 I 798 244 I 808 244 I C 
K 
: N 810 245 9 8 rp C 
 L ; N 819 253 M 809 253 I 809 244 I 819 244 I C 
K 
: N 831 245 9 9 rp C 
 L ; N 840 254 M 830 254 I 830 244 I 840 244 I C 
K 
: N 841 245 10 8 rp C 
 L ; N 851 253 M 840 253 I 840 244 I 851 244 I C 
K 
: N 852 245 9 9 rp C 
 L ; N 861 254 M 851 254 I 851 244 I 861 244 I C 
K 
: N 905 245 8 9 rp C 
 L ; N 913 254 M 904 254 I 904 244 I 913 244 I C 
K 
: N 947 245 9 8 rp C 
 L ; N 956 253 M 946 253 I 946 244 I 956 244 I C 
K 
: N 957 245 19 9 rp C 
 L ; N 976 254 M 956 254 I 956 244 I 976 244 I C 
K 
: N 526 255 9 9 rp C 
 L ; N 535 264 M 525 264 I 525 254 I 535 254 I C 
K 
: N 536 255 9 9 rp C 
 L ; N 545 264 M 535 264 I 535 254 I 545 254 I C 
K 
: N 558 255 8 9 rp C 
 L ; N 566 264 M 557 264 I 557 254 I 566 254 I C 
K 
: N 568 255 30 9 rp C 
 L ; N 598 264 M 567 264 I 567 254 I 598 254 I C 
K 
: N 600 255 8 9 rp C 
 L ; N 608 264 M 599 264 I 599 254 I 608 254 I C 
K 
: N 663 255 8 9 rp C 
 L ; N 671 264 M 662 264 I 662 254 I 671 254 I C 
K 
: N 684 255 8 9 rp C 
 L ; N 692 264 M 683 264 I 683 254 I 692 254 I C 
K 
: N 694 255 9 9 rp C 
 L ; N 703 264 M 693 264 I 693 254 I 703 254 I C 
K 
: N 715 255 19 9 rp C 
 L ; N 734 264 M 714 264 I 714 254 I 734 254 I C 
K 
: N 736 255 30 9 rp C 
 L ; N 766 264 M 735 264 I 735 254 I 766 254 I C 
K 
: N 768 255 19 9 rp C 
 L ; N 787 264 M 767 264 I 767 254 I 787 254 I C 
K 
: N 799 255 9 9 rp C 
 L ; N 808 264 M 798 264 I 798 254 I 808 254 I C 
K 
: N 831 255 9 9 rp C 
 L ; N 840 264 M 830 264 I 830 254 I 840 254 I C 
K 
: N 852 255 20 9 rp C 
 L ; N 872 264 M 851 264 I 851 254 I 872 254 I C 
K 
: N 873 255 9 9 rp C 
 L ; N 882 264 M 872 264 I 872 254 I 882 254 I C 
K 
: N 883 255 10 9 rp C 
 L ; N 893 264 M 882 264 I 882 254 I 893 254 I C 
K 
: N 894 255 9 9 rp C 
 L ; N 903 264 M 893 264 I 893 254 I 903 254 I C 
K 
: N 904 255 31 9 rp C 
 L ; N 935 264 M 903 264 I 903 254 I 935 254 I C 
K 
: N 936 255 9 9 rp C 
 L ; N 945 264 M 935 264 I 935 254 I 945 254 I C 
K 
: N 957 255 9 9 rp C 
 L ; N 966 264 M 956 264 I 956 254 I 966 254 I C 
K 
: N 968 255 19 9 rp C 
 L ; N 987 264 M 967 264 I 967 254 I 987 254 I C 
K 
: N 526 266 9 9 rp C 
 L ; N 535 275 M 525 275 I 525 265 I 535 265 I C 
K 
: N 547 266 9 8 rp C 
 L ; N 556 274 M 546 274 I 546 265 I 556 265 I C 
K 
: N 558 266 8 9 rp C 
 L ; N 566 275 M 557 275 I 557 265 I 566 265 I C 
K 
: N 600 266 19 9 rp C 
 L ; N 619 275 M 599 275 I 599 265 I 619 265 I C 
K 
: N 663 266 8 8 rp C 
 L ; N 671 274 M 662 274 I 662 265 I 671 265 I C 
K 
: N 684 266 8 8 rp C 
 L ; N 692 274 M 683 274 I 683 265 I 692 265 I C 
K 
: N 705 266 9 8 rp C 
 L ; N 714 274 M 704 274 I 704 265 I 714 265 I C 
K 
: N 715 266 19 9 rp C 
 L ; N 734 275 M 714 275 I 714 265 I 734 265 I C 
K 
: N 768 266 8 9 rp C 
 L ; N 776 275 M 767 275 I 767 265 I 776 265 I C 
K 
: N 778 266 9 8 rp C 
 L ; N 787 274 M 777 274 I 777 265 I 787 265 I C 
K 
: N 831 266 9 9 rp C 
 L ; N 840 275 M 830 275 I 830 265 I 840 265 I C 
K 
: N 873 266 9 8 rp C 
 L ; N 882 274 M 872 274 I 872 265 I 882 265 I C 
K 
: N 894 266 9 9 rp C 
 L ; N 903 275 M 893 275 I 893 265 I 903 265 I C 
K 
: N 936 266 9 9 rp C 
 L ; N 945 275 M 935 275 I 935 265 I 945 265 I C 
K 
: N 968 266 8 9 rp C 
 L ; N 976 275 M 967 275 I 967 265 I 976 265 I C 
K 
: N 978 266 9 8 rp C 
 L ; N 987 274 M 977 274 I 977 265 I 987 265 I C 
K 
: N 526 276 9 9 rp C 
 L ; N 535 285 M 525 285 I 525 275 I 535 275 I C 
K 
: N 536 276 9 9 rp C 
 L ; N 545 285 M 535 285 I 535 275 I 545 275 I C 
K 
: N 558 276 8 9 rp C 
 L ; N 566 285 M 557 285 I 557 275 I 566 275 I C 
K 
: N 579 276 8 9 rp C 
 L ; N 587 285 M 578 285 I 578 275 I 587 275 I C 
K 
: N 600 276 8 9 rp C 
 L ; N 608 285 M 599 285 I 599 275 I 608 275 I C 
K 
: N 610 276 19 9 rp C 
 L ; N 629 285 M 609 285 I 609 275 I 629 275 I C 
K 
: N 642 276 19 9 rp C 
 L ; N 661 285 M 641 285 I 641 275 I 661 275 I C 
K 
: N 694 276 9 9 rp C 
 L ; N 703 285 M 693 285 I 693 275 I 703 275 I C 
K 
: N 715 276 9 9 rp C 
 L ; N 724 285 M 714 285 I 714 275 I 724 275 I C 
K 
: N 726 276 8 9 rp C 
 L ; N 734 285 M 725 285 I 725 275 I 734 275 I C 
K 
: N 747 276 8 9 rp C 
 L ; N 755 285 M 746 285 I 746 275 I 755 275 I C 
K 
: N 768 276 8 9 rp C 
 L ; N 776 285 M 767 285 I 767 275 I 776 275 I C 
K 
: N 789 276 8 9 rp C 
 L ; N 797 285 M 788 285 I 788 275 I 797 275 I C 
K 
: N 810 276 9 9 rp C 
 L ; N 819 285 M 809 285 I 809 275 I 819 275 I C 
K 
: N 831 276 19 9 rp C 
 L ; N 850 285 M 830 285 I 830 275 I 850 275 I C 
K 
: N 894 276 9 9 rp C 
 L ; N 903 285 M 893 285 I 893 275 I 903 275 I C 
K 
: N 915 276 9 9 rp C 
 L ; N 924 285 M 914 285 I 914 275 I 924 275 I C 
K 
: N 936 276 9 9 rp C 
 L ; N 945 285 M 935 285 I 935 275 I 945 275 I C 
K 
: N 957 276 9 9 rp C 
 L ; N 966 285 M 956 285 I 956 275 I 966 275 I C 
K 
: N 968 276 8 9 rp C 
 L ; N 976 285 M 967 285 I 967 275 I 976 275 I C 
K 
: N 526 287 9 9 rp C 
 L ; N 535 296 M 525 296 I 525 286 I 535 286 I C 
K 
: N 547 287 19 9 rp C 
 L ; N 566 296 M 546 296 I 546 286 I 566 286 I C 
K 
: N 600 287 8 9 rp C 
 L ; N 608 296 M 599 296 I 599 286 I 608 286 I C 
K 
: N 631 287 9 8 rp C 
 L ; N 640 295 M 630 295 I 630 286 I 640 286 I C 
K 
: N 663 287 9 8 rp C 
 L ; N 672 295 M 662 295 I 662 286 I 672 286 I C 
K 
: N 673 287 9 9 rp C 
 L ; N 682 296 M 672 296 I 672 286 I 682 286 I C 
K 
: N 705 287 8 8 rp C 
 L ; N 713 295 M 704 295 I 704 286 I 713 286 I C 
K 
: N 726 287 8 9 rp C 
 L ; N 734 296 M 725 296 I 725 286 I 734 286 I C 
K 
: N 768 287 8 9 rp C 
 L ; N 776 296 M 767 296 I 767 286 I 776 286 I C 
K 
: N 778 287 9 8 rp C 
 L ; N 787 295 M 777 295 I 777 286 I 787 286 I C 
K 
: N 821 287 19 9 rp C 
 L ; N 840 296 M 820 296 I 820 286 I 840 286 I C 
K 
: N 841 287 9 8 rp C 
 L ; N 850 295 M 840 295 I 840 286 I 850 286 I C 
K 
: N 873 287 9 8 rp C 
 L ; N 882 295 M 872 295 I 872 286 I 882 286 I C 
K 
: N 884 287 19 9 rp C 
 L ; N 903 296 M 883 296 I 883 286 I 903 286 I C 
K 
: N 936 287 9 9 rp C 
 L ; N 945 296 M 935 296 I 935 286 I 945 286 I C 
K 
: N 968 287 19 8 rp C 
 L ; N 987 295 M 967 295 I 967 286 I 987 286 I C 
K 
: N 516 297 72 9 rp C 
 L ; N 588 306 M 515 306 I 515 296 I 588 296 I C 
K 
: N 589 297 19 9 rp C 
 L ; N 608 306 M 588 306 I 588 296 I 608 296 I C 
K 
: N 610 297 9 9 rp C 
 L ; N 619 306 M 609 306 I 609 296 I 619 296 I C 
K 
: N 642 297 8 9 rp C 
 L ; N 650 306 M 641 306 I 641 296 I 650 296 I C 
K 
: N 673 297 9 9 rp C 
 L ; N 682 306 M 672 306 I 672 296 I 682 296 I C 
K 
: N 694 297 9 9 rp C 
 L ; N 703 306 M 693 306 I 693 296 I 703 296 I C 
K 
: N 726 297 9 9 rp C 
 L ; N 735 306 M 725 306 I 725 296 I 735 296 I C 
K 
: N 736 297 19 9 rp C 
 L ; N 755 306 M 735 306 I 735 296 I 755 296 I C 
K 
: N 757 297 19 9 rp C 
 L ; N 776 306 M 756 306 I 756 296 I 776 296 I C 
K 
: N 789 297 30 9 rp C 
 L ; N 819 306 M 788 306 I 788 296 I 819 296 I C 
K 
: N 821 297 19 9 rp C 
 L ; N 840 306 M 820 306 I 820 296 I 840 296 I C 
K 
: N 884 297 8 9 rp C 
 L ; N 892 306 M 883 306 I 883 296 I 892 296 I C 
K 
: N 894 297 30 9 rp C 
 L ; N 924 306 M 893 306 I 893 296 I 924 296 I C 
K 
: N 926 297 19 9 rp C 
 L ; N 945 306 M 925 306 I 925 296 I 945 296 I C 
K 
: N 957 297 9 9 rp C 
 L ; N 966 306 M 956 306 I 956 296 I 966 296 I C 
K 
: N 589 308 9 8 rp C 
 L ; N 598 316 M 588 316 I 588 307 I 598 307 I C 
K 
: N 600 308 8 9 rp C 
 L ; N 608 317 M 599 317 I 599 307 I 608 307 I C 
K 
: N 621 308 19 8 rp C 
 L ; N 640 316 M 620 316 I 620 307 I 640 307 I C 
K 
: N 642 308 8 9 rp C 
 L ; N 650 317 M 641 317 I 641 307 I 650 307 I C 
K 
: N 663 308 8 9 rp C 
 L ; N 671 317 M 662 317 I 662 307 I 671 307 I C 
K 
: N 684 308 19 9 rp C 
 L ; N 703 317 M 683 317 I 683 307 I 703 307 I C 
K 
: N 736 308 9 8 rp C 
 L ; N 745 316 M 735 316 I 735 307 I 745 307 I C 
K 
: N 747 308 8 9 rp C 
 L ; N 755 317 M 746 317 I 746 307 I 755 307 I C 
K 
: N 821 308 29 8 rp C 
 L ; N 850 316 M 820 316 I 820 307 I 850 307 I C 
K 
: N 863 308 29 9 rp C 
 L ; N 892 317 M 862 317 I 862 307 I 892 307 I C 
K 
: N 926 308 19 9 rp C 
 L ; N 945 317 M 925 317 I 925 307 I 945 307 I C 
K 
: N 957 308 9 9 rp C 
 L ; N 966 317 M 956 317 I 956 307 I 966 307 I C 
K 
: N 967 308 20 8 rp C 
 L ; N 987 316 M 966 316 I 966 307 I 987 307 I C 
K 
: N 516 318 8 9 rp C 
 L ; N 524 327 M 515 327 I 515 317 I 524 317 I C 
K 
: N 547 318 9 9 rp C 
 L ; N 556 327 M 546 327 I 546 317 I 556 317 I C 
K 
: N 557 318 10 9 rp C 
 L ; N 567 327 M 556 327 I 556 317 I 567 317 I C 
K 
: N 568 318 9 9 rp C 
 L ; N 577 327 M 567 327 I 567 317 I 577 317 I C 
K 
: N 578 318 9 9 rp C 
 L ; N 587 327 M 577 327 I 577 317 I 587 317 I C 
K 
: N 600 318 19 9 rp C 
 L ; N 619 327 M 599 327 I 599 317 I 619 317 I C 
K 
: N 642 318 8 9 rp C 
 L ; N 650 327 M 641 327 I 641 317 I 650 317 I C 
K 
: N 663 318 8 9 rp C 
 L ; N 671 327 M 662 327 I 662 317 I 671 317 I C 
K 
: N 684 318 9 9 rp C 
 L ; N 693 327 M 683 327 I 683 317 I 693 317 I C 
K 
: N 694 318 19 9 rp C 
 L ; N 713 327 M 693 327 I 693 317 I 713 317 I C 
K 
: N 747 318 9 9 rp C 
 L ; N 756 327 M 746 327 I 746 317 I 756 317 I C 
K 
: N 757 318 9 9 rp C 
 L ; N 766 327 M 756 327 I 756 317 I 766 317 I C 
K 
: N 778 318 9 9 rp C 
 L ; N 787 327 M 777 327 I 777 317 I 787 317 I C 
K 
: N 863 318 8 9 rp C 
 L ; N 871 327 M 862 327 I 862 317 I 871 317 I C 
K 
: N 873 318 30 9 rp C 
 L ; N 903 327 M 872 327 I 872 317 I 903 317 I C 
K 
: N 915 318 30 9 rp C 
 L ; N 945 327 M 914 327 I 914 317 I 945 317 I C 
K 
: N 957 318 9 9 rp C 
 L ; N 966 327 M 956 327 I 956 317 I 966 317 I C 
K 
: N 526 329 9 8 rp C 
 L ; N 535 337 M 525 337 I 525 328 I 535 328 I C 
K 
: N 537 329 19 9 rp C 
 L ; N 556 338 M 536 338 I 536 328 I 556 328 I C 
K 
: N 568 329 9 8 rp C 
 L ; N 577 337 M 567 337 I 567 328 I 577 328 I C 
K 
: N 694 329 19 9 rp C 
 L ; N 713 338 M 693 338 I 693 328 I 713 328 I C 
K 
: N 726 329 8 8 rp C 
 L ; N 734 337 M 725 337 I 725 328 I 734 328 I C 
K 
: N 757 329 9 8 rp C 
 L ; N 766 337 M 756 337 I 756 328 I 766 328 I C 
K 
: N 768 329 8 9 rp C 
 L ; N 776 338 M 767 338 I 767 328 I 776 328 I C 
K 
: N 789 329 30 9 rp C 
 L ; N 819 338 M 788 338 I 788 328 I 819 328 I C 
K 
: N 831 329 9 9 rp C 
 L ; N 840 338 M 830 338 I 830 328 I 840 328 I C 
K 
: N 852 329 9 8 rp C 
 L ; N 861 337 M 851 337 I 851 328 I 861 328 I C 
K 
: N 863 329 8 9 rp C 
 L ; N 871 338 M 862 338 I 862 328 I 871 328 I C 
K 
: N 915 329 20 8 rp C 
 L ; N 935 337 M 914 337 I 914 328 I 935 328 I C 
K 
: N 936 329 9 9 rp C 
 L ; N 945 338 M 935 338 I 935 328 I 945 328 I C 
K 
: N 968 329 9 8 rp C 
 L ; N 977 337 M 967 337 I 967 328 I 977 328 I C 
K 
: N 978 329 9 9 rp C 
 L ; N 987 338 M 977 338 I 977 328 I 987 328 I C 
K 
: N 537 339 19 9 rp C 
 L ; N 556 348 M 536 348 I 536 338 I 556 338 I C 
K 
: N 558 339 8 9 rp C 
 L ; N 566 348 M 557 348 I 557 338 I 566 338 I C 
K 
: N 579 339 19 9 rp C 
 L ; N 598 348 M 578 348 I 578 338 I 598 338 I C 
K 
: N 600 339 8 9 rp C 
 L ; N 608 348 M 599 348 I 599 338 I 608 338 I C 
K 
: N 610 339 9 9 rp C 
 L ; N 619 348 M 609 348 I 609 338 I 619 338 I C 
K 
: N 652 339 9 9 rp C 
 L ; N 661 348 M 651 348 I 651 338 I 661 338 I C 
K 
: N 663 339 19 9 rp C 
 L ; N 682 348 M 662 348 I 662 338 I 682 338 I C 
K 
: N 694 339 9 9 rp C 
 L ; N 703 348 M 693 348 I 693 338 I 703 338 I C 
K 
: N 704 339 10 9 rp C 
 L ; N 714 348 M 703 348 I 703 338 I 714 338 I C 
K 
: N 715 339 9 9 rp C 
 L ; N 724 348 M 714 348 I 714 338 I 724 338 I C 
K 
: N 747 339 8 9 rp C 
 L ; N 755 348 M 746 348 I 746 338 I 755 338 I C 
K 
: N 768 339 9 9 rp C 
 L ; N 777 348 M 767 348 I 767 338 I 777 338 I C 
K 
: N 778 339 9 9 rp C 
 L ; N 787 348 M 777 348 I 777 338 I 787 338 I C 
K 
: N 788 339 10 9 rp C 
 L ; N 798 348 M 787 348 I 787 338 I 798 338 I C 
K 
: N 799 339 9 9 rp C 
 L ; N 808 348 M 798 348 I 798 338 I 808 338 I C 
K 
: N 810 339 9 9 rp C 
 L ; N 819 348 M 809 348 I 809 338 I 819 338 I C 
K 
: N 831 339 19 9 rp C 
 L ; N 850 348 M 830 348 I 830 338 I 850 338 I C 
K 
: N 863 339 8 9 rp C 
 L ; N 871 348 M 862 348 I 862 338 I 871 338 I C 
K 
: N 884 339 8 9 rp C 
 L ; N 892 348 M 883 348 I 883 338 I 892 338 I C 
K 
: N 936 339 30 9 rp C 
 L ; N 966 348 M 935 348 I 935 338 I 966 338 I C 
K 
: N 978 339 9 9 rp C 
 L ; N 987 348 M 977 348 I 977 338 I 987 338 I C 
K 
: N 526 350 9 8 rp C 
 L ; N 535 358 M 525 358 I 525 349 I 535 349 I C 
K 
: N 558 350 8 8 rp C 
 L ; N 566 358 M 557 358 I 557 349 I 566 349 I C 
K 
: N 600 350 8 9 rp C 
 L ; N 608 359 M 599 359 I 599 349 I 608 349 I C 
K 
: N 621 350 8 8 rp C 
 L ; N 629 358 M 620 358 I 620 349 I 629 349 I C 
K 
: N 642 350 8 8 rp C 
 L ; N 650 358 M 641 358 I 641 349 I 650 349 I C 
K 
: N 663 350 8 9 rp C 
 L ; N 671 359 M 662 359 I 662 349 I 671 349 I C 
K 
: N 673 350 9 8 rp C 
 L ; N 682 358 M 672 358 I 672 349 I 682 349 I C 
K 
: N 694 350 9 9 rp C 
 L ; N 703 359 M 693 359 I 693 349 I 703 349 I C 
K 
: N 715 350 20 8 rp C 
 L ; N 735 358 M 714 358 I 714 349 I 735 349 I C 
K 
: N 736 350 19 9 rp C 
 L ; N 755 359 M 735 359 I 735 349 I 755 349 I C 
K 
: N 778 350 9 9 rp C 
 L ; N 787 359 M 777 359 I 777 349 I 787 349 I C 
K 
: N 799 350 9 9 rp C 
 L ; N 808 359 M 798 359 I 798 349 I 808 349 I C 
K 
: N 831 350 30 8 rp C 
 L ; N 861 358 M 830 358 I 830 349 I 861 349 I C 
K 
: N 915 350 9 9 rp C 
 L ; N 924 359 M 914 359 I 914 349 I 924 349 I C 
K 
: N 925 350 20 8 rp C 
 L ; N 945 358 M 924 358 I 924 349 I 945 349 I C 
K 
: N 947 350 29 9 rp C 
 L ; N 976 359 M 946 359 I 946 349 I 976 349 I C 
K 
: N 978 350 9 8 rp C 
 L ; N 987 358 M 977 358 I 977 349 I 987 349 I C 
K 
: N 516 360 8 9 rp C 
 L ; N 524 369 M 515 369 I 515 359 I 524 359 I C 
K 
: N 547 360 9 9 rp C 
 L ; N 556 369 M 546 369 I 546 359 I 556 359 I C 
K 
: N 568 360 19 9 rp C 
 L ; N 587 369 M 567 369 I 567 359 I 587 359 I C 
K 
: N 600 360 19 9 rp C 
 L ; N 619 369 M 599 369 I 599 359 I 619 359 I C 
K 
: N 663 360 8 9 rp C 
 L ; N 671 369 M 662 369 I 662 359 I 671 359 I C 
K 
: N 684 360 8 9 rp C 
 L ; N 692 369 M 683 369 I 683 359 I 692 359 I C 
K 
: N 694 360 19 9 rp C 
 L ; N 713 369 M 693 369 I 693 359 I 713 359 I C 
K 
: N 736 360 30 9 rp C 
 L ; N 766 369 M 735 369 I 735 359 I 766 359 I C 
K 
: N 767 360 10 9 rp C 
 L ; N 777 369 M 766 369 I 766 359 I 777 359 I C 
K 
: N 778 360 9 9 rp C 
 L ; N 787 369 M 777 369 I 777 359 I 787 359 I C 
K 
: N 799 360 9 9 rp C 
 L ; N 808 369 M 798 369 I 798 359 I 808 359 I C 
K 
: N 821 360 8 9 rp C 
 L ; N 829 369 M 820 369 I 820 359 I 829 359 I C 
K 
: N 863 360 8 9 rp C 
 L ; N 871 369 M 862 369 I 862 359 I 871 359 I C 
K 
: N 884 360 8 9 rp C 
 L ; N 892 369 M 883 369 I 883 359 I 892 359 I C 
K 
: N 915 360 9 9 rp C 
 L ; N 924 369 M 914 369 I 914 359 I 924 359 I C 
K 
: N 947 360 9 9 rp C 
 L ; N 956 369 M 946 369 I 946 359 I 956 359 I C 
K 
: N 957 360 19 9 rp C 
 L ; N 976 369 M 956 369 I 956 359 I 976 359 I C 
K 
: N 526 371 9 9 rp C 
 L ; N 535 380 M 525 380 I 525 370 I 535 370 I C 
K 
: N 547 371 9 9 rp C 
 L ; N 556 380 M 546 380 I 546 370 I 556 370 I C 
K 
: N 621 371 29 9 rp C 
 L ; N 650 380 M 620 380 I 620 370 I 650 370 I C 
K 
: N 652 371 9 8 rp C 
 L ; N 661 379 M 651 379 I 651 370 I 661 370 I C 
K 
: N 684 371 8 9 rp C 
 L ; N 692 380 M 683 380 I 683 370 I 692 370 I C 
K 
: N 736 371 30 8 rp C 
 L ; N 766 379 M 735 379 I 735 370 I 766 370 I C 
K 
: N 778 371 9 9 rp C 
 L ; N 787 380 M 777 380 I 777 370 I 787 370 I C 
K 
: N 799 371 20 8 rp C 
 L ; N 819 379 M 798 379 I 798 370 I 819 370 I C 
K 
: N 821 371 19 9 rp C 
 L ; N 840 380 M 820 380 I 820 370 I 840 370 I C 
K 
: N 884 371 19 8 rp C 
 L ; N 903 379 M 883 379 I 883 370 I 903 370 I C 
K 
: N 915 371 19 9 rp C 
 L ; N 934 380 M 914 380 I 914 370 I 934 370 I C 
K 
: N 936 371 9 8 rp C 
 L ; N 945 379 M 935 379 I 935 370 I 945 370 I C 
K 
: N 957 371 19 9 rp C 
 L ; N 976 380 M 956 380 I 956 370 I 976 370 I C 
K 
: N 516 381 19 9 rp C 
 L ; N 535 390 M 515 390 I 515 380 I 535 380 I C 
K 
: N 547 381 9 9 rp C 
 L ; N 556 390 M 546 390 I 546 380 I 556 380 I C 
K 
: N 568 381 9 9 rp C 
 L ; N 577 390 M 567 390 I 567 380 I 577 380 I C 
K 
: N 578 381 9 9 rp C 
 L ; N 587 390 M 577 390 I 577 380 I 587 380 I C 
K 
: N 600 381 8 9 rp C 
 L ; N 608 390 M 599 390 I 599 380 I 608 380 I C 
K 
: N 621 381 19 9 rp C 
 L ; N 640 390 M 620 390 I 620 380 I 640 380 I C 
K 
: N 641 381 9 9 rp C 
 L ; N 650 390 M 640 390 I 640 380 I 650 380 I C 
K 
: N 663 381 29 9 rp C 
 L ; N 692 390 M 662 390 I 662 380 I 692 380 I C 
K 
: N 705 381 8 9 rp C 
 L ; N 713 390 M 704 390 I 704 380 I 713 380 I C 
K 
: N 726 381 8 9 rp C 
 L ; N 734 390 M 725 390 I 725 380 I 734 380 I C 
K 
: N 768 381 9 9 rp C 
 L ; N 777 390 M 767 390 I 767 380 I 777 380 I C 
K 
: N 778 381 9 9 rp C 
 L ; N 787 390 M 777 390 I 777 380 I 787 380 I C 
K 
: N 821 381 29 9 rp C 
 L ; N 850 390 M 820 390 I 820 380 I 850 380 I C 
K 
: N 852 381 20 9 rp C 
 L ; N 872 390 M 851 390 I 851 380 I 872 380 I C 
K 
: N 873 381 9 9 rp C 
 L ; N 882 390 M 872 390 I 872 380 I 882 380 I C 
K 
: N 915 381 9 9 rp C 
 L ; N 924 390 M 914 390 I 914 380 I 924 380 I C 
K 
: N 926 381 8 9 rp C 
 L ; N 934 390 M 925 390 I 925 380 I 934 380 I C 
K 
: N 957 381 9 9 rp C 
 L ; N 966 390 M 956 390 I 956 380 I 966 380 I C 
K 
: N 968 381 8 9 rp C 
 L ; N 976 390 M 967 390 I 967 380 I 976 380 I C 
K 
: N 537 392 19 8 rp C 
 L ; N 556 400 M 536 400 I 536 391 I 556 391 I C 
K 
: N 568 392 9 8 rp C 
 L ; N 577 400 M 567 400 I 567 391 I 577 391 I C 
K 
: N 600 392 8 9 rp C 
 L ; N 608 401 M 599 401 I 599 391 I 608 391 I C 
K 
: N 621 392 19 9 rp C 
 L ; N 640 401 M 620 401 I 620 391 I 640 391 I C 
K 
: N 652 392 9 9 rp C 
 L ; N 661 401 M 651 401 I 651 391 I 661 391 I C 
K 
: N 694 392 9 8 rp C 
 L ; N 703 400 M 693 400 I 693 391 I 703 391 I C 
K 
: N 715 392 9 8 rp C 
 L ; N 724 400 M 714 400 I 714 391 I 724 391 I C 
K 
: N 747 392 8 9 rp C 
 L ; N 755 401 M 746 401 I 746 391 I 755 391 I C 
K 
: N 757 392 9 8 rp C 
 L ; N 766 400 M 756 400 I 756 391 I 766 391 I C 
K 
: N 778 392 9 9 rp C 
 L ; N 787 401 M 777 401 I 777 391 I 787 391 I C 
K 
: N 788 392 9 8 rp C 
 L ; N 797 400 M 787 400 I 787 391 I 797 391 I C 
K 
: N 821 392 19 8 rp C 
 L ; N 840 400 M 820 400 I 820 391 I 840 391 I C 
K 
: N 842 392 8 9 rp C 
 L ; N 850 401 M 841 401 I 841 391 I 850 391 I C 
K 
: N 873 392 9 9 rp C 
 L ; N 882 401 M 872 401 I 872 391 I 882 391 I C 
K 
: N 883 392 9 8 rp C 
 L ; N 892 400 M 882 400 I 882 391 I 892 391 I C 
K 
: N 926 392 19 8 rp C 
 L ; N 945 400 M 925 400 I 925 391 I 945 391 I C 
K 
: N 968 392 8 9 rp C 
 L ; N 976 401 M 967 401 I 967 391 I 976 391 I C 
K 
: N 978 392 9 8 rp C 
 L ; N 987 400 M 977 400 I 977 391 I 987 391 I C 
K 
: N 558 402 8 9 rp C 
 L ; N 566 411 M 557 411 I 557 401 I 566 401 I C 
K 
: N 579 402 30 9 rp C 
 L ; N 609 411 M 578 411 I 578 401 I 609 401 I C 
K 
: N 610 402 19 9 rp C 
 L ; N 629 411 M 609 411 I 609 401 I 629 401 I C 
K 
: N 631 402 30 9 rp C 
 L ; N 661 411 M 630 411 I 630 401 I 661 401 I C 
K 
: N 673 402 9 9 rp C 
 L ; N 682 411 M 672 411 I 672 401 I 682 401 I C 
K 
: N 736 402 19 9 rp C 
 L ; N 755 411 M 735 411 I 735 401 I 755 401 I C 
K 
: N 768 402 8 9 rp C 
 L ; N 776 411 M 767 411 I 767 401 I 776 401 I C 
K 
: N 778 402 9 9 rp C 
 L ; N 787 411 M 777 411 I 777 401 I 787 401 I C 
K 
: N 799 402 9 9 rp C 
 L ; N 808 411 M 798 411 I 798 401 I 808 401 I C 
K 
: N 810 402 9 9 rp C 
 L ; N 819 411 M 809 411 I 809 401 I 819 401 I C 
K 
: N 842 402 8 9 rp C 
 L ; N 850 411 M 841 411 I 841 401 I 850 401 I C 
K 
: N 852 402 20 9 rp C 
 L ; N 872 411 M 851 411 I 851 401 I 872 401 I C 
K 
: N 873 402 9 9 rp C 
 L ; N 882 411 M 872 411 I 872 401 I 882 401 I C 
K 
: N 905 402 8 9 rp C 
 L ; N 913 411 M 904 411 I 904 401 I 913 401 I C 
K 
: N 947 402 19 9 rp C 
 L ; N 966 411 M 946 411 I 946 401 I 966 401 I C 
K 
: N 967 402 9 9 rp C 
 L ; N 976 411 M 966 411 I 966 401 I 976 401 I C 
K 
: N 526 413 20 8 rp C 
 L ; N 546 421 M 525 421 I 525 412 I 546 412 I C 
K 
: N 547 413 19 9 rp C 
 L ; N 566 422 M 546 422 I 546 412 I 566 412 I C 
K 
: N 610 413 19 9 rp C 
 L ; N 629 422 M 609 422 I 609 412 I 629 412 I C 
K 
: N 663 413 8 9 rp C 
 L ; N 671 422 M 662 422 I 662 412 I 671 412 I C 
K 
: N 673 413 9 8 rp C 
 L ; N 682 421 M 672 421 I 672 412 I 682 412 I C 
K 
: N 684 413 8 9 rp C 
 L ; N 692 422 M 683 422 I 683 412 I 692 412 I C 
K 
: N 715 413 9 9 rp C 
 L ; N 724 422 M 714 422 I 714 412 I 724 412 I C 
K 
: N 736 413 19 9 rp C 
 L ; N 755 422 M 735 422 I 735 412 I 755 412 I C 
K 
: N 768 413 8 9 rp C 
 L ; N 776 422 M 767 422 I 767 412 I 776 412 I C 
K 
: N 799 413 9 9 rp C 
 L ; N 808 422 M 798 422 I 798 412 I 808 412 I C 
K 
: N 842 413 8 8 rp C 
 L ; N 850 421 M 841 421 I 841 412 I 850 412 I C 
K 
: N 873 413 9 9 rp C 
 L ; N 882 422 M 872 422 I 872 412 I 882 412 I C 
K 
: N 894 413 19 9 rp C 
 L ; N 913 422 M 893 422 I 893 412 I 913 412 I C 
K 
: N 936 413 9 9 rp C 
 L ; N 945 422 M 935 422 I 935 412 I 945 412 I C 
K 
: N 946 413 10 8 rp C 
 L ; N 956 421 M 945 421 I 945 412 I 956 412 I C 
K 
: N 957 413 9 9 rp C 
 L ; N 966 422 M 956 422 I 956 412 I 966 412 I C 
K 
: N 978 413 9 9 rp C 
 L ; N 987 422 M 977 422 I 977 412 I 987 412 I C 
K 
: N 516 423 8 9 rp C 
 L ; N 524 432 M 515 432 I 515 422 I 524 422 I C 
K 
: N 547 423 19 9 rp C 
 L ; N 566 432 M 546 432 I 546 422 I 566 422 I C 
K 
: N 579 423 8 9 rp C 
 L ; N 587 432 M 578 432 I 578 422 I 587 422 I C 
K 
: N 610 423 19 9 rp C 
 L ; N 629 432 M 609 432 I 609 422 I 629 422 I C 
K 
: N 663 423 8 9 rp C 
 L ; N 671 432 M 662 432 I 662 422 I 671 422 I C 
K 
: N 684 423 9 9 rp C 
 L ; N 693 432 M 683 432 I 683 422 I 693 422 I C 
K 
: N 694 423 9 10 rp C 
 L ; N 703 433 M 693 433 I 693 422 I 703 422 I C 
K 
: N 715 423 19 10 rp C 
 L ; N 734 433 M 714 433 I 714 422 I 734 422 I C 
K 
: N 736 423 30 9 rp C 
 L ; N 766 432 M 735 432 I 735 422 I 766 422 I C 
K 
: N 768 423 8 10 rp C 
 L ; N 776 433 M 767 433 I 767 422 I 776 422 I C 
K 
: N 799 423 9 9 rp C 
 L ; N 808 432 M 798 432 I 798 422 I 808 422 I C 
K 
: N 821 423 19 10 rp C 
 L ; N 840 433 M 820 433 I 820 422 I 840 422 I C 
K 
: N 863 423 8 10 rp C 
 L ; N 871 433 M 862 433 I 862 422 I 871 422 I C 
K 
: N 873 423 9 9 rp C 
 L ; N 882 432 M 872 432 I 872 422 I 882 422 I C 
K 
: N 894 423 9 10 rp C 
 L ; N 903 433 M 893 433 I 893 422 I 903 422 I C 
K 
: N 904 423 31 9 rp C 
 L ; N 935 432 M 903 432 I 903 422 I 935 422 I C 
K 
: N 936 423 9 10 rp C 
 L ; N 945 433 M 935 433 I 935 422 I 945 422 I C 
K 
: N 957 423 20 9 rp C 
 L ; N 977 432 M 956 432 I 956 422 I 977 422 I C 
K 
: N 978 423 9 10 rp C 
 L ; N 987 433 M 977 433 I 977 422 I 987 422 I C 
K 
: N 600 434 8 9 rp C 
 L ; N 608 443 M 599 443 I 599 433 I 608 433 I C 
K 
: N 673 434 9 9 rp C 
 L ; N 682 443 M 672 443 I 672 433 I 682 433 I C 
K 
: N 694 434 9 9 rp C 
 L ; N 703 443 M 693 443 I 693 433 I 703 433 I C 
K 
: N 705 434 29 9 rp C 
 L ; N 734 443 M 704 443 I 704 433 I 734 433 I C 
K 
: N 768 434 8 9 rp C 
 L ; N 776 443 M 767 443 I 767 433 I 776 433 I C 
K 
: N 778 434 19 9 rp C 
 L ; N 797 443 M 777 443 I 777 433 I 797 433 I C 
K 
: N 810 434 40 9 rp C 
 L ; N 850 443 M 809 443 I 809 433 I 850 433 I C 
K 
: N 863 434 8 9 rp C 
 L ; N 871 443 M 862 443 I 862 433 I 871 433 I C 
K 
: N 884 434 9 9 rp C 
 L ; N 893 443 M 883 443 I 883 433 I 893 433 I C 
K 
: N 894 434 9 9 rp C 
 L ; N 903 443 M 893 443 I 893 433 I 903 433 I C 
K 
: N 936 434 9 9 rp C 
 L ; N 945 443 M 935 443 I 935 433 I 945 433 I C 
K 
: N 978 434 9 9 rp C 
 L ; N 987 443 M 977 443 I 977 433 I 987 433 I C 
K 
: N 516 445 8 9 rp C 
 L ; N 524 454 M 515 454 I 515 444 I 524 444 I C 
K 
: N 526 445 51 8 rp C 
 L ; N 577 453 M 525 453 I 525 444 I 577 444 I C 
K 
: N 579 445 8 9 rp C 
 L ; N 587 454 M 578 454 I 578 444 I 587 444 I C 
K 
: N 642 445 8 9 rp C 
 L ; N 650 454 M 641 454 I 641 444 I 650 444 I C 
K 
: N 663 445 8 9 rp C 
 L ; N 671 454 M 662 454 I 662 444 I 671 444 I C 
K 
: N 705 445 29 9 rp C 
 L ; N 734 454 M 704 454 I 704 444 I 734 444 I C 
K 
: N 747 445 8 8 rp C 
 L ; N 755 453 M 746 453 I 746 444 I 755 444 I C 
K 
: N 768 445 8 9 rp C 
 L ; N 776 454 M 767 454 I 767 444 I 776 444 I C 
K 
: N 799 445 41 8 rp C 
 L ; N 840 453 M 798 453 I 798 444 I 840 444 I C 
K 
: N 842 445 8 9 rp C 
 L ; N 850 454 M 841 454 I 841 444 I 850 444 I C 
K 
: N 873 445 9 9 rp C 
 L ; N 882 454 M 872 454 I 872 444 I 882 444 I C 
K 
: N 894 445 9 9 rp C 
 L ; N 903 454 M 893 454 I 893 444 I 903 444 I C 
K 
: N 915 445 9 8 rp C 
 L ; N 924 453 M 914 453 I 914 444 I 924 444 I C 
K 
: N 936 445 9 9 rp C 
 L ; N 945 454 M 935 454 I 935 444 I 945 444 I C 
K 
: N 516 455 8 9 rp C 
 L ; N 524 464 M 515 464 I 515 454 I 524 454 I C 
K 
: N 579 455 8 9 rp C 
 L ; N 587 464 M 578 464 I 578 454 I 587 454 I C 
K 
: N 600 455 8 9 rp C 
 L ; N 608 464 M 599 464 I 599 454 I 608 454 I C 
K 
: N 642 455 9 9 rp C 
 L ; N 651 464 M 641 464 I 641 454 I 651 454 I C 
K 
: N 652 455 9 9 rp C 
 L ; N 661 464 M 651 464 I 651 454 I 661 454 I C 
K 
: N 662 455 31 9 rp C 
 L ; N 693 464 M 661 464 I 661 454 I 693 454 I C 
K 
: N 694 455 9 9 rp C 
 L ; N 703 464 M 693 464 I 693 454 I 703 454 I C 
K 
: N 704 455 20 9 rp C 
 L ; N 724 464 M 703 464 I 703 454 I 724 454 I C 
K 
: N 726 455 8 9 rp C 
 L ; N 734 464 M 725 464 I 725 454 I 734 454 I C 
K 
: N 768 455 8 9 rp C 
 L ; N 776 464 M 767 464 I 767 454 I 776 454 I C 
K 
: N 778 455 9 9 rp C 
 L ; N 787 464 M 777 464 I 777 454 I 787 454 I C 
K 
: N 842 455 8 9 rp C 
 L ; N 850 464 M 841 464 I 841 454 I 850 454 I C 
K 
: N 852 455 9 9 rp C 
 L ; N 861 464 M 851 464 I 851 454 I 861 454 I C 
K 
: N 873 455 9 9 rp C 
 L ; N 882 464 M 872 464 I 872 454 I 882 454 I C 
K 
: N 894 455 9 9 rp C 
 L ; N 903 464 M 893 464 I 893 454 I 903 454 I C 
K 
: N 936 455 9 9 rp C 
 L ; N 945 464 M 935 464 I 935 454 I 945 454 I C 
K 
: N 946 455 9 9 rp C 
 L ; N 955 464 M 945 464 I 945 454 I 955 454 I C 
K 
: N 968 455 19 9 rp C 
 L ; N 987 464 M 967 464 I 967 454 I 987 454 I C 
K 
: N 516 466 8 9 rp C 
 L ; N 524 475 M 515 475 I 515 465 I 524 465 I C 
K 
: N 537 466 29 9 rp C 
 L ; N 566 475 M 536 475 I 536 465 I 566 465 I C 
K 
: N 579 466 8 9 rp C 
 L ; N 587 475 M 578 475 I 578 465 I 587 465 I C 
K 
: N 610 466 9 8 rp C 
 L ; N 619 474 M 609 474 I 609 465 I 619 465 I C 
K 
: N 621 466 19 9 rp C 
 L ; N 640 475 M 620 475 I 620 465 I 640 465 I C 
K 
: N 652 466 9 9 rp C 
 L ; N 661 475 M 651 475 I 651 465 I 661 465 I C 
K 
: N 694 466 9 8 rp C 
 L ; N 703 474 M 693 474 I 693 465 I 703 465 I C 
K 
: N 726 466 8 9 rp C 
 L ; N 734 475 M 725 475 I 725 465 I 734 465 I C 
K 
: N 736 466 9 8 rp C 
 L ; N 745 474 M 735 474 I 735 465 I 745 465 I C 
K 
: N 747 466 19 9 rp C 
 L ; N 766 475 M 746 475 I 746 465 I 766 465 I C 
K 
: N 767 466 9 8 rp C 
 L ; N 776 474 M 766 474 I 766 465 I 776 465 I C 
K 
: N 789 466 8 9 rp C 
 L ; N 797 475 M 788 475 I 788 465 I 797 465 I C 
K 
: N 821 466 9 8 rp C 
 L ; N 830 474 M 820 474 I 820 465 I 830 465 I C 
K 
: N 831 466 9 9 rp C 
 L ; N 840 475 M 830 475 I 830 465 I 840 465 I C 
K 
: N 841 466 9 8 rp C 
 L ; N 850 474 M 840 474 I 840 465 I 850 465 I C 
K 
: N 884 466 19 9 rp C 
 L ; N 903 475 M 883 475 I 883 465 I 903 465 I C 
K 
: N 904 466 31 8 rp C 
 L ; N 935 474 M 903 474 I 903 465 I 935 465 I C 
K 
: N 936 466 9 9 rp C 
 L ; N 945 475 M 935 475 I 935 465 I 945 465 I C 
K 
: N 957 466 9 8 rp C 
 L ; N 966 474 M 956 474 I 956 465 I 966 465 I C 
K 
: N 516 476 8 9 rp C 
 L ; N 524 485 M 515 485 I 515 475 I 524 475 I C 
K 
: N 537 476 29 9 rp C 
 L ; N 566 485 M 536 485 I 536 475 I 566 475 I C 
K 
: N 579 476 8 9 rp C 
 L ; N 587 485 M 578 485 I 578 475 I 587 475 I C 
K 
: N 600 476 8 9 rp C 
 L ; N 608 485 M 599 485 I 599 475 I 608 475 I C 
K 
: N 621 476 9 9 rp C 
 L ; N 630 485 M 620 485 I 620 475 I 630 475 I C 
K 
: N 631 476 9 9 rp C 
 L ; N 640 485 M 630 485 I 630 475 I 640 475 I C 
K 
: N 641 476 31 9 rp C 
 L ; N 672 485 M 640 485 I 640 475 I 672 475 I C 
K 
: N 673 476 9 9 rp C 
 L ; N 682 485 M 672 485 I 672 475 I 682 475 I C 
K 
: N 715 476 9 9 rp C 
 L ; N 724 485 M 714 485 I 714 475 I 724 475 I C 
K 
: N 726 476 8 9 rp C 
 L ; N 734 485 M 725 485 I 725 475 I 734 475 I C 
K 
: N 747 476 8 9 rp C 
 L ; N 755 485 M 746 485 I 746 475 I 755 475 I C 
K 
: N 757 476 9 9 rp C 
 L ; N 766 485 M 756 485 I 756 475 I 766 475 I C 
K 
: N 789 476 19 9 rp C 
 L ; N 808 485 M 788 485 I 788 475 I 808 475 I C 
K 
: N 831 476 9 9 rp C 
 L ; N 840 485 M 830 485 I 830 475 I 840 475 I C 
K 
: N 852 476 41 9 rp C 
 L ; N 893 485 M 851 485 I 851 475 I 893 475 I C 
K 
: N 894 476 9 9 rp C 
 L ; N 903 485 M 893 485 I 893 475 I 903 475 I C 
K 
: N 936 476 9 9 rp C 
 L ; N 945 485 M 935 485 I 935 475 I 945 475 I C 
K 
: N 947 476 8 9 rp C 
 L ; N 955 485 M 946 485 I 946 475 I 955 475 I C 
K 
: N 968 476 9 9 rp C 
 L ; N 977 485 M 967 485 I 967 475 I 977 475 I C 
K 
: N 978 476 9 9 rp C 
 L ; N 987 485 M 977 485 I 977 475 I 987 475 I C 
K 
: N 516 487 8 9 rp C 
 L ; N 524 496 M 515 496 I 515 486 I 524 486 I C 
K 
: N 537 487 29 8 rp C 
 L ; N 566 495 M 536 495 I 536 486 I 566 486 I C 
K 
: N 579 487 8 9 rp C 
 L ; N 587 496 M 578 496 I 578 486 I 587 486 I C 
K 
: N 610 487 9 9 rp C 
 L ; N 619 496 M 609 496 I 609 486 I 619 486 I C 
K 
: N 631 487 9 9 rp C 
 L ; N 640 496 M 630 496 I 630 486 I 640 486 I C 
K 
: N 673 487 9 9 rp C 
 L ; N 682 496 M 672 496 I 672 486 I 682 486 I C 
K 
: N 683 487 20 8 rp C 
 L ; N 703 495 M 682 495 I 682 486 I 703 486 I C 
K 
: N 726 487 8 8 rp C 
 L ; N 734 495 M 725 495 I 725 486 I 734 486 I C 
K 
: N 747 487 8 8 rp C 
 L ; N 755 495 M 746 495 I 746 486 I 755 486 I C 
K 
: N 810 487 19 8 rp C 
 L ; N 829 495 M 809 495 I 809 486 I 829 486 I C 
K 
: N 894 487 9 8 rp C 
 L ; N 903 495 M 893 495 I 893 486 I 903 486 I C 
K 
: N 915 487 9 9 rp C 
 L ; N 924 496 M 914 496 I 914 486 I 924 486 I C 
K 
: N 947 487 19 8 rp C 
 L ; N 966 495 M 946 495 I 946 486 I 966 486 I C 
K 
: N 978 487 9 9 rp C 
 L ; N 987 496 M 977 496 I 977 486 I 987 486 I C 
K 
: N 516 497 8 9 rp C 
 L ; N 524 506 M 515 506 I 515 496 I 524 496 I C 
K 
: N 579 497 8 9 rp C 
 L ; N 587 506 M 578 506 I 578 496 I 587 496 I C 
K 
: N 610 497 9 9 rp C 
 L ; N 619 506 M 609 506 I 609 496 I 619 496 I C 
K 
: N 631 497 19 9 rp C 
 L ; N 650 506 M 630 506 I 630 496 I 650 496 I C 
K 
: N 673 497 9 9 rp C 
 L ; N 682 506 M 672 506 I 672 496 I 682 496 I C 
K 
: N 768 497 8 9 rp C 
 L ; N 776 506 M 767 506 I 767 496 I 776 496 I C 
K 
: N 789 497 9 9 rp C 
 L ; N 798 506 M 788 506 I 788 496 I 798 496 I C 
K 
: N 799 497 9 9 rp C 
 L ; N 808 506 M 798 506 I 798 496 I 808 496 I C 
K 
: N 831 497 9 9 rp C 
 L ; N 840 506 M 830 506 I 830 496 I 840 496 I C 
K 
: N 852 497 9 9 rp C 
 L ; N 861 506 M 851 506 I 851 496 I 861 496 I C 
K 
: N 862 497 10 9 rp C 
 L ; N 872 506 M 861 506 I 861 496 I 872 496 I C 
K 
: N 873 497 9 9 rp C 
 L ; N 882 506 M 872 506 I 872 496 I 882 496 I C 
K 
: N 915 497 30 9 rp C 
 L ; N 945 506 M 914 506 I 914 496 I 945 496 I C 
K 
: N 978 497 9 9 rp C 
 L ; N 987 506 M 977 506 I 977 496 I 987 496 I C 
K 
: N 516 508 71 8 rp C 
 L ; N 587 516 M 515 516 I 515 507 I 587 507 I C 
K 
: N 600 508 8 8 rp C 
 L ; N 608 516 M 599 516 I 599 507 I 608 507 I C 
K 
: N 631 508 19 8 rp C 
 L ; N 650 516 M 630 516 I 630 507 I 650 507 I C 
K 
: N 673 508 9 8 rp C 
 L ; N 682 516 M 672 516 I 672 507 I 682 507 I C 
K 
: N 705 508 8 8 rp C 
 L ; N 713 516 M 704 516 I 704 507 I 713 507 I C 
K 
: N 736 508 30 8 rp C 
 L ; N 766 516 M 735 516 I 735 507 I 766 507 I C 
K 
: N 778 508 9 8 rp C 
 L ; N 787 516 M 777 516 I 777 507 I 787 507 I C 
K 
: N 799 508 9 8 rp C 
 L ; N 808 516 M 798 516 I 798 507 I 808 507 I C 
K 
: N 821 508 40 8 rp C 
 L ; N 861 516 M 820 516 I 820 507 I 861 507 I C 
K 
: N 873 508 9 8 rp C 
 L ; N 882 516 M 872 516 I 872 507 I 882 507 I C 
K 
: N 905 508 61 8 rp C 
 L ; N 966 516 M 904 516 I 904 507 I 966 507 I C 
K 
LH
%%PageTrailer

%%Trailer
%%DocumentNeededResources: 
%%DocumentSuppliedResources: 
%%+ procset Pscript_WinNT_VMErrorHandler 5.0 0
%%+ procset Pscript_FatalError 5.0 0
%%+ procset Pscript_Win_Basic 5.0 0
%%+ procset Pscript_Win_Utils_L2 5.0 0
%%+ procset Pscript_Win_GdiObject 5.0 0
%%+ procset Pscript_Win_GdiObject_L2 5.0 0
Pscript_WinNT_Incr dup /terminate get exec
%%EOF
