%!PS-Adobe-3.0 EPSF-3.0
%%Title: WMF2EPS 1.32  : WMF->EPS conversion for clip005.emf
%%Creator: PScript5.dll Version 5.2
%%CreationDate: 6/21/2004 15:11:25
%%For: hig
%%BoundingBox: 56 56 123 123
%%Pages: 1
%%Orientation: Portrait
%%PageOrder: Ascend
%%DocumentNeededResources: (atend)
%%DocumentSuppliedResources: (atend)
%%DocumentData: Clean7Bit
%%TargetDevice: (WMF2EPS Color PS) (2010.0) 2
%%LanguageLevel: 2
%%EndComments

%%BeginDefaults
%%PageBoundingBox: 0 0 124 124
%%ViewingOrientation: 1 0 0 1
%%EndDefaults

%%BeginProlog
%%BeginResource: file Pscript_WinNT_VMErrorHandler 5.0 0
/currentpacking where{pop/oldpack currentpacking def/setpacking where{pop false
setpacking}if}if/$brkpage 64 dict def $brkpage begin/prnt{dup type/stringtype
ne{=string cvs}if dup length 6 mul/tx exch def/ty 10 def currentpoint/toy exch
def/tox exch def 1 setgray newpath tox toy 2 sub moveto 0 ty rlineto tx 0
rlineto 0 ty neg rlineto closepath fill tox toy moveto 0 setgray show}bind def
/nl{currentpoint exch pop lmargin exch moveto 0 -10 rmoveto}def/=={/cp 0 def
typeprint nl}def/typeprint{dup type exec}readonly def/lmargin 72 def/rmargin 72
def/tprint{dup length cp add rmargin gt{nl/cp 0 def}if dup length cp add/cp
exch def prnt}readonly def/cvsprint{=string cvs tprint( )tprint}readonly def
/integertype{cvsprint}readonly def/realtype{cvsprint}readonly def/booleantype
{cvsprint}readonly def/operatortype{(--)tprint =string cvs tprint(-- )tprint}
readonly def/marktype{pop(-mark- )tprint}readonly def/dicttype{pop
(-dictionary- )tprint}readonly def/nulltype{pop(-null- )tprint}readonly def
/filetype{pop(-filestream- )tprint}readonly def/savetype{pop(-savelevel- )
tprint}readonly def/fonttype{pop(-fontid- )tprint}readonly def/nametype{dup
xcheck not{(/)tprint}if cvsprint}readonly def/stringtype{dup rcheck{(\()tprint
tprint(\))tprint}{pop(-string- )tprint}ifelse}readonly def/arraytype{dup rcheck
{dup xcheck{({)tprint{typeprint}forall(})tprint}{([)tprint{typeprint}forall(])
tprint}ifelse}{pop(-array- )tprint}ifelse}readonly def/packedarraytype{dup
rcheck{dup xcheck{({)tprint{typeprint}forall(})tprint}{([)tprint{typeprint}
forall(])tprint}ifelse}{pop(-packedarray- )tprint}ifelse}readonly def/courier
/Courier findfont 10 scalefont def end errordict/handleerror{systemdict begin
$error begin $brkpage begin newerror{/newerror false store vmstatus pop pop 0
ne{grestoreall}if initgraphics courier setfont lmargin 720 moveto errorname
(VMerror)eq{version cvi 2016 ge{userdict/ehsave known{clear userdict/ehsave get
restore 2 vmreclaim}if vmstatus exch pop exch pop PrtVMMsg}if}if systemdict
/showpage get exec(%%[ Error: )print errorname =print(; OffendingCommand: )
print/command load =print( ]%%)= flush}if end end end}dup 0 systemdict put dup
4 $brkpage put bind readonly put/currentpacking where{pop/setpacking where{pop
oldpack setpacking}if}if
%%EndResource
userdict /Pscript_WinNT_Incr 230 dict dup begin put
%%BeginResource: file Pscript_FatalError 5.0 0
userdict begin/FatalErrorIf{{initgraphics findfont 1 index 0 eq{exch pop}{dup
length dict begin{1 index/FID ne{def}{pop pop}ifelse}forall/Encoding
{ISOLatin1Encoding}stopped{StandardEncoding}if def currentdict end
/ErrFont-Latin1 exch definefont}ifelse exch scalefont setfont counttomark 3 div
cvi{moveto show}repeat showpage quit}{cleartomark}ifelse}bind def end
%%EndResource
userdict begin/PrtVMMsg{vmstatus exch sub exch pop gt{[
(This job requires more memory than is available in this printer.)100 500
(Try one or more of the following, and then print again:)100 485
(For the output format, choose Optimize For Portability.)115 470
(In the Device Settings page, make sure the Available PostScript Memory is accurate.)
115 455(Reduce the number of fonts in the document.)115 440
(Print the document in parts.)115 425 12/Times-Roman[/GothicBBB-Medium-RKSJ-H
dup{findfont}stopped{cleartomark}{/FontName get eq{pop cleartomark[
<82B182CC83578387837582CD8CBB8DDD82B182CC8376838A8393835E82C59798977082C582AB82
E988C88FE382CC83818382838A82F0954B977682C682B582DC82B7814288C889BA82CC8A6590DD9
2E8>90 500<82CC88EA82C2814182DC82BD82CD82BB82CC916782DD8D8782ED82B982F08E7792
E882B582BD8CE381418376838A8393836782B592BC82B582C482DD82C482AD82BE82B382A28142>
90 485<A5506F73745363726970748376838D8370836583428356815B836782A982E7814183478
389815B82AA8C798CB882B782E982E682A482C98DC5934B89BB2082F0914991F082B782E98142>
90 455<A58366836F83438358834983768356838783938376838D8370836583428356815B83678
2CC209798977082C582AB82E98376838A8393835E83818382838A2082CC926C82AA90B382B582A2
82B182C682F08A6D944682B782E98142>90 440<A58368834C8385838183938367928682C58E6
7977082B382EA82C482A282E9837483488393836782CC909482F08CB882E782B78142>90 425
<A58368834C838583818393836782F095AA8A8482B582C48376838A8393836782B782E98142>90
410 10 0/GothicBBB-Medium-RKSJ-H}{cleartomark}ifelse}ifelse showpage
(%%[ PrinterError: Low Printer VM ]%%)= true FatalErrorIf}if}bind def end
version cvi 2016 ge{/VM?{pop}bind def}{/VM? userdict/PrtVMMsg get def}ifelse
%%BeginResource: file Pscript_Win_Basic 5.0 0
/d/def load def/,/load load d/~/exch , d/?/ifelse , d/!/pop , d/`/begin , d/^
/index , d/@/dup , d/+/translate , d/$/roll , d/U/userdict , d/M/moveto , d/-
/rlineto , d/&/currentdict , d/:/gsave , d/;/grestore , d/F/false , d/T/true ,
d/N/newpath , d/E/end , d/Ac/arc , d/An/arcn , d/A/ashow , d/D/awidthshow , d/C
/closepath , d/V/div , d/O/eofill , d/L/fill , d/I/lineto , d/-c/curveto , d/-M
/rmoveto , d/+S/scale , d/Ji/setfont , d/Lc/setlinecap , d/Lj/setlinejoin , d
/Lw/setlinewidth , d/Lm/setmiterlimit , d/sd/setdash , d/S/show , d/LH/showpage
, d/K/stroke , d/W/widthshow , d/R/rotate , d/L2? false/languagelevel where{pop
languagelevel 2 ge{pop true}if}if d L2?{/xS/xshow , d/yS/yshow , d/zS/xyshow ,
d}if/b{bind d}bind d/bd{bind d}bind d/xd{~ d}bd/ld{, d}bd/bn/bind ld/lw/Lw ld
/lc/Lc ld/lj/Lj ld/sg/setgray ld/ADO_mxRot null d/self & d/OrgMx matrix
currentmatrix d/reinitialize{: OrgMx setmatrix[/TextInit/GraphInit/UtilsInit
counttomark{@ where{self eq}{F}?{cvx exec}{!}?}repeat cleartomark ;}b
/initialize{`{/Pscript_Win_Data where{!}{U/Pscript_Win_Data & put}?/ADO_mxRot ~
d/TextInitialised? F d reinitialize E}{U/Pscript_Win_Data 230 dict @ ` put
/ADO_mxRot ~ d/TextInitialised? F d reinitialize}?}b/terminate{!{& self eq
{exit}{E}?}loop E}b/suspend/terminate , d/resume{` Pscript_Win_Data `}b U `
/lucas 21690 d/featurebegin{countdictstack lucas[}b/featurecleanup{stopped
{cleartomark @ lucas eq{! exit}if}loop countdictstack ~ sub @ 0 gt{{E}repeat}
{!}?}b E/snap{transform 0.25 sub round 0.25 add ~ 0.25 sub round 0.25 add ~
itransform}b/dsnap{dtransform round ~ round ~ idtransform}b/nonzero_round{@ 0.5
ge{round}{@ -0.5 lt{round}{0 ge{1}{-1}?}?}?}b/nonzero_dsnap{dtransform
nonzero_round ~ nonzero_round ~ idtransform}b U<04>cvn{}put/rr{1 ^ 0 - 0 ~ -
neg 0 - C}b/irp{4 -2 $ + +S fx 4 2 $ M 1 ^ 0 - 0 ~ - neg 0 -}b/rp{4 2 $ M 1 ^ 0
- 0 ~ - neg 0 -}b/solid{[]0 sd}b/g{@ not{U/DefIf_save save put}if U/DefIf_bool
2 ^ put}b/DefIf_El{if U/DefIf_bool get not @{U/DefIf_save get restore}if}b/e
{DefIf_El !}b/UDF{L2?{undefinefont}{!}?}b/UDR{L2?{undefineresource}{! !}?}b
/freeVM{/Courier findfont[40 0 0 -40 0 0]makefont Ji 2 vmreclaim}b/hfRedefFont
{findfont @ length dict `{1 ^/FID ne{d}{! !}?}forall & E @ ` ~{/CharStrings 1
dict `/.notdef 0 d & E d}if/Encoding 256 array 0 1 255{1 ^ ~/.notdef put}for d
E definefont !}bind d/hfMkCIDFont{/CIDFont findresource @ length 2 add dict `{1
^ @/FID eq ~ @/XUID eq ~/UIDBase eq or or{! !}{d}?}forall/CDevProc ~ d/Metrics2
16 dict d/CIDFontName 1 ^ d & E 1 ^ ~/CIDFont defineresource ![~]composefont !}
bind d
%%EndResource
%%BeginResource: file Pscript_Win_Utils_L2 5.0 0
/rf/rectfill , d/fx{1 1 dtransform @ 0 ge{1 sub 0.5}{1 add -0.5}? 3 -1 $ @ 0 ge
{1 sub 0.5}{1 add -0.5}? 3 1 $ 4 1 $ idtransform 4 -2 $ idtransform}b/BZ{4 -2 $
snap + +S fx rf}b/rs/rectstroke , d/rc/rectclip , d/UtilsInit{currentglobal{F
setglobal}if}b/scol{! setcolor}b/colspA/DeviceGray d/colspABC/DeviceRGB d
/colspRefresh{colspABC setcolorspace}b/SetColSpace{colspABC setcolorspace}b
/resourcestatus where{!/ColorRendering/ProcSet resourcestatus{! ! T}{F}?}{F}?
not{/ColorRendering<</GetHalftoneName{currenthalftone @/HalftoneName known{
/HalftoneName get}{!/none}?}bn/GetPageDeviceName{currentpagedevice @
/PageDeviceName known{/PageDeviceName get @ null eq{!/none}if}{!/none}?}bn
/GetSubstituteCRD{!/DefaultColorRendering/ColorRendering resourcestatus{! !
/DefaultColorRendering}{(DefaultColorRendering*){cvn exit}127 string
/ColorRendering resourceforall}?}bn>>/defineresource where{!/ProcSet
defineresource !}{! !}?}if/buildcrdname{/ColorRendering/ProcSet findresource `
mark GetHalftoneName @ type @/nametype ne ~/stringtype ne and{!/none}if(.)
GetPageDeviceName @ type @/nametype ne ~/stringtype ne and{!/none}if(.)5 ^ 0 5
-1 1{^ length add}for string 6 1 $ 5 ^ 5{~ 1 ^ cvs length 1 ^ length 1 ^ sub
getinterval}repeat ! cvn 3 1 $ ! ! E}b/definecolorrendering{~ buildcrdname ~
/ColorRendering defineresource !}b/findcolorrendering where{!}{
/findcolorrendering{buildcrdname @/ColorRendering resourcestatus{! ! T}{
/ColorRendering/ProcSet findresource ` GetSubstituteCRD E F}?}b}?
/selectcolorrendering{findcolorrendering !/ColorRendering findresource
setcolorrendering}b/G2UBegin{findresource/FontInfo get/GlyphNames2Unicode get
`}bind d/G2CCBegin{findresource/FontInfo get/GlyphNames2HostCode get `}bind d
/G2UEnd{E}bind d/AddFontInfoBegin{/FontInfo 8 dict @ `}bind d/AddFontInfo{
/GlyphNames2Unicode 16 dict d/GlyphNames2HostCode 16 dict d}bind d
/AddFontInfoEnd{E d}bind d/T0AddCFFMtx2{/CIDFont findresource/Metrics2 get ` d
E}bind d
%%EndResource
end
%%EndProlog

%%BeginSetup
[ 1 0 0 1 0 0 ] false Pscript_WinNT_Incr dup /initialize get exec
1 setlinecap 1 setlinejoin
/mysetup [ 72 600 V 0 0 -72 600 V 0 123.59055 ] def 
%%EndSetup

%%Page: 1 1
%%PageBoundingBox: 0 0 124 124
%%EndPageComments
%%BeginPageSetup
/DeviceRGB dup setcolorspace /colspABC exch def
mysetup concat colspRefresh
%%EndPageSetup

Pscript_WinNT_Incr begin
%%BeginResource: file Pscript_Win_GdiObject 5.0 0
/SavedCTM null d/CTMsave{/SavedCTM SavedCTM currentmatrix d}b/CTMrestore
{SavedCTM setmatrix}b/mp null d/ADO_mxRot null d/GDIHMatrix null d
/GDIHPatternDict 22 dict d GDIHPatternDict `/PatternType 1 d/PaintType 2 d/Reps
L2?{1}{5}? d/XStep 8 Reps mul d/YStep XStep d/BBox[0 0 XStep YStep]d/TilingType
1 d/PaintProc{` 1 Lw[]0 sd PaintData , exec E}b/FGnd null d/BGnd null d
/HS_Horizontal{horiz}b/HS_Vertical{vert}b/HS_FDiagonal{fdiag}b/HS_BDiagonal
{biag}b/HS_Cross{horiz vert}b/HS_DiagCross{fdiag biag}b/MaxXYStep XStep YStep
gt{XStep}{YStep}? d/horiz{Reps{0 4 M XStep 0 - 0 8 +}repeat 0 -8 Reps mul + K}b
/vert{Reps{4 0 M 0 YStep - 8 0 +}repeat 0 -8 Reps mul + K}b/biag{Reps{0 0 M
MaxXYStep @ - 0 YStep neg M MaxXYStep @ - 0 8 +}repeat 0 -8 Reps mul + 0 YStep
M 8 8 - K}b/fdiag{Reps{0 0 M MaxXYStep @ neg - 0 YStep M MaxXYStep @ neg - 0 8
+}repeat 0 -8 Reps mul + MaxXYStep @ M 8 -8 - K}b E/makehatch{4 -2 $/yOrg ~ d
/xOrg ~ d GDIHPatternDict/PaintData 3 -1 $ put CTMsave GDIHMatrix setmatrix
GDIHPatternDict matrix xOrg yOrg + mp CTMrestore ~ U ~ 2 ^ put}b/h0{/h0
/HS_Horizontal makehatch}b/h1{/h1/HS_Vertical makehatch}b/h2{/h2/HS_FDiagonal
makehatch}b/h3{/h3/HS_BDiagonal makehatch}b/h4{/h4/HS_Cross makehatch}b/h5{/h5
/HS_DiagCross makehatch}b/GDIBWPatternMx null d/pfprep{save 8 1 $
/PatternOfTheDay 8 1 $ GDIBWPatternDict `/yOrg ~ d/xOrg ~ d/PaintData ~ d/yExt
~ d/Width ~ d/BGnd ~ d/FGnd ~ d/Height yExt RepsV mul d/mx[Width 0 0 Height 0
0]d E build_pattern ~ !}b/pfbf{/fEOFill ~ d pfprep hbf fEOFill{O}{L}? restore}b
/GraphInit{GDIHMatrix null eq{/SavedCTM matrix d : ADO_mxRot concat 0 0 snap +
: 0.48 @ GDIHPatternDict ` YStep mul ~ XStep mul ~ nonzero_dsnap YStep V ~
XStep V ~ E +S/GDIHMatrix matrix currentmatrix readonly d ; : 0.24 -0.24 +S
GDIBWPatternDict ` Width Height E nonzero_dsnap +S/GDIBWPatternMx matrix
currentmatrix readonly d ; ;}if}b
%%EndResource
%%BeginResource: file Pscript_Win_GdiObject_L2 5.0 0
/GDIBWPatternDict 25 dict @ `/PatternType 1 d/PaintType 1 d/RepsV 1 d/RepsH 1 d
/BBox[0 0 RepsH 1]d/TilingType 1 d/XStep 1 d/YStep 1 d/Height 8 RepsV mul d
/Width 8 d/mx[Width 0 0 Height neg 0 Height]d/FGnd null d/BGnd null d
/SetBGndFGnd{BGnd null ne{BGnd aload ! scol BBox aload ! 2 ^ sub ~ 3 ^ sub ~
rf}if FGnd null ne{FGnd aload ! scol}if}b/PaintProc{` SetBGndFGnd RepsH{Width
Height F mx PaintData imagemask Width 0 +}repeat E}b E d/mp/makepattern , d
/build_pattern{CTMsave GDIBWPatternMx setmatrix/nupangle where{! nupangle -90
eq{nupangle R}if}if GDIBWPatternDict @ ` Width Height ne{Width Height gt{Width
Height V 1}{1 Height Width V}? +S}if xOrg yOrg E matrix + mp CTMrestore}b/hbf
{setpattern}b/hf{:/fEOFill ~ d ~ ! setpattern fEOFill{O}{L}? ;}b/pbf{: !
/fEOFill ~ d GDIBWPatternDict `/yOrg ~ d/xOrg ~ d/PaintData ~ d/OutputBPP ~ d
/Height ~ d/Width ~ d/PaintType 1 d/PatternType 1 d/TilingType 1 d/BBox[0 0
Width Height]d/XStep Width d/YStep Height d/mx xOrg yOrg matrix + d 20 dict @ `
/ImageType 1 d/Width Width d/Height Height d/ImageMatrix[1 0 0 1 0 0]d
/BitsPerComponent 8 d OutputBPP 24 eq{/Decode[0 1 0 1 0 1]d}{OutputBPP 8 eq{
/Decode[0 1]d}{/Decode[0 1 0 1 0 1 0 1]d}?}?/DataSource{PaintData}d E/ImageDict
~ d/PaintProc{` ImageDict image E}b & mx makepattern setpattern E fEOFill{O}{L}
? ;}b/mask_pbf{:/fEOFill ~ d 20 dict `/yOrg ~ d/xOrg ~ d/PaintData ~ d/Height ~
d/Width ~ d/PatternType 1 d/PaintType 2 d/TilingType 1 d/BBox[0 0 Width Height]
d/XStep Width d/YStep Height d/mx xOrg yOrg matrix + d/PaintProc{` Width Height
T 1 1 dtransform abs ~ abs ~ 0 0 3 -1 $ 0 0 6 array astore{PaintData}imagemask
E}b & mx makepattern setpattern E fEOFill{O}{L}? ;}b
%%EndResource
end reinitialize
: N 473 2 556 556 rp C 
1 1 1 1 scol  L ; 1 1 1 1 scol : 472 1 557 557 rc N 1029 558 M 472 558 I 472 1 I 1029 1 I C 
K 
; : N 516 45 8 9 rp C 
0 0 0 1 scol  L ; 0 0 0 1 scol N 524 54 M 515 54 I 515 44 I 524 44 I C 
K 
: N 526 45 51 8 rp C 
 L ; N 577 53 M 525 53 I 525 44 I 577 44 I C 
K 
: N 579 45 8 9 rp C 
 L ; N 587 54 M 578 54 I 578 44 I 587 44 I C 
K 
: N 600 45 8 8 rp C 
 L ; N 608 53 M 599 53 I 599 44 I 608 44 I C 
K 
: N 621 45 8 9 rp C 
 L ; N 629 54 M 620 54 I 620 44 I 629 44 I C 
K 
: N 673 45 9 8 rp C 
 L ; N 682 53 M 672 53 I 672 44 I 682 44 I C 
K 
: N 694 45 9 9 rp C 
 L ; N 703 54 M 693 54 I 693 44 I 703 44 I C 
K 
: N 704 45 9 8 rp C 
 L ; N 713 53 M 703 53 I 703 44 I 713 44 I C 
K 
: N 747 45 8 8 rp C 
 L ; N 755 53 M 746 53 I 746 44 I 755 44 I C 
K 
: N 768 45 19 8 rp C 
 L ; N 787 53 M 767 53 I 767 44 I 787 44 I C 
K 
: N 810 45 9 9 rp C 
 L ; N 819 54 M 809 54 I 809 44 I 819 44 I C 
K 
: N 831 45 9 8 rp C 
 L ; N 840 53 M 830 53 I 830 44 I 840 44 I C 
K 
: N 842 45 8 9 rp C 
 L ; N 850 54 M 841 54 I 841 44 I 850 44 I C 
K 
: N 863 45 8 9 rp C 
 L ; N 871 54 M 862 54 I 862 44 I 871 44 I C 
K 
: N 894 45 9 8 rp C 
 L ; N 903 53 M 893 53 I 893 44 I 903 44 I C 
K 
: N 915 45 9 9 rp C 
 L ; N 924 54 M 914 54 I 914 44 I 924 44 I C 
K 
: N 925 45 52 8 rp C 
 L ; N 977 53 M 924 53 I 924 44 I 977 44 I C 
K 
: N 978 45 9 9 rp C 
 L ; N 987 54 M 977 54 I 977 44 I 987 44 I C 
K 
: N 516 55 8 9 rp C 
 L ; N 524 64 M 515 64 I 515 54 I 524 54 I C 
K 
: N 579 55 8 9 rp C 
 L ; N 587 64 M 578 64 I 578 54 I 587 54 I C 
K 
: N 621 55 8 9 rp C 
 L ; N 629 64 M 620 64 I 620 54 I 629 54 I C 
K 
: N 642 55 19 9 rp C 
 L ; N 661 64 M 641 64 I 641 54 I 661 54 I C 
K 
: N 684 55 19 9 rp C 
 L ; N 703 64 M 683 64 I 683 54 I 703 54 I C 
K 
: N 715 55 9 9 rp C 
 L ; N 724 64 M 714 64 I 714 54 I 724 54 I C 
K 
: N 736 55 9 9 rp C 
 L ; N 745 64 M 735 64 I 735 54 I 745 54 I C 
K 
: N 789 55 8 9 rp C 
 L ; N 797 64 M 788 64 I 788 54 I 797 54 I C 
K 
: N 810 55 9 9 rp C 
 L ; N 819 64 M 809 64 I 809 54 I 819 54 I C 
K 
: N 820 55 9 9 rp C 
 L ; N 829 64 M 819 64 I 819 54 I 829 54 I C 
K 
: N 842 55 8 9 rp C 
 L ; N 850 64 M 841 64 I 841 54 I 850 54 I C 
K 
: N 863 55 8 9 rp C 
 L ; N 871 64 M 862 64 I 862 54 I 871 54 I C 
K 
: N 884 55 8 9 rp C 
 L ; N 892 64 M 883 64 I 883 54 I 892 54 I C 
K 
: N 915 55 9 9 rp C 
 L ; N 924 64 M 914 64 I 914 54 I 924 54 I C 
K 
: N 978 55 9 9 rp C 
 L ; N 987 64 M 977 64 I 977 54 I 987 54 I C 
K 
: N 516 66 8 9 rp C 
 L ; N 524 75 M 515 75 I 515 65 I 524 65 I C 
K 
: N 537 66 29 9 rp C 
 L ; N 566 75 M 536 75 I 536 65 I 566 65 I C 
K 
: N 579 66 8 9 rp C 
 L ; N 587 75 M 578 75 I 578 65 I 587 65 I C 
K 
: N 600 66 9 8 rp C 
 L ; N 609 74 M 599 74 I 599 65 I 609 65 I C 
K 
: N 610 66 9 9 rp C 
 L ; N 619 75 M 609 75 I 609 65 I 619 65 I C 
K 
: N 663 66 19 8 rp C 
 L ; N 682 74 M 662 74 I 662 65 I 682 65 I C 
K 
: N 705 66 8 9 rp C 
 L ; N 713 75 M 704 75 I 704 65 I 713 65 I C 
K 
: N 715 66 9 8 rp C 
 L ; N 724 74 M 714 74 I 714 65 I 724 65 I C 
K 
: N 736 66 9 8 rp C 
 L ; N 745 74 M 735 74 I 735 65 I 745 65 I C 
K 
: N 768 66 8 8 rp C 
 L ; N 776 74 M 767 74 I 767 65 I 776 65 I C 
K 
: N 799 66 20 9 rp C 
 L ; N 819 75 M 798 75 I 798 65 I 819 65 I C 
K 
: N 884 66 8 9 rp C 
 L ; N 892 75 M 883 75 I 883 65 I 892 65 I C 
K 
: N 915 66 9 9 rp C 
 L ; N 924 75 M 914 75 I 914 65 I 924 65 I C 
K 
: N 936 66 30 9 rp C 
 L ; N 966 75 M 935 75 I 935 65 I 966 65 I C 
K 
: N 978 66 9 9 rp C 
 L ; N 987 75 M 977 75 I 977 65 I 987 65 I C 
K 
: N 516 76 8 9 rp C 
 L ; N 524 85 M 515 85 I 515 75 I 524 75 I C 
K 
: N 537 76 29 9 rp C 
 L ; N 566 85 M 536 85 I 536 75 I 566 75 I C 
K 
: N 579 76 8 9 rp C 
 L ; N 587 85 M 578 85 I 578 75 I 587 75 I C 
K 
: N 610 76 9 9 rp C 
 L ; N 619 85 M 609 85 I 609 75 I 619 75 I C 
K 
: N 642 76 8 9 rp C 
 L ; N 650 85 M 641 85 I 641 75 I 650 75 I C 
K 
: N 684 76 9 9 rp C 
 L ; N 693 85 M 683 85 I 683 75 I 693 75 I C 
K 
: N 694 76 9 9 rp C 
 L ; N 703 85 M 693 85 I 693 75 I 703 75 I C 
K 
: N 704 76 9 9 rp C 
 L ; N 713 85 M 703 85 I 703 75 I 713 75 I C 
K 
: N 799 76 10 9 rp C 
 L ; N 809 85 M 798 85 I 798 75 I 809 75 I C 
K 
: N 810 76 9 9 rp C 
 L ; N 819 85 M 809 85 I 809 75 I 819 75 I C 
K 
: N 852 76 9 9 rp C 
 L ; N 861 85 M 851 85 I 851 75 I 861 75 I C 
K 
: N 884 76 19 9 rp C 
 L ; N 903 85 M 883 85 I 883 75 I 903 75 I C 
K 
: N 915 76 9 9 rp C 
 L ; N 924 85 M 914 85 I 914 75 I 924 75 I C 
K 
: N 936 76 30 9 rp C 
 L ; N 966 85 M 935 85 I 935 75 I 966 75 I C 
K 
: N 978 76 9 9 rp C 
 L ; N 987 85 M 977 85 I 977 75 I 987 75 I C 
K 
: N 516 87 8 9 rp C 
 L ; N 524 96 M 515 96 I 515 86 I 524 86 I C 
K 
: N 537 87 29 8 rp C 
 L ; N 566 95 M 536 95 I 536 86 I 566 86 I C 
K 
: N 579 87 8 9 rp C 
 L ; N 587 96 M 578 96 I 578 86 I 587 86 I C 
K 
: N 610 87 20 8 rp C 
 L ; N 630 95 M 609 95 I 609 86 I 630 86 I C 
K 
: N 631 87 9 9 rp C 
 L ; N 640 96 M 630 96 I 630 86 I 640 86 I C 
K 
: N 652 87 9 9 rp C 
 L ; N 661 96 M 651 96 I 651 86 I 661 86 I C 
K 
: N 662 87 10 8 rp C 
 L ; N 672 95 M 661 95 I 661 86 I 672 86 I C 
K 
: N 673 87 9 9 rp C 
 L ; N 682 96 M 672 96 I 672 86 I 682 86 I C 
K 
: N 694 87 9 9 rp C 
 L ; N 703 96 M 693 96 I 693 86 I 703 86 I C 
K 
: N 715 87 9 8 rp C 
 L ; N 724 95 M 714 95 I 714 86 I 724 86 I C 
K 
: N 726 87 8 9 rp C 
 L ; N 734 96 M 725 96 I 725 86 I 734 86 I C 
K 
: N 736 87 30 8 rp C 
 L ; N 766 95 M 735 95 I 735 86 I 766 86 I C 
K 
: N 768 87 8 9 rp C 
 L ; N 776 96 M 767 96 I 767 86 I 776 86 I C 
K 
: N 778 87 19 8 rp C 
 L ; N 797 95 M 777 95 I 777 86 I 797 86 I C 
K 
: N 810 87 19 9 rp C 
 L ; N 829 96 M 809 96 I 809 86 I 829 86 I C 
K 
: N 852 87 9 9 rp C 
 L ; N 861 96 M 851 96 I 851 86 I 861 86 I C 
K 
: N 873 87 30 8 rp C 
 L ; N 903 95 M 872 95 I 872 86 I 903 86 I C 
K 
: N 915 87 9 9 rp C 
 L ; N 924 96 M 914 96 I 914 86 I 924 86 I C 
K 
: N 936 87 30 8 rp C 
 L ; N 966 95 M 935 95 I 935 86 I 966 86 I C 
K 
: N 978 87 9 9 rp C 
 L ; N 987 96 M 977 96 I 977 86 I 987 86 I C 
K 
: N 516 97 8 9 rp C 
 L ; N 524 106 M 515 106 I 515 96 I 524 96 I C 
K 
: N 579 97 8 9 rp C 
 L ; N 587 106 M 578 106 I 578 96 I 587 96 I C 
K 
: N 600 97 8 9 rp C 
 L ; N 608 106 M 599 106 I 599 96 I 608 96 I C 
K 
: N 631 97 9 9 rp C 
 L ; N 640 106 M 630 106 I 630 96 I 640 96 I C 
K 
: N 642 97 8 9 rp C 
 L ; N 650 106 M 641 106 I 641 96 I 650 96 I C 
K 
: N 652 97 9 9 rp C 
 L ; N 661 106 M 651 106 I 651 96 I 661 96 I C 
K 
: N 673 97 9 9 rp C 
 L ; N 682 106 M 672 106 I 672 96 I 682 96 I C 
K 
: N 684 97 8 9 rp C 
 L ; N 692 106 M 683 106 I 683 96 I 692 96 I C 
K 
: N 694 97 9 9 rp C 
 L ; N 703 106 M 693 106 I 693 96 I 703 96 I C 
K 
: N 705 97 8 9 rp C 
 L ; N 713 106 M 704 106 I 704 96 I 713 96 I C 
K 
: N 726 97 8 9 rp C 
 L ; N 734 106 M 725 106 I 725 96 I 734 96 I C 
K 
: N 768 97 8 9 rp C 
 L ; N 776 106 M 767 106 I 767 96 I 776 96 I C 
K 
: N 810 97 9 9 rp C 
 L ; N 819 106 M 809 106 I 809 96 I 819 96 I C 
K 
: N 820 97 10 9 rp C 
 L ; N 830 106 M 819 106 I 819 96 I 830 96 I C 
K 
: N 831 97 9 9 rp C 
 L ; N 840 106 M 830 106 I 830 96 I 840 96 I C 
K 
: N 852 97 9 9 rp C 
 L ; N 861 106 M 851 106 I 851 96 I 861 96 I C 
K 
: N 915 97 9 9 rp C 
 L ; N 924 106 M 914 106 I 914 96 I 924 96 I C 
K 
: N 978 97 9 9 rp C 
 L ; N 987 106 M 977 106 I 977 96 I 987 96 I C 
K 
: N 516 108 71 8 rp C 
 L ; N 587 116 M 515 116 I 515 107 I 587 107 I C 
K 
: N 600 108 8 8 rp C 
 L ; N 608 116 M 599 116 I 599 107 I 608 107 I C 
K 
: N 621 108 8 9 rp C 
 L ; N 629 117 M 620 117 I 620 107 I 629 107 I C 
K 
: N 642 108 8 8 rp C 
 L ; N 650 116 M 641 116 I 641 107 I 650 107 I C 
K 
: N 663 108 8 9 rp C 
 L ; N 671 117 M 662 117 I 662 107 I 671 107 I C 
K 
: N 684 108 8 9 rp C 
 L ; N 692 117 M 683 117 I 683 107 I 692 107 I C 
K 
: N 705 108 8 9 rp C 
 L ; N 713 117 M 704 117 I 704 107 I 713 107 I C 
K 
: N 726 108 8 9 rp C 
 L ; N 734 117 M 725 117 I 725 107 I 734 107 I C 
K 
: N 747 108 8 8 rp C 
 L ; N 755 116 M 746 116 I 746 107 I 755 107 I C 
K 
: N 768 108 8 9 rp C 
 L ; N 776 117 M 767 117 I 767 107 I 776 107 I C 
K 
: N 789 108 8 9 rp C 
 L ; N 797 117 M 788 117 I 788 107 I 797 107 I C 
K 
: N 810 108 9 9 rp C 
 L ; N 819 117 M 809 117 I 809 107 I 819 107 I C 
K 
: N 831 108 9 8 rp C 
 L ; N 840 116 M 830 116 I 830 107 I 840 107 I C 
K 
: N 852 108 9 9 rp C 
 L ; N 861 117 M 851 117 I 851 107 I 861 107 I C 
K 
: N 873 108 9 8 rp C 
 L ; N 882 116 M 872 116 I 872 107 I 882 107 I C 
K 
: N 894 108 9 8 rp C 
 L ; N 903 116 M 893 116 I 893 107 I 903 107 I C 
K 
: N 915 108 72 8 rp C 
 L ; N 987 116 M 914 116 I 914 107 I 987 107 I C 
K 
: N 621 118 19 9 rp C 
 L ; N 640 127 M 620 127 I 620 117 I 640 117 I C 
K 
: N 663 118 19 9 rp C 
 L ; N 682 127 M 662 127 I 662 117 I 682 117 I C 
K 
: N 684 118 8 9 rp C 
 L ; N 692 127 M 683 127 I 683 117 I 692 117 I C 
K 
: N 705 118 8 9 rp C 
 L ; N 713 127 M 704 127 I 704 117 I 713 117 I C 
K 
: N 726 118 8 9 rp C 
 L ; N 734 127 M 725 127 I 725 117 I 734 117 I C 
K 
: N 768 118 8 9 rp C 
 L ; N 776 127 M 767 127 I 767 117 I 776 117 I C 
K 
: N 789 118 8 9 rp C 
 L ; N 797 127 M 788 127 I 788 117 I 797 117 I C 
K 
: N 810 118 19 9 rp C 
 L ; N 829 127 M 809 127 I 809 117 I 829 117 I C 
K 
: N 852 118 9 9 rp C 
 L ; N 861 127 M 851 127 I 851 117 I 861 117 I C 
K 
: N 516 129 8 9 rp C 
 L ; N 524 138 M 515 138 I 515 128 I 524 128 I C 
K 
: N 537 129 8 9 rp C 
 L ; N 545 138 M 536 138 I 536 128 I 545 128 I C 
K 
: N 579 129 9 8 rp C 
 L ; N 588 137 M 578 137 I 578 128 I 588 128 I C 
K 
: N 589 129 9 9 rp C 
 L ; N 598 138 M 588 138 I 588 128 I 598 128 I C 
K 
: N 610 129 9 8 rp C 
 L ; N 619 137 M 609 137 I 609 128 I 619 128 I C 
K 
: N 642 129 8 9 rp C 
 L ; N 650 138 M 641 138 I 641 128 I 650 128 I C 
K 
: N 684 129 8 9 rp C 
 L ; N 692 138 M 683 138 I 683 128 I 692 128 I C 
K 
: N 726 129 9 8 rp C 
 L ; N 735 137 M 725 137 I 725 128 I 735 128 I C 
K 
: N 736 129 9 9 rp C 
 L ; N 745 138 M 735 138 I 735 128 I 745 128 I C 
K 
: N 746 129 10 8 rp C 
 L ; N 756 137 M 745 137 I 745 128 I 756 128 I C 
K 
: N 757 129 9 9 rp C 
 L ; N 766 138 M 756 138 I 756 128 I 766 128 I C 
K 
: N 767 129 20 8 rp C 
 L ; N 787 137 M 766 137 I 766 128 I 787 128 I C 
K 
: N 831 129 19 9 rp C 
 L ; N 850 138 M 830 138 I 830 128 I 850 128 I C 
K 
: N 863 129 29 8 rp C 
 L ; N 892 137 M 862 137 I 862 128 I 892 128 I C 
K 
: N 926 129 8 9 rp C 
 L ; N 934 138 M 925 138 I 925 128 I 934 128 I C 
K 
: N 957 129 9 9 rp C 
 L ; N 966 138 M 956 138 I 956 128 I 966 128 I C 
K 
: N 978 129 9 8 rp C 
 L ; N 987 137 M 977 137 I 977 128 I 987 128 I C 
K 
: N 516 139 29 9 rp C 
 L ; N 545 148 M 515 148 I 515 138 I 545 138 I C 
K 
: N 568 139 9 9 rp C 
 L ; N 577 148 M 567 148 I 567 138 I 577 138 I C 
K 
: N 589 139 9 9 rp C 
 L ; N 598 148 M 588 148 I 588 138 I 598 138 I C 
K 
: N 642 139 8 9 rp C 
 L ; N 650 148 M 641 148 I 641 138 I 650 138 I C 
K 
: N 663 139 8 9 rp C 
 L ; N 671 148 M 662 148 I 662 138 I 671 138 I C 
K 
: N 684 139 8 9 rp C 
 L ; N 692 148 M 683 148 I 683 138 I 692 138 I C 
K 
: N 715 139 9 9 rp C 
 L ; N 724 148 M 714 148 I 714 138 I 724 138 I C 
K 
: N 736 139 9 9 rp C 
 L ; N 745 148 M 735 148 I 735 138 I 745 138 I C 
K 
: N 757 139 9 9 rp C 
 L ; N 766 148 M 756 148 I 756 138 I 766 138 I C 
K 
: N 799 139 9 9 rp C 
 L ; N 808 148 M 798 148 I 798 138 I 808 138 I C 
K 
: N 810 139 9 9 rp C 
 L ; N 819 148 M 809 148 I 809 138 I 819 138 I C 
K 
: N 831 139 19 9 rp C 
 L ; N 850 148 M 830 148 I 830 138 I 850 138 I C 
K 
: N 894 139 9 9 rp C 
 L ; N 903 148 M 893 148 I 893 138 I 903 138 I C 
K 
: N 904 139 9 9 rp C 
 L ; N 913 148 M 903 148 I 903 138 I 913 138 I C 
K 
: N 926 139 8 9 rp C 
 L ; N 934 148 M 925 148 I 925 138 I 934 138 I C 
K 
: N 957 139 9 9 rp C 
 L ; N 966 148 M 956 148 I 956 138 I 966 138 I C 
K 
: N 516 150 19 9 rp C 
 L ; N 535 159 M 515 159 I 515 149 I 535 149 I C 
K 
: N 536 150 9 8 rp C 
 L ; N 545 158 M 535 158 I 535 149 I 545 149 I C 
K 
: N 579 150 19 8 rp C 
 L ; N 598 158 M 578 158 I 578 149 I 598 149 I C 
K 
: N 610 150 9 8 rp C 
 L ; N 619 158 M 609 158 I 609 149 I 619 149 I C 
K 
: N 673 150 19 8 rp C 
 L ; N 692 158 M 672 158 I 672 149 I 692 149 I C 
K 
: N 726 150 8 8 rp C 
 L ; N 734 158 M 725 158 I 725 149 I 734 149 I C 
K 
: N 747 150 19 9 rp C 
 L ; N 766 159 M 746 159 I 746 149 I 766 149 I C 
K 
: N 767 150 9 8 rp C 
 L ; N 776 158 M 766 158 I 766 149 I 776 149 I C 
K 
: N 789 150 8 9 rp C 
 L ; N 797 159 M 788 159 I 788 149 I 797 149 I C 
K 
: N 799 150 9 8 rp C 
 L ; N 808 158 M 798 158 I 798 149 I 808 149 I C 
K 
: N 831 150 30 9 rp C 
 L ; N 861 159 M 830 159 I 830 149 I 861 149 I C 
K 
: N 862 150 20 8 rp C 
 L ; N 882 158 M 861 158 I 861 149 I 882 149 I C 
K 
: N 894 150 9 9 rp C 
 L ; N 903 159 M 893 159 I 893 149 I 903 149 I C 
K 
: N 915 150 19 9 rp C 
 L ; N 934 159 M 914 159 I 914 149 I 934 149 I C 
K 
: N 947 150 9 8 rp C 
 L ; N 956 158 M 946 158 I 946 149 I 956 149 I C 
K 
: N 957 150 9 9 rp C 
 L ; N 966 159 M 956 159 I 956 149 I 966 149 I C 
K 
: N 516 160 19 9 rp C 
 L ; N 535 169 M 515 169 I 515 159 I 535 159 I C 
K 
: N 558 160 8 9 rp C 
 L ; N 566 169 M 557 169 I 557 159 I 566 159 I C 
K 
: N 568 160 9 9 rp C 
 L ; N 577 169 M 567 169 I 567 159 I 577 159 I C 
K 
: N 600 160 8 9 rp C 
 L ; N 608 169 M 599 169 I 599 159 I 608 159 I C 
K 
: N 621 160 19 9 rp C 
 L ; N 640 169 M 620 169 I 620 159 I 640 159 I C 
K 
: N 663 160 8 9 rp C 
 L ; N 671 169 M 662 169 I 662 159 I 671 159 I C 
K 
: N 694 160 9 9 rp C 
 L ; N 703 169 M 693 169 I 693 159 I 703 159 I C 
K 
: N 736 160 9 9 rp C 
 L ; N 745 169 M 735 169 I 735 159 I 745 159 I C 
K 
: N 747 160 19 9 rp C 
 L ; N 766 169 M 746 169 I 746 159 I 766 159 I C 
K 
: N 789 160 8 9 rp C 
 L ; N 797 169 M 788 169 I 788 159 I 797 159 I C 
K 
: N 810 160 20 9 rp C 
 L ; N 830 169 M 809 169 I 809 159 I 830 159 I C 
K 
: N 831 160 19 9 rp C 
 L ; N 850 169 M 830 169 I 830 159 I 850 159 I C 
K 
: N 852 160 9 9 rp C 
 L ; N 861 169 M 851 169 I 851 159 I 861 159 I C 
K 
: N 894 160 9 9 rp C 
 L ; N 903 169 M 893 169 I 893 159 I 903 159 I C 
K 
: N 915 160 19 9 rp C 
 L ; N 934 169 M 914 169 I 914 159 I 934 159 I C 
K 
: N 936 160 9 9 rp C 
 L ; N 945 169 M 935 169 I 935 159 I 945 159 I C 
K 
: N 957 160 9 9 rp C 
 L ; N 966 169 M 956 169 I 956 159 I 966 159 I C 
K 
: N 978 160 9 9 rp C 
 L ; N 987 169 M 977 169 I 977 159 I 987 159 I C 
K 
: N 516 171 19 8 rp C 
 L ; N 535 179 M 515 179 I 515 170 I 535 170 I C 
K 
: N 558 171 8 9 rp C 
 L ; N 566 180 M 557 180 I 557 170 I 566 170 I C 
K 
: N 579 171 19 8 rp C 
 L ; N 598 179 M 578 179 I 578 170 I 598 170 I C 
K 
: N 600 171 19 9 rp C 
 L ; N 619 180 M 599 180 I 599 170 I 619 170 I C 
K 
: N 673 171 19 9 rp C 
 L ; N 692 180 M 672 180 I 672 170 I 692 170 I C 
K 
: N 726 171 8 8 rp C 
 L ; N 734 179 M 725 179 I 725 170 I 734 170 I C 
K 
: N 747 171 8 9 rp C 
 L ; N 755 180 M 746 180 I 746 170 I 755 170 I C 
K 
: N 757 171 19 8 rp C 
 L ; N 776 179 M 756 179 I 756 170 I 776 170 I C 
K 
: N 789 171 8 9 rp C 
 L ; N 797 180 M 788 180 I 788 170 I 797 170 I C 
K 
: N 831 171 9 9 rp C 
 L ; N 840 180 M 830 180 I 830 170 I 840 170 I C 
K 
: N 841 171 9 8 rp C 
 L ; N 850 179 M 840 179 I 840 170 I 850 170 I C 
K 
: N 873 171 9 9 rp C 
 L ; N 882 180 M 872 180 I 872 170 I 882 170 I C 
K 
: N 894 171 9 9 rp C 
 L ; N 903 180 M 893 180 I 893 170 I 903 170 I C 
K 
: N 915 171 19 8 rp C 
 L ; N 934 179 M 914 179 I 914 170 I 934 170 I C 
K 
: N 947 171 8 9 rp C 
 L ; N 955 180 M 946 180 I 946 170 I 955 170 I C 
K 
: N 558 181 8 9 rp C 
 L ; N 566 190 M 557 190 I 557 180 I 566 180 I C 
K 
: N 600 181 19 9 rp C 
 L ; N 619 190 M 599 190 I 599 180 I 619 180 I C 
K 
: N 620 181 20 9 rp C 
 L ; N 640 190 M 619 190 I 619 180 I 640 180 I C 
K 
: N 652 181 9 9 rp C 
 L ; N 661 190 M 651 190 I 651 180 I 661 180 I C 
K 
: N 663 181 8 9 rp C 
 L ; N 671 190 M 662 190 I 662 180 I 671 180 I C 
K 
: N 673 181 20 9 rp C 
 L ; N 693 190 M 672 190 I 672 180 I 693 180 I C 
K 
: N 694 181 9 9 rp C 
 L ; N 703 190 M 693 190 I 693 180 I 703 180 I C 
K 
: N 736 181 9 9 rp C 
 L ; N 745 190 M 735 190 I 735 180 I 745 180 I C 
K 
: N 746 181 9 9 rp C 
 L ; N 755 190 M 745 190 I 745 180 I 755 180 I C 
K 
: N 789 181 8 9 rp C 
 L ; N 797 190 M 788 190 I 788 180 I 797 180 I C 
K 
: N 821 181 9 9 rp C 
 L ; N 830 190 M 820 190 I 820 180 I 830 180 I C 
K 
: N 831 181 9 9 rp C 
 L ; N 840 190 M 830 190 I 830 180 I 840 180 I C 
K 
: N 863 181 9 9 rp C 
 L ; N 872 190 M 862 190 I 862 180 I 872 180 I C 
K 
: N 873 181 9 9 rp C 
 L ; N 882 190 M 872 190 I 872 180 I 882 180 I C 
K 
: N 883 181 10 9 rp C 
 L ; N 893 190 M 882 190 I 882 180 I 893 180 I C 
K 
: N 894 181 9 9 rp C 
 L ; N 903 190 M 893 190 I 893 180 I 903 180 I C 
K 
: N 947 181 9 9 rp C 
 L ; N 956 190 M 946 190 I 946 180 I 956 180 I C 
K 
: N 957 181 9 9 rp C 
 L ; N 966 190 M 956 190 I 956 180 I 966 180 I C 
K 
: N 516 192 8 9 rp C 
 L ; N 524 201 M 515 201 I 515 191 I 524 191 I C 
K 
: N 526 192 30 8 rp C 
 L ; N 556 200 M 525 200 I 525 191 I 556 191 I C 
K 
: N 558 192 8 9 rp C 
 L ; N 566 201 M 557 201 I 557 191 I 566 191 I C 
K 
: N 579 192 8 8 rp C 
 L ; N 587 200 M 578 200 I 578 191 I 587 191 I C 
K 
: N 600 192 9 8 rp C 
 L ; N 609 200 M 599 200 I 599 191 I 609 191 I C 
K 
: N 610 192 9 9 rp C 
 L ; N 619 201 M 609 201 I 609 191 I 619 191 I C 
K 
: N 642 192 8 9 rp C 
 L ; N 650 201 M 641 201 I 641 191 I 650 191 I C 
K 
: N 663 192 8 8 rp C 
 L ; N 671 200 M 662 200 I 662 191 I 671 191 I C 
K 
: N 694 192 9 9 rp C 
 L ; N 703 201 M 693 201 I 693 191 I 703 191 I C 
K 
: N 726 192 19 9 rp C 
 L ; N 745 201 M 725 201 I 725 191 I 745 191 I C 
K 
: N 757 192 9 9 rp C 
 L ; N 766 201 M 756 201 I 756 191 I 766 191 I C 
K 
: N 831 192 9 9 rp C 
 L ; N 840 201 M 830 201 I 830 191 I 840 191 I C 
K 
: N 841 192 9 8 rp C 
 L ; N 850 200 M 840 200 I 840 191 I 850 191 I C 
K 
: N 873 192 9 9 rp C 
 L ; N 882 201 M 872 201 I 872 191 I 882 191 I C 
K 
: N 894 192 9 8 rp C 
 L ; N 903 200 M 893 200 I 893 191 I 903 191 I C 
K 
: N 957 192 9 9 rp C 
 L ; N 966 201 M 956 201 I 956 191 I 966 191 I C 
K 
: N 516 202 8 9 rp C 
 L ; N 524 211 M 515 211 I 515 201 I 524 201 I C 
K 
: N 558 202 9 9 rp C 
 L ; N 567 211 M 557 211 I 557 201 I 567 201 I C 
K 
: N 568 202 9 9 rp C 
 L ; N 577 211 M 567 211 I 567 201 I 577 201 I C 
K 
: N 589 202 9 9 rp C 
 L ; N 598 211 M 588 211 I 588 201 I 598 201 I C 
K 
: N 610 202 9 9 rp C 
 L ; N 619 211 M 609 211 I 609 201 I 619 201 I C 
K 
: N 620 202 10 9 rp C 
 L ; N 630 211 M 619 211 I 619 201 I 630 201 I C 
K 
: N 631 202 9 9 rp C 
 L ; N 640 211 M 630 211 I 630 201 I 640 201 I C 
K 
: N 641 202 10 9 rp C 
 L ; N 651 211 M 640 211 I 640 201 I 651 201 I C 
K 
: N 652 202 9 9 rp C 
 L ; N 661 211 M 651 211 I 651 201 I 661 201 I C 
K 
: N 673 202 9 9 rp C 
 L ; N 682 211 M 672 211 I 672 201 I 682 201 I C 
K 
: N 684 202 8 9 rp C 
 L ; N 692 211 M 683 211 I 683 201 I 692 201 I C 
K 
: N 694 202 9 9 rp C 
 L ; N 703 211 M 693 211 I 693 201 I 703 201 I C 
K 
: N 726 202 40 9 rp C 
 L ; N 766 211 M 725 211 I 725 201 I 766 201 I C 
K 
: N 778 202 9 9 rp C 
 L ; N 787 211 M 777 211 I 777 201 I 787 201 I C 
K 
: N 821 202 19 9 rp C 
 L ; N 840 211 M 820 211 I 820 201 I 840 201 I C 
K 
: N 873 202 9 9 rp C 
 L ; N 882 211 M 872 211 I 872 201 I 882 201 I C 
K 
: N 915 202 19 9 rp C 
 L ; N 934 211 M 914 211 I 914 201 I 934 201 I C 
K 
: N 936 202 9 9 rp C 
 L ; N 945 211 M 935 211 I 935 201 I 945 201 I C 
K 
: N 957 202 19 9 rp C 
 L ; N 976 211 M 956 211 I 956 201 I 976 201 I C 
K 
: N 526 213 9 8 rp C 
 L ; N 535 221 M 525 221 I 525 212 I 535 212 I C 
K 
: N 568 213 19 8 rp C 
 L ; N 587 221 M 567 221 I 567 212 I 587 212 I C 
K 
: N 610 213 9 8 rp C 
 L ; N 619 221 M 609 221 I 609 212 I 619 212 I C 
K 
: N 631 213 9 8 rp C 
 L ; N 640 221 M 630 221 I 630 212 I 640 212 I C 
K 
: N 652 213 9 9 rp C 
 L ; N 661 222 M 651 222 I 651 212 I 661 212 I C 
K 
: N 684 213 8 8 rp C 
 L ; N 692 221 M 683 221 I 683 212 I 692 212 I C 
K 
: N 726 213 19 9 rp C 
 L ; N 745 222 M 725 222 I 725 212 I 745 212 I C 
K 
: N 746 213 10 8 rp C 
 L ; N 756 221 M 745 221 I 745 212 I 756 212 I C 
K 
: N 757 213 9 9 rp C 
 L ; N 766 222 M 756 222 I 756 212 I 766 212 I C 
K 
: N 789 213 19 9 rp C 
 L ; N 808 222 M 788 222 I 788 212 I 808 212 I C 
K 
: N 821 213 30 8 rp C 
 L ; N 851 221 M 820 221 I 820 212 I 851 212 I C 
K 
: N 852 213 9 9 rp C 
 L ; N 861 222 M 851 222 I 851 212 I 861 212 I C 
K 
: N 873 213 9 9 rp C 
 L ; N 882 222 M 872 222 I 872 212 I 882 212 I C 
K 
: N 894 213 9 8 rp C 
 L ; N 903 221 M 893 221 I 893 212 I 903 212 I C 
K 
: N 915 213 9 9 rp C 
 L ; N 924 222 M 914 222 I 914 212 I 924 212 I C 
K 
: N 925 213 9 8 rp C 
 L ; N 934 221 M 924 221 I 924 212 I 934 212 I C 
K 
: N 978 213 9 9 rp C 
 L ; N 987 222 M 977 222 I 977 212 I 987 212 I C 
K 
: N 516 223 8 9 rp C 
 L ; N 524 232 M 515 232 I 515 222 I 524 222 I C 
K 
: N 537 223 19 9 rp C 
 L ; N 556 232 M 536 232 I 536 222 I 556 222 I C 
K 
: N 589 223 19 10 rp C 
 L ; N 608 233 M 588 233 I 588 222 I 608 222 I C 
K 
: N 642 223 19 9 rp C 
 L ; N 661 232 M 641 232 I 641 222 I 661 222 I C 
K 
: N 673 223 9 10 rp C 
 L ; N 682 233 M 672 233 I 672 222 I 682 222 I C 
K 
: N 705 223 8 10 rp C 
 L ; N 713 233 M 704 233 I 704 222 I 713 222 I C 
K 
: N 715 223 30 9 rp C 
 L ; N 745 232 M 714 232 I 714 222 I 745 222 I C 
K 
: N 757 223 9 10 rp C 
 L ; N 766 233 M 756 233 I 756 222 I 766 222 I C 
K 
: N 767 223 9 9 rp C 
 L ; N 776 232 M 766 232 I 766 222 I 776 222 I C 
K 
: N 789 223 19 9 rp C 
 L ; N 808 232 M 788 232 I 788 222 I 808 222 I C 
K 
: N 852 223 9 9 rp C 
 L ; N 861 232 M 851 232 I 851 222 I 861 222 I C 
K 
: N 863 223 29 10 rp C 
 L ; N 892 233 M 862 233 I 862 222 I 892 222 I C 
K 
: N 915 223 9 10 rp C 
 L ; N 924 233 M 914 233 I 914 222 I 924 222 I C 
K 
: N 978 223 9 9 rp C 
 L ; N 987 232 M 977 232 I 977 222 I 987 222 I C 
K 
: N 526 234 9 9 rp C 
 L ; N 535 243 M 525 243 I 525 233 I 535 233 I C 
K 
: N 568 234 9 9 rp C 
 L ; N 577 243 M 567 243 I 567 233 I 577 233 I C 
K 
: N 578 234 10 9 rp C 
 L ; N 588 243 M 577 243 I 577 233 I 588 233 I C 
K 
: N 589 234 9 9 rp C 
 L ; N 598 243 M 588 243 I 588 233 I 598 233 I C 
K 
: N 599 234 41 9 rp C 
 L ; N 640 243 M 598 243 I 598 233 I 640 233 I C 
K 
: N 663 234 9 9 rp C 
 L ; N 672 243 M 662 243 I 662 233 I 672 233 I C 
K 
: N 673 234 9 9 rp C 
 L ; N 682 243 M 672 243 I 672 233 I 682 233 I C 
K 
: N 694 234 9 9 rp C 
 L ; N 703 243 M 693 243 I 693 233 I 703 233 I C 
K 
: N 704 234 9 9 rp C 
 L ; N 713 243 M 703 243 I 703 233 I 713 233 I C 
K 
: N 747 234 9 9 rp C 
 L ; N 756 243 M 746 243 I 746 233 I 756 233 I C 
K 
: N 757 234 9 9 rp C 
 L ; N 766 243 M 756 243 I 756 233 I 766 233 I C 
K 
: N 842 234 8 9 rp C 
 L ; N 850 243 M 841 243 I 841 233 I 850 233 I C 
K 
: N 863 234 8 9 rp C 
 L ; N 871 243 M 862 243 I 862 233 I 871 233 I C 
K 
: N 873 234 9 9 rp C 
 L ; N 882 243 M 872 243 I 872 233 I 882 233 I C 
K 
: N 884 234 8 9 rp C 
 L ; N 892 243 M 883 243 I 883 233 I 892 233 I C 
K 
: N 894 234 9 9 rp C 
 L ; N 903 243 M 893 243 I 893 233 I 903 233 I C 
K 
: N 905 234 19 9 rp C 
 L ; N 924 243 M 904 243 I 904 233 I 924 233 I C 
K 
: N 936 234 9 9 rp C 
 L ; N 945 243 M 935 243 I 935 233 I 945 233 I C 
K 
: N 957 234 19 9 rp C 
 L ; N 976 243 M 956 243 I 956 233 I 976 233 I C 
K 
: N 516 245 8 9 rp C 
 L ; N 524 254 M 515 254 I 515 244 I 524 244 I C 
K 
: N 537 245 8 8 rp C 
 L ; N 545 253 M 536 253 I 536 244 I 545 244 I C 
K 
: N 568 245 9 9 rp C 
 L ; N 577 254 M 567 254 I 567 244 I 577 244 I C 
K 
: N 589 245 9 9 rp C 
 L ; N 598 254 M 588 254 I 588 244 I 598 244 I C 
K 
: N 642 245 8 9 rp C 
 L ; N 650 254 M 641 254 I 641 244 I 650 244 I C 
K 
: N 652 245 9 8 rp C 
 L ; N 661 253 M 651 253 I 651 244 I 661 244 I C 
K 
: N 673 245 9 9 rp C 
 L ; N 682 254 M 672 254 I 672 244 I 682 244 I C 
K 
: N 683 245 10 8 rp C 
 L ; N 693 253 M 682 253 I 682 244 I 693 244 I C 
K 
: N 694 245 9 9 rp C 
 L ; N 703 254 M 693 254 I 693 244 I 703 244 I C 
K 
: N 726 245 19 9 rp C 
 L ; N 745 254 M 725 254 I 725 244 I 745 244 I C 
K 
: N 757 245 9 9 rp C 
 L ; N 766 254 M 756 254 I 756 244 I 766 244 I C 
K 
: N 778 245 9 9 rp C 
 L ; N 787 254 M 777 254 I 777 244 I 787 244 I C 
K 
: N 788 245 9 8 rp C 
 L ; N 797 253 M 787 253 I 787 244 I 797 244 I C 
K 
: N 821 245 9 8 rp C 
 L ; N 830 253 M 820 253 I 820 244 I 830 244 I C 
K 
: N 831 245 9 9 rp C 
 L ; N 840 254 M 830 254 I 830 244 I 840 244 I C 
K 
: N 852 245 19 8 rp C 
 L ; N 871 253 M 851 253 I 851 244 I 871 244 I C 
K 
: N 884 245 8 8 rp C 
 L ; N 892 253 M 883 253 I 883 244 I 892 244 I C 
K 
: N 905 245 19 9 rp C 
 L ; N 924 254 M 904 254 I 904 244 I 924 244 I C 
K 
: N 957 245 19 8 rp C 
 L ; N 976 253 M 956 253 I 956 244 I 976 244 I C 
K 
: N 516 255 9 9 rp C 
 L ; N 525 264 M 515 264 I 515 254 I 525 254 I C 
K 
: N 526 255 9 9 rp C 
 L ; N 535 264 M 525 264 I 525 254 I 535 254 I C 
K 
: N 547 255 19 9 rp C 
 L ; N 566 264 M 546 264 I 546 254 I 566 254 I C 
K 
: N 568 255 30 9 rp C 
 L ; N 598 264 M 567 264 I 567 254 I 598 254 I C 
K 
: N 600 255 8 9 rp C 
 L ; N 608 264 M 599 264 I 599 254 I 608 254 I C 
K 
: N 642 255 8 9 rp C 
 L ; N 650 264 M 641 264 I 641 254 I 650 254 I C 
K 
: N 663 255 19 9 rp C 
 L ; N 682 264 M 662 264 I 662 254 I 682 254 I C 
K 
: N 694 255 9 9 rp C 
 L ; N 703 264 M 693 264 I 693 254 I 703 254 I C 
K 
: N 715 255 9 9 rp C 
 L ; N 724 264 M 714 264 I 714 254 I 724 254 I C 
K 
: N 726 255 8 9 rp C 
 L ; N 734 264 M 725 264 I 725 254 I 734 254 I C 
K 
: N 736 255 30 9 rp C 
 L ; N 766 264 M 735 264 I 735 254 I 766 254 I C 
K 
: N 768 255 19 9 rp C 
 L ; N 787 264 M 767 264 I 767 254 I 787 254 I C 
K 
: N 831 255 19 9 rp C 
 L ; N 850 264 M 830 264 I 830 254 I 850 254 I C 
K 
: N 873 255 9 9 rp C 
 L ; N 882 264 M 872 264 I 872 254 I 882 254 I C 
K 
: N 894 255 9 9 rp C 
 L ; N 903 264 M 893 264 I 893 254 I 903 254 I C 
K 
: N 904 255 31 9 rp C 
 L ; N 935 264 M 903 264 I 903 254 I 935 254 I C 
K 
: N 936 255 9 9 rp C 
 L ; N 945 264 M 935 264 I 935 254 I 945 254 I C 
K 
: N 978 255 9 9 rp C 
 L ; N 987 264 M 977 264 I 977 254 I 987 254 I C 
K 
: N 526 266 30 8 rp C 
 L ; N 556 274 M 525 274 I 525 265 I 556 265 I C 
K 
: N 558 266 8 9 rp C 
 L ; N 566 275 M 557 275 I 557 265 I 566 265 I C 
K 
: N 600 266 8 9 rp C 
 L ; N 608 275 M 599 275 I 599 265 I 608 265 I C 
K 
: N 621 266 8 8 rp C 
 L ; N 629 274 M 620 274 I 620 265 I 629 265 I C 
K 
: N 663 266 9 8 rp C 
 L ; N 672 274 M 662 274 I 662 265 I 672 265 I C 
K 
: N 673 266 9 9 rp C 
 L ; N 682 275 M 672 275 I 672 265 I 682 265 I C 
K 
: N 726 266 8 9 rp C 
 L ; N 734 275 M 725 275 I 725 265 I 734 265 I C 
K 
: N 768 266 29 9 rp C 
 L ; N 797 275 M 767 275 I 767 265 I 797 265 I C 
K 
: N 799 266 9 8 rp C 
 L ; N 808 274 M 798 274 I 798 265 I 808 265 I C 
K 
: N 821 266 19 9 rp C 
 L ; N 840 275 M 820 275 I 820 265 I 840 265 I C 
K 
: N 841 266 9 8 rp C 
 L ; N 850 274 M 840 274 I 840 265 I 850 265 I C 
K 
: N 863 266 40 9 rp C 
 L ; N 903 275 M 862 275 I 862 265 I 903 265 I C 
K 
: N 936 266 19 9 rp C 
 L ; N 955 275 M 935 275 I 935 265 I 955 265 I C 
K 
: N 978 266 9 9 rp C 
 L ; N 987 275 M 977 275 I 977 265 I 987 265 I C 
K 
: N 516 276 8 9 rp C 
 L ; N 524 285 M 515 285 I 515 275 I 524 275 I C 
K 
: N 558 276 8 9 rp C 
 L ; N 566 285 M 557 285 I 557 275 I 566 275 I C 
K 
: N 579 276 8 9 rp C 
 L ; N 587 285 M 578 285 I 578 275 I 587 275 I C 
K 
: N 600 276 8 9 rp C 
 L ; N 608 285 M 599 285 I 599 275 I 608 275 I C 
K 
: N 610 276 9 9 rp C 
 L ; N 619 285 M 609 285 I 609 275 I 619 275 I C 
K 
: N 631 276 30 9 rp C 
 L ; N 661 285 M 630 285 I 630 275 I 661 275 I C 
K 
: N 673 276 9 9 rp C 
 L ; N 682 285 M 672 285 I 672 275 I 682 275 I C 
K 
: N 694 276 9 9 rp C 
 L ; N 703 285 M 693 285 I 693 275 I 703 275 I C 
K 
: N 704 276 20 9 rp C 
 L ; N 724 285 M 703 285 I 703 275 I 724 275 I C 
K 
: N 726 276 8 9 rp C 
 L ; N 734 285 M 725 285 I 725 275 I 734 275 I C 
K 
: N 747 276 8 9 rp C 
 L ; N 755 285 M 746 285 I 746 275 I 755 275 I C 
K 
: N 768 276 8 9 rp C 
 L ; N 776 285 M 767 285 I 767 275 I 776 275 I C 
K 
: N 778 276 9 9 rp C 
 L ; N 787 285 M 777 285 I 777 275 I 787 275 I C 
K 
: N 789 276 8 9 rp C 
 L ; N 797 285 M 788 285 I 788 275 I 797 275 I C 
K 
: N 810 276 9 9 rp C 
 L ; N 819 285 M 809 285 I 809 275 I 819 275 I C 
K 
: N 821 276 19 9 rp C 
 L ; N 840 285 M 820 285 I 820 275 I 840 275 I C 
K 
: N 852 276 30 9 rp C 
 L ; N 882 285 M 851 285 I 851 275 I 882 275 I C 
K 
: N 883 276 10 9 rp C 
 L ; N 893 285 M 882 285 I 882 275 I 893 275 I C 
K 
: N 894 276 9 9 rp C 
 L ; N 903 285 M 893 285 I 893 275 I 903 275 I C 
K 
: N 915 276 9 9 rp C 
 L ; N 924 285 M 914 285 I 914 275 I 924 275 I C 
K 
: N 936 276 9 9 rp C 
 L ; N 945 285 M 935 285 I 935 275 I 945 275 I C 
K 
: N 946 276 31 9 rp C 
 L ; N 977 285 M 945 285 I 945 275 I 977 275 I C 
K 
: N 978 276 9 9 rp C 
 L ; N 987 285 M 977 285 I 977 275 I 987 275 I C 
K 
: N 558 287 8 9 rp C 
 L ; N 566 296 M 557 296 I 557 286 I 566 286 I C 
K 
: N 600 287 8 9 rp C 
 L ; N 608 296 M 599 296 I 599 286 I 608 286 I C 
K 
: N 631 287 30 8 rp C 
 L ; N 661 295 M 630 295 I 630 286 I 661 286 I C 
K 
: N 673 287 20 8 rp C 
 L ; N 693 295 M 672 295 I 672 286 I 693 286 I C 
K 
: N 694 287 9 9 rp C 
 L ; N 703 296 M 693 296 I 693 286 I 703 286 I C 
K 
: N 726 287 8 9 rp C 
 L ; N 734 296 M 725 296 I 725 286 I 734 286 I C 
K 
: N 768 287 8 9 rp C 
 L ; N 776 296 M 767 296 I 767 286 I 776 286 I C 
K 
: N 789 287 8 9 rp C 
 L ; N 797 296 M 788 296 I 788 286 I 797 286 I C 
K 
: N 799 287 9 8 rp C 
 L ; N 808 295 M 798 295 I 798 286 I 808 286 I C 
K 
: N 821 287 19 9 rp C 
 L ; N 840 296 M 820 296 I 820 286 I 840 286 I C 
K 
: N 852 287 9 8 rp C 
 L ; N 861 295 M 851 295 I 851 286 I 861 286 I C 
K 
: N 863 287 8 9 rp C 
 L ; N 871 296 M 862 296 I 862 286 I 871 286 I C 
K 
: N 873 287 9 8 rp C 
 L ; N 882 295 M 872 295 I 872 286 I 882 286 I C 
K 
: N 894 287 9 9 rp C 
 L ; N 903 296 M 893 296 I 893 286 I 903 286 I C 
K 
: N 936 287 9 9 rp C 
 L ; N 945 296 M 935 296 I 935 286 I 945 286 I C 
K 
: N 978 287 9 8 rp C 
 L ; N 987 295 M 977 295 I 977 286 I 987 286 I C 
K 
: N 516 297 9 9 rp C 
 L ; N 525 306 M 515 306 I 515 296 I 525 296 I C 
K 
: N 526 297 19 9 rp C 
 L ; N 545 306 M 525 306 I 525 296 I 545 296 I C 
K 
: N 547 297 9 9 rp C 
 L ; N 556 306 M 546 306 I 546 296 I 556 296 I C 
K 
: N 558 297 19 9 rp C 
 L ; N 577 306 M 557 306 I 557 296 I 577 296 I C 
K 
: N 578 297 41 9 rp C 
 L ; N 619 306 M 577 306 I 577 296 I 619 296 I C 
K 
: N 621 297 8 9 rp C 
 L ; N 629 306 M 620 306 I 620 296 I 629 296 I C 
K 
: N 694 297 9 9 rp C 
 L ; N 703 306 M 693 306 I 693 296 I 703 296 I C 
K 
: N 704 297 41 9 rp C 
 L ; N 745 306 M 703 306 I 703 296 I 745 296 I C 
K 
: N 747 297 8 9 rp C 
 L ; N 755 306 M 746 306 I 746 296 I 755 296 I C 
K 
: N 757 297 9 9 rp C 
 L ; N 766 306 M 756 306 I 756 296 I 766 296 I C 
K 
: N 768 297 8 9 rp C 
 L ; N 776 306 M 767 306 I 767 296 I 776 296 I C 
K 
: N 778 297 19 9 rp C 
 L ; N 797 306 M 777 306 I 777 296 I 797 296 I C 
K 
: N 810 297 9 9 rp C 
 L ; N 819 306 M 809 306 I 809 296 I 819 296 I C 
K 
: N 820 297 10 9 rp C 
 L ; N 830 306 M 819 306 I 819 296 I 830 296 I C 
K 
: N 831 297 19 9 rp C 
 L ; N 850 306 M 830 306 I 830 296 I 850 296 I C 
K 
: N 863 297 8 9 rp C 
 L ; N 871 306 M 862 306 I 862 296 I 871 296 I C 
K 
: N 894 297 19 9 rp C 
 L ; N 913 306 M 893 306 I 893 296 I 913 296 I C 
K 
: N 915 297 9 9 rp C 
 L ; N 924 306 M 914 306 I 914 296 I 924 296 I C 
K 
: N 926 297 8 9 rp C 
 L ; N 934 306 M 925 306 I 925 296 I 934 296 I C 
K 
: N 936 297 9 9 rp C 
 L ; N 945 306 M 935 306 I 935 296 I 945 296 I C 
K 
: N 947 297 8 9 rp C 
 L ; N 955 306 M 946 306 I 946 296 I 955 296 I C 
K 
: N 957 297 9 9 rp C 
 L ; N 966 306 M 956 306 I 956 296 I 966 296 I C 
K 
: N 526 308 9 9 rp C 
 L ; N 535 317 M 525 317 I 525 307 I 535 307 I C 
K 
: N 536 308 9 8 rp C 
 L ; N 545 316 M 535 316 I 535 307 I 545 307 I C 
K 
: N 558 308 8 9 rp C 
 L ; N 566 317 M 557 317 I 557 307 I 566 307 I C 
K 
: N 568 308 9 8 rp C 
 L ; N 577 316 M 567 316 I 567 307 I 577 307 I C 
K 
: N 621 308 8 9 rp C 
 L ; N 629 317 M 620 317 I 620 307 I 629 307 I C 
K 
: N 684 308 8 9 rp C 
 L ; N 692 317 M 683 317 I 683 307 I 692 307 I C 
K 
: N 694 308 9 8 rp C 
 L ; N 703 316 M 693 316 I 693 307 I 703 307 I C 
K 
: N 747 308 8 9 rp C 
 L ; N 755 317 M 746 317 I 746 307 I 755 307 I C 
K 
: N 768 308 8 8 rp C 
 L ; N 776 316 M 767 316 I 767 307 I 776 307 I C 
K 
: N 799 308 9 9 rp C 
 L ; N 808 317 M 798 317 I 798 307 I 808 307 I C 
K 
: N 810 308 9 8 rp C 
 L ; N 819 316 M 809 316 I 809 307 I 819 307 I C 
K 
: N 831 308 9 8 rp C 
 L ; N 840 316 M 830 316 I 830 307 I 840 307 I C 
K 
: N 842 308 8 9 rp C 
 L ; N 850 317 M 841 317 I 841 307 I 850 307 I C 
K 
: N 894 308 9 8 rp C 
 L ; N 903 316 M 893 316 I 893 307 I 903 307 I C 
K 
: N 905 308 8 9 rp C 
 L ; N 913 317 M 904 317 I 904 307 I 913 307 I C 
K 
: N 926 308 8 8 rp C 
 L ; N 934 316 M 925 316 I 925 307 I 934 307 I C 
K 
: N 947 308 8 9 rp C 
 L ; N 955 317 M 946 317 I 946 307 I 955 307 I C 
K 
: N 968 308 19 9 rp C 
 L ; N 987 317 M 967 317 I 967 307 I 987 307 I C 
K 
: N 516 318 8 9 rp C 
 L ; N 524 327 M 515 327 I 515 317 I 524 317 I C 
K 
: N 526 318 9 9 rp C 
 L ; N 535 327 M 525 327 I 525 317 I 535 317 I C 
K 
: N 547 318 9 9 rp C 
 L ; N 556 327 M 546 327 I 546 317 I 556 317 I C 
K 
: N 558 318 8 9 rp C 
 L ; N 566 327 M 557 327 I 557 317 I 566 317 I C 
K 
: N 579 318 9 9 rp C 
 L ; N 588 327 M 578 327 I 578 317 I 588 317 I C 
K 
: N 589 318 40 9 rp C 
 L ; N 629 327 M 588 327 I 588 317 I 629 317 I C 
K 
: N 673 318 19 9 rp C 
 L ; N 692 327 M 672 327 I 672 317 I 692 317 I C 
K 
: N 705 318 19 9 rp C 
 L ; N 724 327 M 704 327 I 704 317 I 724 317 I C 
K 
: N 747 318 19 9 rp C 
 L ; N 766 327 M 746 327 I 746 317 I 766 317 I C 
K 
: N 789 318 8 9 rp C 
 L ; N 797 327 M 788 327 I 788 317 I 797 317 I C 
K 
: N 799 318 9 9 rp C 
 L ; N 808 327 M 798 327 I 798 317 I 808 317 I C 
K 
: N 842 318 8 9 rp C 
 L ; N 850 327 M 841 327 I 841 317 I 850 317 I C 
K 
: N 873 318 9 9 rp C 
 L ; N 882 327 M 872 327 I 872 317 I 882 317 I C 
K 
: N 905 318 8 9 rp C 
 L ; N 913 327 M 904 327 I 904 317 I 913 317 I C 
K 
: N 936 318 9 9 rp C 
 L ; N 945 327 M 935 327 I 935 317 I 945 317 I C 
K 
: N 947 318 19 9 rp C 
 L ; N 966 327 M 946 327 I 946 317 I 966 317 I C 
K 
: N 967 318 10 9 rp C 
 L ; N 977 327 M 966 327 I 966 317 I 977 317 I C 
K 
: N 978 318 9 9 rp C 
 L ; N 987 327 M 977 327 I 977 317 I 987 317 I C 
K 
: N 516 329 8 8 rp C 
 L ; N 524 337 M 515 337 I 515 328 I 524 328 I C 
K 
: N 558 329 9 8 rp C 
 L ; N 567 337 M 557 337 I 557 328 I 567 328 I C 
K 
: N 568 329 9 9 rp C 
 L ; N 577 338 M 567 338 I 567 328 I 577 328 I C 
K 
: N 589 329 20 8 rp C 
 L ; N 609 337 M 588 337 I 588 328 I 609 328 I C 
K 
: N 610 329 30 9 rp C 
 L ; N 640 338 M 609 338 I 609 328 I 640 328 I C 
K 
: N 641 329 10 8 rp C 
 L ; N 651 337 M 640 337 I 640 328 I 651 328 I C 
K 
: N 652 329 9 9 rp C 
 L ; N 661 338 M 651 338 I 651 328 I 661 328 I C 
K 
: N 673 329 9 9 rp C 
 L ; N 682 338 M 672 338 I 672 328 I 682 328 I C 
K 
: N 683 329 9 8 rp C 
 L ; N 692 337 M 682 337 I 682 328 I 692 328 I C 
K 
: N 726 329 8 9 rp C 
 L ; N 734 338 M 725 338 I 725 328 I 734 328 I C 
K 
: N 736 329 9 8 rp C 
 L ; N 745 337 M 735 337 I 735 328 I 745 328 I C 
K 
: N 768 329 8 9 rp C 
 L ; N 776 338 M 767 338 I 767 328 I 776 328 I C 
K 
: N 778 329 9 8 rp C 
 L ; N 787 337 M 777 337 I 777 328 I 787 328 I C 
K 
: N 789 329 8 9 rp C 
 L ; N 797 338 M 788 338 I 788 328 I 797 328 I C 
K 
: N 810 329 19 8 rp C 
 L ; N 829 337 M 809 337 I 809 328 I 829 328 I C 
K 
: N 852 329 9 8 rp C 
 L ; N 861 337 M 851 337 I 851 328 I 861 328 I C 
K 
: N 884 329 8 8 rp C 
 L ; N 892 337 M 883 337 I 883 328 I 892 328 I C 
K 
: N 915 329 9 8 rp C 
 L ; N 924 337 M 914 337 I 914 328 I 924 328 I C 
K 
: N 926 329 8 9 rp C 
 L ; N 934 338 M 925 338 I 925 328 I 934 328 I C 
K 
: N 947 329 8 9 rp C 
 L ; N 955 338 M 946 338 I 946 328 I 955 328 I C 
K 
: N 957 329 9 8 rp C 
 L ; N 966 337 M 956 337 I 956 328 I 966 328 I C 
K 
: N 978 329 9 9 rp C 
 L ; N 987 338 M 977 338 I 977 328 I 987 328 I C 
K 
: N 526 339 9 9 rp C 
 L ; N 535 348 M 525 348 I 525 338 I 535 338 I C 
K 
: N 537 339 8 9 rp C 
 L ; N 545 348 M 536 348 I 536 338 I 545 338 I C 
K 
: N 568 339 9 9 rp C 
 L ; N 577 348 M 567 348 I 567 338 I 577 338 I C 
K 
: N 578 339 9 9 rp C 
 L ; N 587 348 M 577 348 I 577 338 I 587 338 I C 
K 
: N 610 339 30 9 rp C 
 L ; N 640 348 M 609 348 I 609 338 I 640 338 I C 
K 
: N 652 339 9 9 rp C 
 L ; N 661 348 M 651 348 I 651 338 I 661 338 I C 
K 
: N 673 339 9 9 rp C 
 L ; N 682 348 M 672 348 I 672 338 I 682 338 I C 
K 
: N 705 339 8 9 rp C 
 L ; N 713 348 M 704 348 I 704 338 I 713 338 I C 
K 
: N 726 339 8 9 rp C 
 L ; N 734 348 M 725 348 I 725 338 I 734 338 I C 
K 
: N 757 339 9 9 rp C 
 L ; N 766 348 M 756 348 I 756 338 I 766 338 I C 
K 
: N 767 339 9 9 rp C 
 L ; N 776 348 M 766 348 I 766 338 I 776 338 I C 
K 
: N 789 339 8 9 rp C 
 L ; N 797 348 M 788 348 I 788 338 I 797 338 I C 
K 
: N 831 339 9 9 rp C 
 L ; N 840 348 M 830 348 I 830 338 I 840 338 I C 
K 
: N 873 339 9 9 rp C 
 L ; N 882 348 M 872 348 I 872 338 I 882 338 I C 
K 
: N 894 339 9 9 rp C 
 L ; N 903 348 M 893 348 I 893 338 I 903 338 I C 
K 
: N 926 339 8 9 rp C 
 L ; N 934 348 M 925 348 I 925 338 I 934 338 I C 
K 
: N 947 339 8 9 rp C 
 L ; N 955 348 M 946 348 I 946 338 I 955 338 I C 
K 
: N 978 339 9 9 rp C 
 L ; N 987 348 M 977 348 I 977 338 I 987 338 I C 
K 
: N 537 350 19 9 rp C 
 L ; N 556 359 M 536 359 I 536 349 I 556 349 I C 
K 
: N 557 350 10 8 rp C 
 L ; N 567 358 M 556 358 I 556 349 I 567 349 I C 
K 
: N 568 350 9 9 rp C 
 L ; N 577 359 M 567 359 I 567 349 I 577 349 I C 
K 
: N 589 350 19 9 rp C 
 L ; N 608 359 M 588 359 I 588 349 I 608 349 I C 
K 
: N 642 350 19 8 rp C 
 L ; N 661 358 M 641 358 I 641 349 I 661 349 I C 
K 
: N 684 350 8 9 rp C 
 L ; N 692 359 M 683 359 I 683 349 I 692 349 I C 
K 
: N 726 350 19 9 rp C 
 L ; N 745 359 M 725 359 I 725 349 I 745 349 I C 
K 
: N 757 350 9 9 rp C 
 L ; N 766 359 M 756 359 I 756 349 I 766 349 I C 
K 
: N 778 350 9 8 rp C 
 L ; N 787 358 M 777 358 I 777 349 I 787 349 I C 
K 
: N 789 350 8 9 rp C 
 L ; N 797 359 M 788 359 I 788 349 I 797 349 I C 
K 
: N 821 350 19 9 rp C 
 L ; N 840 359 M 820 359 I 820 349 I 840 349 I C 
K 
: N 863 350 19 9 rp C 
 L ; N 882 359 M 862 359 I 862 349 I 882 349 I C 
K 
: N 894 350 19 9 rp C 
 L ; N 913 359 M 893 359 I 893 349 I 913 349 I C 
K 
: N 936 350 20 8 rp C 
 L ; N 956 358 M 935 358 I 935 349 I 956 349 I C 
K 
: N 957 350 19 9 rp C 
 L ; N 976 359 M 956 359 I 956 349 I 976 349 I C 
K 
: N 978 350 9 8 rp C 
 L ; N 987 358 M 977 358 I 977 349 I 987 349 I C 
K 
: N 516 360 40 9 rp C 
 L ; N 556 369 M 515 369 I 515 359 I 556 359 I C 
K 
: N 568 360 9 9 rp C 
 L ; N 577 369 M 567 369 I 567 359 I 577 359 I C 
K 
: N 578 360 31 9 rp C 
 L ; N 609 369 M 577 369 I 577 359 I 609 359 I C 
K 
: N 610 360 9 9 rp C 
 L ; N 619 369 M 609 369 I 609 359 I 619 359 I C 
K 
: N 663 360 9 9 rp C 
 L ; N 672 369 M 662 369 I 662 359 I 672 359 I C 
K 
: N 673 360 40 9 rp C 
 L ; N 713 369 M 672 369 I 672 359 I 713 359 I C 
K 
: N 726 360 19 9 rp C 
 L ; N 745 369 M 725 369 I 725 359 I 745 359 I C 
K 
: N 757 360 19 9 rp C 
 L ; N 776 369 M 756 369 I 756 359 I 776 359 I C 
K 
: N 789 360 8 9 rp C 
 L ; N 797 369 M 788 369 I 788 359 I 797 359 I C 
K 
: N 821 360 9 9 rp C 
 L ; N 830 369 M 820 369 I 820 359 I 830 359 I C 
K 
: N 831 360 9 9 rp C 
 L ; N 840 369 M 830 369 I 830 359 I 840 359 I C 
K 
: N 841 360 41 9 rp C 
 L ; N 882 369 M 840 369 I 840 359 I 882 359 I C 
K 
: N 894 360 20 9 rp C 
 L ; N 914 369 M 893 369 I 893 359 I 914 359 I C 
K 
: N 915 360 9 9 rp C 
 L ; N 924 369 M 914 369 I 914 359 I 924 359 I C 
K 
: N 925 360 9 9 rp C 
 L ; N 934 369 M 924 369 I 924 359 I 934 359 I C 
K 
: N 957 360 19 9 rp C 
 L ; N 976 369 M 956 369 I 956 359 I 976 359 I C 
K 
: N 516 371 19 9 rp C 
 L ; N 535 380 M 515 380 I 515 370 I 535 370 I C 
K 
: N 536 371 10 8 rp C 
 L ; N 546 379 M 535 379 I 535 370 I 546 370 I C 
K 
: N 547 371 9 9 rp C 
 L ; N 556 380 M 546 380 I 546 370 I 556 370 I C 
K 
: N 557 371 20 8 rp C 
 L ; N 577 379 M 556 379 I 556 370 I 577 370 I C 
K 
: N 610 371 9 8 rp C 
 L ; N 619 379 M 609 379 I 609 370 I 619 370 I C 
K 
: N 621 371 8 9 rp C 
 L ; N 629 380 M 620 380 I 620 370 I 629 370 I C 
K 
: N 631 371 9 8 rp C 
 L ; N 640 379 M 630 379 I 630 370 I 640 370 I C 
K 
: N 673 371 20 8 rp C 
 L ; N 693 379 M 672 379 I 672 370 I 693 370 I C 
K 
: N 694 371 9 9 rp C 
 L ; N 703 380 M 693 380 I 693 370 I 703 370 I C 
K 
: N 704 371 31 8 rp C 
 L ; N 735 379 M 703 379 I 703 370 I 735 370 I C 
K 
: N 736 371 9 9 rp C 
 L ; N 745 380 M 735 380 I 735 370 I 745 370 I C 
K 
: N 757 371 9 9 rp C 
 L ; N 766 380 M 756 380 I 756 370 I 766 370 I C 
K 
: N 767 371 9 8 rp C 
 L ; N 776 379 M 766 379 I 766 370 I 776 370 I C 
K 
: N 799 371 9 9 rp C 
 L ; N 808 380 M 798 380 I 798 370 I 808 370 I C 
K 
: N 810 371 9 8 rp C 
 L ; N 819 379 M 809 379 I 809 370 I 819 370 I C 
K 
: N 831 371 9 9 rp C 
 L ; N 840 380 M 830 380 I 830 370 I 840 370 I C 
K 
: N 884 371 8 8 rp C 
 L ; N 892 379 M 883 379 I 883 370 I 892 370 I C 
K 
: N 915 371 9 9 rp C 
 L ; N 924 380 M 914 380 I 914 370 I 924 370 I C 
K 
: N 957 371 19 8 rp C 
 L ; N 976 379 M 956 379 I 956 370 I 976 370 I C 
K 
: N 516 381 8 9 rp C 
 L ; N 524 390 M 515 390 I 515 380 I 524 380 I C 
K 
: N 526 381 9 9 rp C 
 L ; N 535 390 M 525 390 I 525 380 I 535 380 I C 
K 
: N 547 381 9 9 rp C 
 L ; N 556 390 M 546 390 I 546 380 I 556 380 I C 
K 
: N 579 381 8 9 rp C 
 L ; N 587 390 M 578 390 I 578 380 I 587 380 I C 
K 
: N 621 381 8 9 rp C 
 L ; N 629 390 M 620 390 I 620 380 I 629 380 I C 
K 
: N 652 381 9 9 rp C 
 L ; N 661 390 M 651 390 I 651 380 I 661 380 I C 
K 
: N 694 381 9 9 rp C 
 L ; N 703 390 M 693 390 I 693 380 I 703 380 I C 
K 
: N 736 381 9 9 rp C 
 L ; N 745 390 M 735 390 I 735 380 I 745 380 I C 
K 
: N 757 381 9 9 rp C 
 L ; N 766 390 M 756 390 I 756 380 I 766 380 I C 
K 
: N 789 381 19 9 rp C 
 L ; N 808 390 M 788 390 I 788 380 I 808 380 I C 
K 
: N 821 381 9 9 rp C 
 L ; N 830 390 M 820 390 I 820 380 I 830 380 I C 
K 
: N 831 381 9 9 rp C 
 L ; N 840 390 M 830 390 I 830 380 I 840 380 I C 
K 
: N 863 381 9 9 rp C 
 L ; N 872 390 M 862 390 I 862 380 I 872 380 I C 
K 
: N 873 381 9 9 rp C 
 L ; N 882 390 M 872 390 I 872 380 I 882 380 I C 
K 
: N 905 381 19 9 rp C 
 L ; N 924 390 M 904 390 I 904 380 I 924 380 I C 
K 
: N 926 381 19 9 rp C 
 L ; N 945 390 M 925 390 I 925 380 I 945 380 I C 
K 
: N 946 381 9 9 rp C 
 L ; N 955 390 M 945 390 I 945 380 I 955 380 I C 
K 
: N 978 381 9 9 rp C 
 L ; N 987 390 M 977 390 I 977 380 I 987 380 I C 
K 
: N 516 392 8 8 rp C 
 L ; N 524 400 M 515 400 I 515 391 I 524 391 I C 
K 
: N 537 392 8 8 rp C 
 L ; N 545 400 M 536 400 I 536 391 I 545 391 I C 
K 
: N 558 392 8 9 rp C 
 L ; N 566 401 M 557 401 I 557 391 I 566 391 I C 
K 
: N 568 392 9 8 rp C 
 L ; N 577 400 M 567 400 I 567 391 I 577 391 I C 
K 
: N 589 392 9 8 rp C 
 L ; N 598 400 M 588 400 I 588 391 I 598 391 I C 
K 
: N 610 392 19 8 rp C 
 L ; N 629 400 M 609 400 I 609 391 I 629 391 I C 
K 
: N 642 392 8 9 rp C 
 L ; N 650 401 M 641 401 I 641 391 I 650 391 I C 
K 
: N 652 392 19 8 rp C 
 L ; N 671 400 M 651 400 I 651 391 I 671 391 I C 
K 
: N 684 392 9 8 rp C 
 L ; N 693 400 M 683 400 I 683 391 I 693 391 I C 
K 
: N 694 392 19 9 rp C 
 L ; N 713 401 M 693 401 I 693 391 I 713 391 I C 
K 
: N 715 392 9 8 rp C 
 L ; N 724 400 M 714 400 I 714 391 I 724 391 I C 
K 
: N 757 392 9 9 rp C 
 L ; N 766 401 M 756 401 I 756 391 I 766 391 I C 
K 
: N 767 392 9 8 rp C 
 L ; N 776 400 M 766 400 I 766 391 I 776 391 I C 
K 
: N 789 392 8 9 rp C 
 L ; N 797 401 M 788 401 I 788 391 I 797 391 I C 
K 
: N 799 392 9 8 rp C 
 L ; N 808 400 M 798 400 I 798 391 I 808 391 I C 
K 
: N 831 392 9 8 rp C 
 L ; N 840 400 M 830 400 I 830 391 I 840 391 I C 
K 
: N 873 392 9 8 rp C 
 L ; N 882 400 M 872 400 I 872 391 I 882 391 I C 
K 
: N 926 392 9 8 rp C 
 L ; N 935 400 M 925 400 I 925 391 I 935 391 I C 
K 
: N 936 392 9 9 rp C 
 L ; N 945 401 M 935 401 I 935 391 I 945 391 I C 
K 
: N 968 392 8 8 rp C 
 L ; N 976 400 M 967 400 I 967 391 I 976 391 I C 
K 
: N 558 402 8 9 rp C 
 L ; N 566 411 M 557 411 I 557 401 I 566 401 I C 
K 
: N 579 402 8 9 rp C 
 L ; N 587 411 M 578 411 I 578 401 I 587 401 I C 
K 
: N 600 402 8 9 rp C 
 L ; N 608 411 M 599 411 I 599 401 I 608 401 I C 
K 
: N 642 402 8 9 rp C 
 L ; N 650 411 M 641 411 I 641 401 I 650 401 I C 
K 
: N 694 402 19 9 rp C 
 L ; N 713 411 M 693 411 I 693 401 I 713 401 I C 
K 
: N 726 402 19 9 rp C 
 L ; N 745 411 M 725 411 I 725 401 I 745 401 I C 
K 
: N 746 402 20 9 rp C 
 L ; N 766 411 M 745 411 I 745 401 I 766 401 I C 
K 
: N 789 402 8 9 rp C 
 L ; N 797 411 M 788 411 I 788 401 I 797 401 I C 
K 
: N 810 402 9 9 rp C 
 L ; N 819 411 M 809 411 I 809 401 I 819 401 I C 
K 
: N 821 402 8 9 rp C 
 L ; N 829 411 M 820 411 I 820 401 I 829 401 I C 
K 
: N 842 402 19 9 rp C 
 L ; N 861 411 M 841 411 I 841 401 I 861 401 I C 
K 
: N 936 402 9 9 rp C 
 L ; N 945 411 M 935 411 I 935 401 I 945 401 I C 
K 
: N 957 402 9 9 rp C 
 L ; N 966 411 M 956 411 I 956 401 I 966 401 I C 
K 
: N 526 413 20 8 rp C 
 L ; N 546 421 M 525 421 I 525 412 I 546 412 I C 
K 
: N 547 413 19 9 rp C 
 L ; N 566 422 M 546 422 I 546 412 I 566 412 I C 
K 
: N 600 413 8 8 rp C 
 L ; N 608 421 M 599 421 I 599 412 I 608 412 I C 
K 
: N 621 413 19 8 rp C 
 L ; N 640 421 M 620 421 I 620 412 I 640 412 I C 
K 
: N 652 413 9 8 rp C 
 L ; N 661 421 M 651 421 I 651 412 I 661 412 I C 
K 
: N 673 413 9 8 rp C 
 L ; N 682 421 M 672 421 I 672 412 I 682 412 I C 
K 
: N 726 413 19 9 rp C 
 L ; N 745 422 M 725 422 I 725 412 I 745 412 I C 
K 
: N 768 413 8 9 rp C 
 L ; N 776 422 M 767 422 I 767 412 I 776 412 I C 
K 
: N 821 413 9 8 rp C 
 L ; N 830 421 M 820 421 I 820 412 I 830 412 I C 
K 
: N 831 413 9 9 rp C 
 L ; N 840 422 M 830 422 I 830 412 I 840 412 I C 
K 
: N 863 413 9 8 rp C 
 L ; N 872 421 M 862 421 I 862 412 I 872 412 I C 
K 
: N 873 413 9 9 rp C 
 L ; N 882 422 M 872 422 I 872 412 I 882 412 I C 
K 
: N 894 413 9 9 rp C 
 L ; N 903 422 M 893 422 I 893 412 I 903 412 I C 
K 
: N 915 413 19 9 rp C 
 L ; N 934 422 M 914 422 I 914 412 I 934 412 I C 
K 
: N 957 413 9 9 rp C 
 L ; N 966 422 M 956 422 I 956 412 I 966 412 I C 
K 
: N 967 413 9 8 rp C 
 L ; N 976 421 M 966 421 I 966 412 I 976 412 I C 
K 
: N 516 423 8 9 rp C 
 L ; N 524 432 M 515 432 I 515 422 I 524 422 I C 
K 
: N 547 423 19 9 rp C 
 L ; N 566 432 M 546 432 I 546 422 I 566 422 I C 
K 
: N 579 423 8 9 rp C 
 L ; N 587 432 M 578 432 I 578 422 I 587 422 I C 
K 
: N 610 423 9 9 rp C 
 L ; N 619 432 M 609 432 I 609 422 I 619 422 I C 
K 
: N 642 423 8 9 rp C 
 L ; N 650 432 M 641 432 I 641 422 I 650 422 I C 
K 
: N 694 423 9 10 rp C 
 L ; N 703 433 M 693 433 I 693 422 I 703 422 I C 
K 
: N 715 423 9 9 rp C 
 L ; N 724 432 M 714 432 I 714 422 I 724 422 I C 
K 
: N 726 423 8 10 rp C 
 L ; N 734 433 M 725 433 I 725 422 I 734 422 I C 
K 
: N 736 423 30 9 rp C 
 L ; N 766 432 M 735 432 I 735 422 I 766 422 I C 
K 
: N 768 423 8 10 rp C 
 L ; N 776 433 M 767 433 I 767 422 I 776 422 I C 
K 
: N 789 423 9 9 rp C 
 L ; N 798 432 M 788 432 I 788 422 I 798 422 I C 
K 
: N 799 423 9 10 rp C 
 L ; N 808 433 M 798 433 I 798 422 I 808 422 I C 
K 
: N 831 423 19 10 rp C 
 L ; N 850 433 M 830 433 I 830 422 I 850 422 I C 
K 
: N 873 423 9 10 rp C 
 L ; N 882 433 M 872 433 I 872 422 I 882 422 I C 
K 
: N 883 423 10 9 rp C 
 L ; N 893 432 M 882 432 I 882 422 I 893 422 I C 
K 
: N 894 423 9 10 rp C 
 L ; N 903 433 M 893 433 I 893 422 I 903 422 I C 
K 
: N 904 423 31 9 rp C 
 L ; N 935 432 M 903 432 I 903 422 I 935 422 I C 
K 
: N 936 423 9 10 rp C 
 L ; N 945 433 M 935 433 I 935 422 I 945 422 I C 
K 
: N 957 423 9 9 rp C 
 L ; N 966 432 M 956 432 I 956 422 I 966 422 I C 
K 
: N 978 423 9 9 rp C 
 L ; N 987 432 M 977 432 I 977 422 I 987 422 I C 
K 
: N 600 434 8 9 rp C 
 L ; N 608 443 M 599 443 I 599 433 I 608 433 I C 
K 
: N 652 434 9 9 rp C 
 L ; N 661 443 M 651 443 I 651 433 I 661 433 I C 
K 
: N 684 434 8 9 rp C 
 L ; N 692 443 M 683 443 I 683 433 I 692 433 I C 
K 
: N 694 434 9 9 rp C 
 L ; N 703 443 M 693 443 I 693 433 I 703 433 I C 
K 
: N 726 434 8 9 rp C 
 L ; N 734 443 M 725 443 I 725 433 I 734 433 I C 
K 
: N 768 434 8 9 rp C 
 L ; N 776 443 M 767 443 I 767 433 I 776 433 I C 
K 
: N 799 434 9 9 rp C 
 L ; N 808 443 M 798 443 I 798 433 I 808 433 I C 
K 
: N 821 434 19 9 rp C 
 L ; N 840 443 M 820 443 I 820 433 I 840 433 I C 
K 
: N 841 434 9 9 rp C 
 L ; N 850 443 M 840 443 I 840 433 I 850 433 I C 
K 
: N 863 434 19 9 rp C 
 L ; N 882 443 M 862 443 I 862 433 I 882 433 I C 
K 
: N 894 434 9 9 rp C 
 L ; N 903 443 M 893 443 I 893 433 I 903 433 I C 
K 
: N 936 434 9 9 rp C 
 L ; N 945 443 M 935 443 I 935 433 I 945 433 I C 
K 
: N 946 434 9 9 rp C 
 L ; N 955 443 M 945 443 I 945 433 I 955 433 I C 
K 
: N 516 445 8 9 rp C 
 L ; N 524 454 M 515 454 I 515 444 I 524 444 I C 
K 
: N 526 445 51 8 rp C 
 L ; N 577 453 M 525 453 I 525 444 I 577 444 I C 
K 
: N 579 445 8 9 rp C 
 L ; N 587 454 M 578 454 I 578 444 I 587 444 I C 
K 
: N 600 445 8 8 rp C 
 L ; N 608 453 M 599 453 I 599 444 I 608 444 I C 
K 
: N 621 445 8 9 rp C 
 L ; N 629 454 M 620 454 I 620 444 I 629 444 I C 
K 
: N 642 445 8 9 rp C 
 L ; N 650 454 M 641 454 I 641 444 I 650 444 I C 
K 
: N 663 445 8 8 rp C 
 L ; N 671 453 M 662 453 I 662 444 I 671 444 I C 
K 
: N 684 445 8 9 rp C 
 L ; N 692 454 M 683 454 I 683 444 I 692 444 I C 
K 
: N 726 445 8 9 rp C 
 L ; N 734 454 M 725 454 I 725 444 I 734 444 I C 
K 
: N 747 445 8 8 rp C 
 L ; N 755 453 M 746 453 I 746 444 I 755 444 I C 
K 
: N 768 445 8 9 rp C 
 L ; N 776 454 M 767 454 I 767 444 I 776 444 I C 
K 
: N 789 445 9 8 rp C 
 L ; N 798 453 M 788 453 I 788 444 I 798 444 I C 
K 
: N 799 445 9 9 rp C 
 L ; N 808 454 M 798 454 I 798 444 I 808 444 I C 
K 
: N 810 445 9 8 rp C 
 L ; N 819 453 M 809 453 I 809 444 I 819 444 I C 
K 
: N 821 445 19 9 rp C 
 L ; N 840 454 M 820 454 I 820 444 I 840 444 I C 
K 
: N 863 445 19 9 rp C 
 L ; N 882 454 M 862 454 I 862 444 I 882 444 I C 
K 
: N 894 445 9 9 rp C 
 L ; N 903 454 M 893 454 I 893 444 I 903 444 I C 
K 
: N 915 445 9 8 rp C 
 L ; N 924 453 M 914 453 I 914 444 I 924 444 I C 
K 
: N 936 445 9 9 rp C 
 L ; N 945 454 M 935 454 I 935 444 I 945 444 I C 
K 
: N 968 445 9 8 rp C 
 L ; N 977 453 M 967 453 I 967 444 I 977 444 I C 
K 
: N 978 445 9 9 rp C 
 L ; N 987 454 M 977 454 I 977 444 I 987 444 I C 
K 
: N 516 455 8 9 rp C 
 L ; N 524 464 M 515 464 I 515 454 I 524 454 I C 
K 
: N 579 455 8 9 rp C 
 L ; N 587 464 M 578 464 I 578 454 I 587 454 I C 
K 
: N 610 455 19 9 rp C 
 L ; N 629 464 M 609 464 I 609 454 I 629 454 I C 
K 
: N 642 455 9 9 rp C 
 L ; N 651 464 M 641 464 I 641 454 I 651 454 I C 
K 
: N 652 455 9 9 rp C 
 L ; N 661 464 M 651 464 I 651 454 I 661 454 I C 
K 
: N 673 455 9 9 rp C 
 L ; N 682 464 M 672 464 I 672 454 I 682 454 I C 
K 
: N 684 455 8 9 rp C 
 L ; N 692 464 M 683 464 I 683 454 I 692 454 I C 
K 
: N 726 455 8 9 rp C 
 L ; N 734 464 M 725 464 I 725 454 I 734 454 I C 
K 
: N 768 455 8 9 rp C 
 L ; N 776 464 M 767 464 I 767 454 I 776 454 I C 
K 
: N 799 455 9 9 rp C 
 L ; N 808 464 M 798 464 I 798 454 I 808 454 I C 
K 
: N 821 455 9 9 rp C 
 L ; N 830 464 M 820 464 I 820 454 I 830 454 I C 
K 
: N 831 455 9 9 rp C 
 L ; N 840 464 M 830 464 I 830 454 I 840 454 I C 
K 
: N 841 455 20 9 rp C 
 L ; N 861 464 M 840 464 I 840 454 I 861 454 I C 
K 
: N 863 455 19 9 rp C 
 L ; N 882 464 M 862 464 I 862 454 I 882 454 I C 
K 
: N 883 455 10 9 rp C 
 L ; N 893 464 M 882 464 I 882 454 I 893 454 I C 
K 
: N 894 455 9 9 rp C 
 L ; N 903 464 M 893 464 I 893 454 I 903 454 I C 
K 
: N 936 455 9 9 rp C 
 L ; N 945 464 M 935 464 I 935 454 I 945 454 I C 
K 
: N 978 455 9 9 rp C 
 L ; N 987 464 M 977 464 I 977 454 I 987 454 I C 
K 
: N 516 466 8 9 rp C 
 L ; N 524 475 M 515 475 I 515 465 I 524 465 I C 
K 
: N 537 466 29 9 rp C 
 L ; N 566 475 M 536 475 I 536 465 I 566 465 I C 
K 
: N 579 466 8 9 rp C 
 L ; N 587 475 M 578 475 I 578 465 I 587 465 I C 
K 
: N 631 466 9 9 rp C 
 L ; N 640 475 M 630 475 I 630 465 I 640 465 I C 
K 
: N 652 466 19 9 rp C 
 L ; N 671 475 M 651 475 I 651 465 I 671 465 I C 
K 
: N 684 466 19 9 rp C 
 L ; N 703 475 M 683 475 I 683 465 I 703 465 I C 
K 
: N 704 466 9 8 rp C 
 L ; N 713 474 M 703 474 I 703 465 I 713 465 I C 
K 
: N 726 466 30 8 rp C 
 L ; N 756 474 M 725 474 I 725 465 I 756 465 I C 
K 
: N 757 466 9 9 rp C 
 L ; N 766 475 M 756 475 I 756 465 I 766 465 I C 
K 
: N 767 466 9 8 rp C 
 L ; N 776 474 M 766 474 I 766 465 I 776 465 I C 
K 
: N 789 466 30 8 rp C 
 L ; N 819 474 M 788 474 I 788 465 I 819 465 I C 
K 
: N 831 466 9 9 rp C 
 L ; N 840 475 M 830 475 I 830 465 I 840 465 I C 
K 
: N 863 466 9 8 rp C 
 L ; N 872 474 M 862 474 I 862 465 I 872 465 I C 
K 
: N 873 466 9 9 rp C 
 L ; N 882 475 M 872 475 I 872 465 I 882 465 I C 
K 
: N 894 466 19 9 rp C 
 L ; N 913 475 M 893 475 I 893 465 I 913 465 I C 
K 
: N 915 466 9 8 rp C 
 L ; N 924 474 M 914 474 I 914 465 I 924 465 I C 
K 
: N 926 466 8 9 rp C 
 L ; N 934 475 M 925 475 I 925 465 I 934 465 I C 
K 
: N 936 466 9 8 rp C 
 L ; N 945 474 M 935 474 I 935 465 I 945 465 I C 
K 
: N 947 466 19 9 rp C 
 L ; N 966 475 M 946 475 I 946 465 I 966 465 I C 
K 
: N 967 466 9 8 rp C 
 L ; N 976 474 M 966 474 I 966 465 I 976 465 I C 
K 
: N 516 476 8 9 rp C 
 L ; N 524 485 M 515 485 I 515 475 I 524 475 I C 
K 
: N 537 476 29 9 rp C 
 L ; N 566 485 M 536 485 I 536 475 I 566 475 I C 
K 
: N 579 476 8 9 rp C 
 L ; N 587 485 M 578 485 I 578 475 I 587 475 I C 
K 
: N 610 476 9 9 rp C 
 L ; N 619 485 M 609 485 I 609 475 I 619 475 I C 
K 
: N 631 476 9 9 rp C 
 L ; N 640 485 M 630 485 I 630 475 I 640 475 I C 
K 
: N 652 476 19 9 rp C 
 L ; N 671 485 M 651 485 I 651 475 I 671 475 I C 
K 
: N 684 476 9 9 rp C 
 L ; N 693 485 M 683 485 I 683 475 I 693 475 I C 
K 
: N 694 476 9 9 rp C 
 L ; N 703 485 M 693 485 I 693 475 I 703 475 I C 
K 
: N 715 476 9 9 rp C 
 L ; N 724 485 M 714 485 I 714 475 I 724 475 I C 
K 
: N 757 476 9 9 rp C 
 L ; N 766 485 M 756 485 I 756 475 I 766 475 I C 
K 
: N 778 476 9 9 rp C 
 L ; N 787 485 M 777 485 I 777 475 I 787 475 I C 
K 
: N 831 476 19 9 rp C 
 L ; N 850 485 M 830 485 I 830 475 I 850 475 I C 
K 
: N 873 476 9 9 rp C 
 L ; N 882 485 M 872 485 I 872 475 I 882 475 I C 
K 
: N 884 476 8 9 rp C 
 L ; N 892 485 M 883 485 I 883 475 I 892 475 I C 
K 
: N 894 476 19 9 rp C 
 L ; N 913 485 M 893 485 I 893 475 I 913 475 I C 
K 
: N 926 476 8 9 rp C 
 L ; N 934 485 M 925 485 I 925 475 I 934 475 I C 
K 
: N 947 476 9 9 rp C 
 L ; N 956 485 M 946 485 I 946 475 I 956 475 I C 
K 
: N 957 476 9 9 rp C 
 L ; N 966 485 M 956 485 I 956 475 I 966 475 I C 
K 
: N 516 487 8 9 rp C 
 L ; N 524 496 M 515 496 I 515 486 I 524 486 I C 
K 
: N 537 487 29 8 rp C 
 L ; N 566 495 M 536 495 I 536 486 I 566 486 I C 
K 
: N 579 487 8 9 rp C 
 L ; N 587 496 M 578 496 I 578 486 I 587 486 I C 
K 
: N 600 487 8 8 rp C 
 L ; N 608 495 M 599 495 I 599 486 I 608 486 I C 
K 
: N 621 487 8 8 rp C 
 L ; N 629 495 M 620 495 I 620 486 I 629 486 I C 
K 
: N 642 487 8 9 rp C 
 L ; N 650 496 M 641 496 I 641 486 I 650 486 I C 
K 
: N 673 487 9 8 rp C 
 L ; N 682 495 M 672 495 I 672 486 I 682 486 I C 
K 
: N 694 487 19 9 rp C 
 L ; N 713 496 M 693 496 I 693 486 I 713 486 I C 
K 
: N 715 487 19 8 rp C 
 L ; N 734 495 M 714 495 I 714 486 I 734 486 I C 
K 
: N 747 487 8 9 rp C 
 L ; N 755 496 M 746 496 I 746 486 I 755 486 I C 
K 
: N 768 487 19 9 rp C 
 L ; N 787 496 M 767 496 I 767 486 I 787 486 I C 
K 
: N 799 487 20 9 rp C 
 L ; N 819 496 M 798 496 I 798 486 I 819 486 I C 
K 
: N 863 487 8 8 rp C 
 L ; N 871 495 M 862 495 I 862 486 I 871 486 I C 
K 
: N 884 487 8 8 rp C 
 L ; N 892 495 M 883 495 I 883 486 I 892 486 I C 
K 
: N 915 487 9 9 rp C 
 L ; N 924 496 M 914 496 I 914 486 I 924 486 I C 
K 
: N 957 487 20 8 rp C 
 L ; N 977 495 M 956 495 I 956 486 I 977 486 I C 
K 
: N 978 487 9 9 rp C 
 L ; N 987 496 M 977 496 I 977 486 I 987 486 I C 
K 
: N 516 497 8 9 rp C 
 L ; N 524 506 M 515 506 I 515 496 I 524 496 I C 
K 
: N 579 497 8 9 rp C 
 L ; N 587 506 M 578 506 I 578 496 I 587 496 I C 
K 
: N 610 497 9 9 rp C 
 L ; N 619 506 M 609 506 I 609 496 I 619 496 I C 
K 
: N 642 497 8 9 rp C 
 L ; N 650 506 M 641 506 I 641 496 I 650 496 I C 
K 
: N 663 497 8 9 rp C 
 L ; N 671 506 M 662 506 I 662 496 I 671 496 I C 
K 
: N 694 497 9 9 rp C 
 L ; N 703 506 M 693 506 I 693 496 I 703 496 I C 
K 
: N 704 497 9 9 rp C 
 L ; N 713 506 M 703 506 I 703 496 I 713 496 I C 
K 
: N 747 497 9 9 rp C 
 L ; N 756 506 M 746 506 I 746 496 I 756 496 I C 
K 
: N 757 497 9 9 rp C 
 L ; N 766 506 M 756 506 I 756 496 I 766 496 I C 
K 
: N 767 497 10 9 rp C 
 L ; N 777 506 M 766 506 I 766 496 I 777 496 I C 
K 
: N 778 497 30 9 rp C 
 L ; N 808 506 M 777 506 I 777 496 I 808 496 I C 
K 
: N 810 497 9 9 rp C 
 L ; N 819 506 M 809 506 I 809 496 I 819 496 I C 
K 
: N 821 497 19 9 rp C 
 L ; N 840 506 M 820 506 I 820 496 I 840 496 I C 
K 
: N 841 497 10 9 rp C 
 L ; N 851 506 M 840 506 I 840 496 I 851 496 I C 
K 
: N 852 497 9 9 rp C 
 L ; N 861 506 M 851 506 I 851 496 I 861 496 I C 
K 
: N 915 497 9 9 rp C 
 L ; N 924 506 M 914 506 I 914 496 I 924 496 I C 
K 
: N 925 497 9 9 rp C 
 L ; N 934 506 M 924 506 I 924 496 I 934 496 I C 
K 
: N 947 497 8 9 rp C 
 L ; N 955 506 M 946 506 I 946 496 I 955 496 I C 
K 
: N 978 497 9 9 rp C 
 L ; N 987 506 M 977 506 I 977 496 I 987 496 I C 
K 
: N 516 508 71 8 rp C 
 L ; N 587 516 M 515 516 I 515 507 I 587 507 I C 
K 
: N 600 508 8 8 rp C 
 L ; N 608 516 M 599 516 I 599 507 I 608 507 I C 
K 
: N 621 508 8 8 rp C 
 L ; N 629 516 M 620 516 I 620 507 I 629 507 I C 
K 
: N 642 508 8 8 rp C 
 L ; N 650 516 M 641 516 I 641 507 I 650 507 I C 
K 
: N 663 508 8 8 rp C 
 L ; N 671 516 M 662 516 I 662 507 I 671 507 I C 
K 
: N 684 508 19 8 rp C 
 L ; N 703 516 M 683 516 I 683 507 I 703 507 I C 
K 
: N 715 508 30 8 rp C 
 L ; N 745 516 M 714 516 I 714 507 I 745 507 I C 
K 
: N 757 508 9 8 rp C 
 L ; N 766 516 M 756 516 I 756 507 I 766 507 I C 
K 
: N 778 508 30 8 rp C 
 L ; N 808 516 M 777 516 I 777 507 I 808 507 I C 
K 
: N 821 508 19 8 rp C 
 L ; N 840 516 M 820 516 I 820 507 I 840 507 I C 
K 
: N 852 508 9 8 rp C 
 L ; N 861 516 M 851 516 I 851 507 I 861 507 I C 
K 
: N 873 508 9 8 rp C 
 L ; N 882 516 M 872 516 I 872 507 I 882 507 I C 
K 
: N 905 508 19 8 rp C 
 L ; N 924 516 M 904 516 I 904 507 I 924 507 I C 
K 
: N 957 508 30 8 rp C 
 L ; N 987 516 M 956 516 I 956 507 I 987 507 I C 
K 
LH
%%PageTrailer

%%Trailer
%%DocumentNeededResources: 
%%DocumentSuppliedResources: 
%%+ procset Pscript_WinNT_VMErrorHandler 5.0 0
%%+ procset Pscript_FatalError 5.0 0
%%+ procset Pscript_Win_Basic 5.0 0
%%+ procset Pscript_Win_Utils_L2 5.0 0
%%+ procset Pscript_Win_GdiObject 5.0 0
%%+ procset Pscript_Win_GdiObject_L2 5.0 0
Pscript_WinNT_Incr dup /terminate get exec
%%EOF
